2019-04-04T21:10:55.590-0300	INFO	instance/beat.go:612	Home path: [D:\Treinamento\Elasticsearch\Environment\filebeat] Config path: [D:\Treinamento\Elasticsearch\Environment\filebeat] Data path: [D:\Treinamento\Elasticsearch\Environment\filebeat\data] Logs path: [D:\Treinamento\Elasticsearch\Environment\filebeat\logs]
2019-04-04T21:10:55.608-0300	INFO	instance/beat.go:619	Beat UUID: c8b76a6e-f1c7-42b6-b4d3-c36ae7eec690
2019-04-04T21:10:55.609-0300	INFO	[beat]	instance/beat.go:932	Beat info	{"system_info": {"beat": {"path": {"config": "D:\\Treinamento\\Elasticsearch\\Environment\\filebeat", "data": "D:\\Treinamento\\Elasticsearch\\Environment\\filebeat\\data", "home": "D:\\Treinamento\\Elasticsearch\\Environment\\filebeat", "logs": "D:\\Treinamento\\Elasticsearch\\Environment\\filebeat\\logs"}, "type": "filebeat", "uuid": "c8b76a6e-f1c7-42b6-b4d3-c36ae7eec690"}}}
2019-04-04T21:10:55.609-0300	INFO	[beat]	instance/beat.go:941	Build info	{"system_info": {"build": {"commit": "14ca49c28a6e10b84b4ea8cdebdc46bd2eab3130", "libbeat": "6.7.0", "time": "2019-03-21T14:33:12.000Z", "version": "6.7.0"}}}
2019-04-04T21:10:55.609-0300	INFO	[beat]	instance/beat.go:944	Go runtime info	{"system_info": {"go": {"os":"windows","arch":"amd64","max_procs":4,"version":"go1.10.8"}}}
2019-04-04T21:10:55.685-0300	INFO	[beat]	instance/beat.go:948	Host info	{"system_info": {"host": {"architecture":"x86_64","boot_time":"2019-04-04T20:44:54.26-03:00","name":"SIOUX","ip":["fe80::3129:bfbb:a85d:e125/64","169.254.225.37/16","fe80::817:a934:f46f:8946/64","169.254.137.70/16","fe80::b977:4a60:7c6b:ceee/64","192.168.56.1/24","fe80::5974:7886:b1cc:f5d3/64","192.168.99.1/24","fe80::d43d:abf1:6433:86be/64","169.254.134.190/16","fe80::6cb8:4063:258d:1fa2/64","169.254.31.162/16","fe80::8dac:1191:783c:7784/64","192.168.43.128/24","fe80::64b7:a1b6:8c4:fff3/64","169.254.255.243/16","::1/128","127.0.0.1/8"],"kernel_version":"10.0.17763.379 (WinBuild.160101.0800)","mac":["00:ac:81:16:7a:6e","84:7b:eb:fe:fc:09","0a:00:27:00:00:16","0a:00:27:00:00:0a","56:13:79:ed:5f:39","66:13:79:ed:5f:39","54:13:79:ed:5f:39","54:13:79:ed:5f:3a"],"os":{"family":"windows","platform":"windows","name":"Windows 10 Pro","version":"10.0","major":10,"minor":0,"patch":0,"build":"17763.379"},"timezone":"-03","timezone_offset_sec":-10800,"id":"a0ecb012-31cf-4e7f-8cba-0d24fe994ded"}}}
2019-04-04T21:10:55.688-0300	INFO	[beat]	instance/beat.go:977	Process info	{"system_info": {"process": {"cwd": "D:\\Treinamento\\Elasticsearch\\Environment\\filebeat", "exe": "D:\\Treinamento\\Elasticsearch\\Environment\\filebeat\\filebeat.exe", "name": "filebeat.exe", "pid": 7196, "ppid": 1548, "start_time": "2019-04-04T21:10:55.476-0300"}}}
2019-04-04T21:10:55.688-0300	INFO	instance/beat.go:280	Setup Beat: filebeat; Version: 6.7.0
2019-04-04T21:10:55.783-0300	INFO	[publisher]	pipeline/module.go:110	Beat name: SIOUX
