[2019-04-04 22:40:26,773][INFO] any info message - [id:10][instance:6] - [COMP-8][file-8.c][function-1][ln:123]
[2019-04-04 22:40:28,275][INFO] any info message - [id:10][instance:7] - [COMP-3][file-5.c][function-3][ln:437]
[2019-04-04 22:40:29,775][INFO] any info message - [id:10][instance:4] - [COMP-8][file-5.c][function-4][ln:203]
[2019-04-04 22:40:31,275][INFO] any info message - [id:10][instance:5] - [COMP-5][file-2.c][function-1][ln:119]
[2019-04-04 22:40:32,775][INFO] any info message - [id:10][instance:3] - [COMP-5][file-12.c][function-2][ln:716]
[2019-04-04 22:40:34,277][INFO] any info message - [id:10][instance:4] - [COMP-3][file-8.c][function-5][ln:931]
[2019-04-04 22:40:35,777][INFO] any info message - [id:10][instance:1] - [COMP-6][file-1.c][function-12][ln:951]
[2019-04-04 22:40:37,147][DEBUG] any debug message - [id:10][instance:1] - [COMP-2][file-13.c][function-9][ln:311]
[2019-04-04 22:40:37,278][INFO] any info message - [id:10][instance:3] - [COMP-3][file-6.c][function-9][ln:573]
[2019-04-04 22:40:38,779][INFO] any info message - [id:10][instance:7] - [COMP-13][file-8.c][function-5][ln:756]
[2019-04-04 22:40:40,279][INFO] any info message - [id:10][instance:2] - [COMP-13][file-5.c][function-12][ln:609]
[2019-04-04 22:40:41,779][INFO] any info message - [id:10][instance:7] - [COMP-4][file-5.c][function-11][ln:459]
[2019-04-04 22:40:43,280][INFO] any info message - [id:10][instance:6] - [COMP-11][file-8.c][function-7][ln:124]
[2019-04-04 22:40:44,781][INFO] any info message - [id:10][instance:4] - [COMP-7][file-4.c][function-3][ln:331]
[2019-04-04 22:40:46,281][INFO] any info message - [id:10][instance:3] - [COMP-1][file-6.c][function-3][ln:447]
[2019-04-04 22:40:47,782][INFO] any info message - [id:10][instance:3] - [COMP-11][file-2.c][function-4][ln:138]
[2019-04-04 22:40:49,282][INFO] any info message - [id:10][instance:6] - [COMP-6][file-10.c][function-10][ln:340]
[2019-04-04 22:40:50,783][INFO] any info message - [id:10][instance:6] - [COMP-4][file-11.c][function-6][ln:2]
[2019-04-04 22:40:51,822][CRITICAL] ATTENTION: This is a critical issue! - [id:10][instance:7] - [COMP-11][file-4.c][function-8][ln:212]
[2019-04-04 22:40:51,858][ERROR] It is an error message - [id:10][instance:6] - [COMP-6][file-1.c][function-11][ln:538]
[2019-04-04 22:40:52,019][WARNING] Here is a warning message - [id:10][instance:5] - [COMP-13][file-13.c][function-2][ln:62]
[2019-04-04 22:40:52,149][DEBUG] any debug message - [id:10][instance:7] - [COMP-6][file-2.c][function-4][ln:234]
[2019-04-04 22:40:52,283][INFO] any info message - [id:10][instance:4] - [COMP-1][file-4.c][function-3][ln:552]
[2019-04-04 22:40:53,784][INFO] any info message - [id:10][instance:7] - [COMP-10][file-10.c][function-4][ln:49]
[2019-04-04 22:40:55,285][INFO] any info message - [id:10][instance:5] - [COMP-9][file-5.c][function-3][ln:384]
[2019-04-04 22:40:56,785][INFO] any info message - [id:10][instance:1] - [COMP-9][file-2.c][function-1][ln:792]
[2019-04-04 22:40:58,285][INFO] any info message - [id:10][instance:1] - [COMP-12][file-11.c][function-1][ln:711]
[2019-04-04 22:40:59,785][INFO] any info message - [id:10][instance:7] - [COMP-13][file-12.c][function-3][ln:998]
[2019-04-04 22:41:01,285][INFO] any info message - [id:10][instance:5] - [COMP-1][file-10.c][function-3][ln:591]
[2019-04-04 22:41:02,786][INFO] any info message - [id:10][instance:5] - [COMP-9][file-10.c][function-7][ln:927]
[2019-04-04 22:41:04,286][INFO] any info message - [id:10][instance:6] - [COMP-3][file-1.c][function-2][ln:124]
[2019-04-04 22:41:05,786][INFO] any info message - [id:10][instance:5] - [COMP-1][file-8.c][function-4][ln:294]
[2019-04-04 22:41:07,148][DEBUG] any debug message - [id:10][instance:2] - [COMP-8][file-4.c][function-3][ln:615]
[2019-04-04 22:41:07,287][INFO] any info message - [id:10][instance:1] - [COMP-4][file-12.c][function-2][ln:686]
[2019-04-04 22:41:08,787][INFO] any info message - [id:10][instance:6] - [COMP-11][file-13.c][function-13][ln:693]
[2019-04-04 22:41:10,288][INFO] any info message - [id:10][instance:3] - [COMP-12][file-1.c][function-1][ln:743]
[2019-04-04 22:41:11,789][INFO] any info message - [id:10][instance:5] - [COMP-4][file-2.c][function-11][ln:91]
[2019-04-04 22:41:13,289][INFO] any info message - [id:10][instance:4] - [COMP-7][file-7.c][function-11][ln:785]
[2019-04-04 22:41:14,790][INFO] any info message - [id:10][instance:4] - [COMP-4][file-4.c][function-6][ln:10]
[2019-04-04 22:41:16,290][INFO] any info message - [id:10][instance:5] - [COMP-6][file-12.c][function-12][ln:779]
[2019-04-04 22:41:17,791][INFO] any info message - [id:10][instance:7] - [COMP-11][file-7.c][function-2][ln:665]
[2019-04-04 22:41:19,291][INFO] any info message - [id:10][instance:5] - [COMP-11][file-4.c][function-7][ln:939]
[2019-04-04 22:41:20,793][INFO] any info message - [id:10][instance:4] - [COMP-6][file-2.c][function-6][ln:84]
[2019-04-04 22:41:22,019][WARNING] Here is a warning message - [id:10][instance:4] - [COMP-13][file-2.c][function-3][ln:128]
[2019-04-04 22:41:22,150][DEBUG] any debug message - [id:10][instance:6] - [COMP-2][file-4.c][function-12][ln:963]
[2019-04-04 22:41:22,293][INFO] any info message - [id:10][instance:4] - [COMP-6][file-8.c][function-5][ln:649]
[2019-04-04 22:41:23,794][INFO] any info message - [id:10][instance:5] - [COMP-13][file-3.c][function-11][ln:30]
[2019-04-04 22:41:25,294][INFO] any info message - [id:10][instance:3] - [COMP-10][file-1.c][function-5][ln:908]
[2019-04-04 22:41:26,794][INFO] any info message - [id:10][instance:7] - [COMP-1][file-8.c][function-13][ln:524]
[2019-04-04 22:41:28,295][INFO] any info message - [id:10][instance:1] - [COMP-10][file-7.c][function-5][ln:554]
[2019-04-04 22:41:29,796][INFO] any info message - [id:10][instance:4] - [COMP-12][file-2.c][function-12][ln:35]
[2019-04-04 22:41:31,296][INFO] any info message - [id:10][instance:5] - [COMP-7][file-5.c][function-5][ln:981]
[2019-04-04 22:41:32,797][INFO] any info message - [id:10][instance:5] - [COMP-5][file-2.c][function-3][ln:35]
[2019-04-04 22:41:34,297][INFO] any info message - [id:10][instance:4] - [COMP-11][file-7.c][function-1][ln:322]
[2019-04-04 22:41:35,798][INFO] any info message - [id:10][instance:6] - [COMP-3][file-11.c][function-6][ln:837]
[2019-04-04 22:41:37,204][DEBUG] any debug message - [id:10][instance:4] - [COMP-11][file-12.c][function-5][ln:273]
[2019-04-04 22:41:37,298][INFO] any info message - [id:10][instance:2] - [COMP-10][file-1.c][function-3][ln:681]
[2019-04-04 22:41:38,799][INFO] any info message - [id:10][instance:4] - [COMP-2][file-2.c][function-9][ln:965]
[2019-04-04 22:41:40,300][INFO] any info message - [id:10][instance:7] - [COMP-9][file-5.c][function-10][ln:708]
[2019-04-04 22:41:41,800][INFO] any info message - [id:10][instance:7] - [COMP-7][file-9.c][function-5][ln:999]
[2019-04-04 22:41:43,301][INFO] any info message - [id:10][instance:4] - [COMP-6][file-10.c][function-11][ln:405]
[2019-04-04 22:41:44,802][INFO] any info message - [id:10][instance:6] - [COMP-6][file-6.c][function-7][ln:916]
[2019-04-04 22:41:46,302][INFO] any info message - [id:10][instance:1] - [COMP-12][file-9.c][function-3][ln:110]
[2019-04-04 22:41:47,802][INFO] any info message - [id:10][instance:6] - [COMP-7][file-13.c][function-5][ln:596]
[2019-04-04 22:41:49,303][INFO] any info message - [id:10][instance:5] - [COMP-8][file-10.c][function-10][ln:258]
[2019-04-04 22:41:50,804][INFO] any info message - [id:10][instance:6] - [COMP-7][file-5.c][function-7][ln:988]
[2019-04-04 22:41:51,859][ERROR] It is an error message - [id:10][instance:5] - [COMP-2][file-5.c][function-11][ln:40]
[2019-04-04 22:41:52,019][WARNING] Here is a warning message - [id:10][instance:4] - [COMP-3][file-6.c][function-12][ln:623]
[2019-04-04 22:41:52,204][DEBUG] any debug message - [id:10][instance:5] - [COMP-12][file-10.c][function-2][ln:60]
[2019-04-04 22:41:52,304][INFO] any info message - [id:10][instance:6] - [COMP-9][file-6.c][function-6][ln:959]
[2019-04-04 22:41:53,805][INFO] any info message - [id:10][instance:6] - [COMP-12][file-10.c][function-11][ln:354]
[2019-04-04 22:41:55,305][INFO] any info message - [id:10][instance:2] - [COMP-12][file-3.c][function-11][ln:262]
[2019-04-04 22:41:56,805][INFO] any info message - [id:10][instance:5] - [COMP-2][file-2.c][function-12][ln:404]
[2019-04-04 22:41:58,306][INFO] any info message - [id:10][instance:5] - [COMP-3][file-3.c][function-6][ln:202]
[2019-04-04 22:41:59,807][INFO] any info message - [id:10][instance:3] - [COMP-8][file-2.c][function-3][ln:170]
[2019-04-04 22:42:01,308][INFO] any info message - [id:10][instance:5] - [COMP-5][file-8.c][function-7][ln:111]
[2019-04-04 22:42:02,809][INFO] any info message - [id:10][instance:4] - [COMP-13][file-10.c][function-12][ln:668]
[2019-04-04 22:42:04,310][INFO] any info message - [id:10][instance:6] - [COMP-9][file-7.c][function-5][ln:520]
[2019-04-04 22:42:05,810][INFO] any info message - [id:10][instance:7] - [COMP-4][file-7.c][function-2][ln:836]
[2019-04-04 22:42:07,205][DEBUG] any debug message - [id:10][instance:3] - [COMP-10][file-9.c][function-9][ln:600]
[2019-04-04 22:42:07,310][INFO] any info message - [id:10][instance:6] - [COMP-4][file-1.c][function-1][ln:814]
[2019-04-04 22:42:08,811][INFO] any info message - [id:10][instance:2] - [COMP-6][file-7.c][function-3][ln:875]
[2019-04-04 22:42:10,311][INFO] any info message - [id:10][instance:4] - [COMP-13][file-4.c][function-8][ln:196]
[2019-04-04 22:42:11,813][INFO] any info message - [id:10][instance:3] - [COMP-8][file-6.c][function-9][ln:91]
[2019-04-04 22:42:13,313][INFO] any info message - [id:10][instance:3] - [COMP-2][file-5.c][function-11][ln:870]
[2019-04-04 22:42:14,813][INFO] any info message - [id:10][instance:3] - [COMP-1][file-6.c][function-6][ln:751]
[2019-04-04 22:42:16,314][INFO] any info message - [id:10][instance:6] - [COMP-3][file-12.c][function-7][ln:588]
[2019-04-04 22:42:17,814][INFO] any info message - [id:10][instance:1] - [COMP-9][file-8.c][function-7][ln:863]
[2019-04-04 22:42:19,319][INFO] any info message - [id:10][instance:3] - [COMP-11][file-12.c][function-4][ln:575]
[2019-04-04 22:42:20,820][INFO] any info message - [id:10][instance:3] - [COMP-8][file-7.c][function-7][ln:794]
[2019-04-04 22:42:22,020][WARNING] Here is a warning message - [id:10][instance:4] - [COMP-2][file-11.c][function-6][ln:412]
[2019-04-04 22:42:22,205][DEBUG] any debug message - [id:10][instance:1] - [COMP-3][file-2.c][function-1][ln:747]
[2019-04-04 22:42:22,321][INFO] any info message - [id:10][instance:6] - [COMP-2][file-8.c][function-8][ln:53]
[2019-04-04 22:42:23,821][INFO] any info message - [id:10][instance:5] - [COMP-3][file-4.c][function-6][ln:559]
[2019-04-04 22:42:25,321][INFO] any info message - [id:10][instance:4] - [COMP-13][file-5.c][function-3][ln:606]
[2019-04-04 22:42:26,821][INFO] any info message - [id:10][instance:2] - [COMP-12][file-7.c][function-12][ln:312]
[2019-04-04 22:42:28,322][INFO] any info message - [id:10][instance:1] - [COMP-12][file-10.c][function-4][ln:922]
[2019-04-04 22:42:29,826][INFO] any info message - [id:10][instance:2] - [COMP-6][file-8.c][function-11][ln:965]
[2019-04-04 22:42:31,326][INFO] any info message - [id:10][instance:5] - [COMP-4][file-13.c][function-6][ln:355]
[2019-04-04 22:42:32,827][INFO] any info message - [id:10][instance:6] - [COMP-13][file-9.c][function-4][ln:847]
[2019-04-04 22:42:34,328][INFO] any info message - [id:10][instance:4] - [COMP-3][file-8.c][function-12][ln:225]
[2019-04-04 22:42:35,830][INFO] any info message - [id:10][instance:2] - [COMP-12][file-2.c][function-8][ln:60]
[2019-04-04 22:42:37,206][DEBUG] any debug message - [id:10][instance:7] - [COMP-4][file-5.c][function-9][ln:513]
[2019-04-04 22:42:37,330][INFO] any info message - [id:10][instance:6] - [COMP-1][file-10.c][function-3][ln:313]
[2019-04-04 22:42:38,831][INFO] any info message - [id:10][instance:4] - [COMP-9][file-2.c][function-10][ln:768]
[2019-04-04 22:42:40,333][INFO] any info message - [id:10][instance:3] - [COMP-8][file-2.c][function-4][ln:140]
[2019-04-04 22:42:41,834][INFO] any info message - [id:10][instance:7] - [COMP-9][file-13.c][function-13][ln:885]
[2019-04-04 22:42:43,333][INFO] any info message - [id:10][instance:2] - [COMP-3][file-3.c][function-11][ln:550]
[2019-04-04 22:42:44,833][INFO] any info message - [id:10][instance:4] - [COMP-12][file-12.c][function-6][ln:865]
[2019-04-04 22:42:46,333][INFO] any info message - [id:10][instance:1] - [COMP-12][file-13.c][function-1][ln:465]
[2019-04-04 22:42:47,833][INFO] any info message - [id:10][instance:5] - [COMP-9][file-4.c][function-12][ln:566]
[2019-04-04 22:42:49,334][INFO] any info message - [id:10][instance:1] - [COMP-13][file-10.c][function-2][ln:58]
[2019-04-04 22:42:50,835][INFO] any info message - [id:10][instance:7] - [COMP-11][file-1.c][function-11][ln:982]
[2019-04-04 22:42:51,822][CRITICAL] ATTENTION: This is a critical issue! - [id:10][instance:2] - [COMP-12][file-6.c][function-2][ln:315]
[2019-04-04 22:42:51,859][ERROR] It is an error message - [id:10][instance:4] - [COMP-4][file-9.c][function-6][ln:716]
[2019-04-04 22:42:52,022][WARNING] Here is a warning message - [id:10][instance:6] - [COMP-3][file-8.c][function-8][ln:911]
[2019-04-04 22:42:52,208][DEBUG] any debug message - [id:10][instance:7] - [COMP-2][file-4.c][function-12][ln:560]
[2019-04-04 22:42:52,335][INFO] any info message - [id:10][instance:4] - [COMP-3][file-13.c][function-4][ln:935]
[2019-04-04 22:42:53,835][INFO] any info message - [id:10][instance:4] - [COMP-9][file-13.c][function-2][ln:960]
[2019-04-04 22:42:55,335][INFO] any info message - [id:10][instance:1] - [COMP-2][file-2.c][function-10][ln:93]
[2019-04-04 22:42:56,836][INFO] any info message - [id:10][instance:4] - [COMP-2][file-1.c][function-11][ln:122]
[2019-04-04 22:42:58,337][INFO] any info message - [id:10][instance:4] - [COMP-6][file-12.c][function-11][ln:286]
[2019-04-04 22:42:59,837][INFO] any info message - [id:10][instance:1] - [COMP-6][file-7.c][function-6][ln:598]
[2019-04-04 22:43:01,338][INFO] any info message - [id:10][instance:3] - [COMP-3][file-13.c][function-5][ln:670]
[2019-04-04 22:43:02,839][INFO] any info message - [id:10][instance:7] - [COMP-7][file-3.c][function-6][ln:157]
[2019-04-04 22:43:04,340][INFO] any info message - [id:10][instance:1] - [COMP-13][file-6.c][function-12][ln:309]
[2019-04-04 22:43:05,840][INFO] any info message - [id:10][instance:3] - [COMP-5][file-9.c][function-12][ln:756]
[2019-04-04 22:43:07,210][DEBUG] any debug message - [id:10][instance:4] - [COMP-3][file-13.c][function-7][ln:791]
[2019-04-04 22:43:07,341][INFO] any info message - [id:10][instance:3] - [COMP-12][file-6.c][function-13][ln:899]
[2019-04-04 22:43:08,843][INFO] any info message - [id:10][instance:6] - [COMP-12][file-6.c][function-9][ln:368]
[2019-04-04 22:43:10,345][INFO] any info message - [id:10][instance:1] - [COMP-11][file-4.c][function-5][ln:196]
[2019-04-04 22:43:11,845][INFO] any info message - [id:10][instance:2] - [COMP-4][file-9.c][function-11][ln:176]
[2019-04-04 22:43:13,346][INFO] any info message - [id:10][instance:5] - [COMP-8][file-12.c][function-3][ln:811]
[2019-04-04 22:43:14,848][INFO] any info message - [id:10][instance:7] - [COMP-10][file-4.c][function-11][ln:182]
[2019-04-04 22:43:16,350][INFO] any info message - [id:10][instance:4] - [COMP-13][file-11.c][function-6][ln:757]
[2019-04-04 22:43:17,852][INFO] any info message - [id:10][instance:5] - [COMP-10][file-3.c][function-9][ln:13]
[2019-04-04 22:43:19,354][INFO] any info message - [id:10][instance:1] - [COMP-13][file-4.c][function-11][ln:288]
[2019-04-04 22:43:20,855][INFO] any info message - [id:10][instance:1] - [COMP-12][file-7.c][function-7][ln:215]
[2019-04-04 22:43:22,022][WARNING] Here is a warning message - [id:10][instance:6] - [COMP-4][file-9.c][function-4][ln:422]
[2019-04-04 22:43:22,210][DEBUG] any debug message - [id:10][instance:2] - [COMP-3][file-12.c][function-12][ln:784]
[2019-04-04 22:43:22,355][INFO] any info message - [id:10][instance:6] - [COMP-13][file-6.c][function-12][ln:200]
[2019-04-04 22:43:23,856][INFO] any info message - [id:10][instance:7] - [COMP-11][file-1.c][function-9][ln:46]
[2019-04-04 22:43:25,358][INFO] any info message - [id:10][instance:3] - [COMP-4][file-2.c][function-5][ln:165]
[2019-04-04 22:43:26,859][INFO] any info message - [id:10][instance:4] - [COMP-9][file-6.c][function-3][ln:623]
[2019-04-04 22:43:28,361][INFO] any info message - [id:10][instance:1] - [COMP-5][file-10.c][function-8][ln:80]
[2019-04-04 22:43:29,862][INFO] any info message - [id:10][instance:4] - [COMP-13][file-10.c][function-11][ln:648]
[2019-04-04 22:43:31,363][INFO] any info message - [id:10][instance:2] - [COMP-1][file-11.c][function-10][ln:273]
[2019-04-04 22:43:32,864][INFO] any info message - [id:10][instance:3] - [COMP-7][file-13.c][function-6][ln:809]
[2019-04-04 22:43:34,365][INFO] any info message - [id:10][instance:2] - [COMP-12][file-8.c][function-11][ln:30]
[2019-04-04 22:43:35,866][INFO] any info message - [id:10][instance:1] - [COMP-3][file-9.c][function-13][ln:986]
[2019-04-04 22:43:37,212][DEBUG] any debug message - [id:10][instance:2] - [COMP-1][file-13.c][function-1][ln:172]
[2019-04-04 22:43:37,368][INFO] any info message - [id:10][instance:5] - [COMP-8][file-2.c][function-8][ln:948]
[2019-04-04 22:43:38,869][INFO] any info message - [id:10][instance:5] - [COMP-10][file-2.c][function-4][ln:879]
[2019-04-04 22:43:40,371][INFO] any info message - [id:10][instance:3] - [COMP-5][file-8.c][function-2][ln:6]
[2019-04-04 22:43:41,872][INFO] any info message - [id:10][instance:2] - [COMP-5][file-7.c][function-3][ln:939]
[2019-04-04 22:43:43,373][INFO] any info message - [id:10][instance:2] - [COMP-2][file-2.c][function-3][ln:23]
[2019-04-04 22:43:44,874][INFO] any info message - [id:10][instance:4] - [COMP-13][file-3.c][function-10][ln:508]
[2019-04-04 22:43:46,375][INFO] any info message - [id:10][instance:7] - [COMP-11][file-3.c][function-8][ln:705]
[2019-04-04 22:43:47,877][INFO] any info message - [id:10][instance:5] - [COMP-12][file-10.c][function-5][ln:60]
[2019-04-04 22:43:49,378][INFO] any info message - [id:10][instance:7] - [COMP-1][file-12.c][function-9][ln:733]
[2019-04-04 22:43:50,879][INFO] any info message - [id:10][instance:5] - [COMP-6][file-13.c][function-9][ln:616]
[2019-04-04 22:43:51,861][ERROR] It is an error message - [id:10][instance:6] - [COMP-13][file-7.c][function-7][ln:885]
[2019-04-04 22:43:52,024][WARNING] Here is a warning message - [id:10][instance:6] - [COMP-10][file-2.c][function-10][ln:399]
[2019-04-04 22:43:52,213][DEBUG] any debug message - [id:10][instance:2] - [COMP-9][file-2.c][function-5][ln:354]
[2019-04-04 22:43:52,381][INFO] any info message - [id:10][instance:2] - [COMP-13][file-2.c][function-7][ln:527]
[2019-04-04 22:43:53,882][INFO] any info message - [id:10][instance:7] - [COMP-8][file-1.c][function-12][ln:305]
[2019-04-04 22:43:55,383][INFO] any info message - [id:10][instance:3] - [COMP-10][file-11.c][function-5][ln:308]
[2019-04-04 22:43:56,884][INFO] any info message - [id:10][instance:7] - [COMP-10][file-2.c][function-10][ln:665]
[2019-04-04 22:43:58,386][INFO] any info message - [id:10][instance:1] - [COMP-8][file-12.c][function-11][ln:696]
[2019-04-04 22:43:59,887][INFO] any info message - [id:10][instance:6] - [COMP-13][file-10.c][function-9][ln:580]
[2019-04-04 22:44:01,388][INFO] any info message - [id:10][instance:6] - [COMP-3][file-9.c][function-12][ln:906]
[2019-04-04 22:44:02,889][INFO] any info message - [id:10][instance:7] - [COMP-1][file-13.c][function-7][ln:286]
[2019-04-04 22:44:04,391][INFO] any info message - [id:10][instance:5] - [COMP-12][file-13.c][function-7][ln:158]
[2019-04-04 22:44:05,892][INFO] any info message - [id:10][instance:3] - [COMP-9][file-2.c][function-12][ln:789]
[2019-04-04 22:44:07,214][DEBUG] any debug message - [id:10][instance:2] - [COMP-6][file-13.c][function-7][ln:194]
[2019-04-04 22:44:07,393][INFO] any info message - [id:10][instance:2] - [COMP-12][file-10.c][function-13][ln:30]
[2019-04-04 22:44:08,894][INFO] any info message - [id:10][instance:1] - [COMP-4][file-11.c][function-6][ln:574]
[2019-04-04 22:44:10,395][INFO] any info message - [id:10][instance:7] - [COMP-1][file-5.c][function-10][ln:514]
[2019-04-04 22:44:11,896][INFO] any info message - [id:10][instance:1] - [COMP-1][file-7.c][function-12][ln:727]
[2019-04-04 22:44:13,397][INFO] any info message - [id:10][instance:7] - [COMP-10][file-5.c][function-8][ln:269]
[2019-04-04 22:44:14,899][INFO] any info message - [id:10][instance:1] - [COMP-9][file-5.c][function-2][ln:264]
[2019-04-04 22:44:16,400][INFO] any info message - [id:10][instance:3] - [COMP-10][file-4.c][function-5][ln:102]
[2019-04-04 22:44:17,901][INFO] any info message - [id:10][instance:6] - [COMP-13][file-9.c][function-8][ln:315]
[2019-04-04 22:44:19,402][INFO] any info message - [id:10][instance:4] - [COMP-3][file-11.c][function-7][ln:990]
[2019-04-04 22:44:20,903][INFO] any info message - [id:10][instance:4] - [COMP-12][file-13.c][function-3][ln:131]
[2019-04-04 22:44:22,025][WARNING] Here is a warning message - [id:10][instance:6] - [COMP-13][file-13.c][function-13][ln:242]
[2019-04-04 22:44:22,215][DEBUG] any debug message - [id:10][instance:6] - [COMP-5][file-12.c][function-3][ln:222]
[2019-04-04 22:44:22,405][INFO] any info message - [id:10][instance:1] - [COMP-1][file-3.c][function-10][ln:124]
[2019-04-04 22:44:23,906][INFO] any info message - [id:10][instance:7] - [COMP-8][file-6.c][function-2][ln:695]
[2019-04-04 22:44:25,407][INFO] any info message - [id:10][instance:5] - [COMP-1][file-9.c][function-11][ln:702]
[2019-04-04 22:44:26,909][INFO] any info message - [id:10][instance:2] - [COMP-5][file-11.c][function-10][ln:573]
[2019-04-04 22:44:28,410][INFO] any info message - [id:10][instance:3] - [COMP-1][file-9.c][function-5][ln:840]
[2019-04-04 22:44:29,911][INFO] any info message - [id:10][instance:3] - [COMP-11][file-9.c][function-1][ln:270]
[2019-04-04 22:44:31,412][INFO] any info message - [id:10][instance:2] - [COMP-11][file-3.c][function-9][ln:396]
[2019-04-04 22:44:32,913][INFO] any info message - [id:10][instance:2] - [COMP-10][file-1.c][function-7][ln:624]
[2019-04-04 22:44:34,415][INFO] any info message - [id:10][instance:4] - [COMP-2][file-2.c][function-3][ln:319]
[2019-04-04 22:44:35,917][INFO] any info message - [id:10][instance:7] - [COMP-7][file-7.c][function-2][ln:190]
[2019-04-04 22:44:37,217][DEBUG] any debug message - [id:10][instance:1] - [COMP-4][file-11.c][function-6][ln:163]
[2019-04-04 22:44:37,418][INFO] any info message - [id:10][instance:7] - [COMP-1][file-4.c][function-12][ln:250]
[2019-04-04 22:44:38,919][INFO] any info message - [id:10][instance:2] - [COMP-2][file-7.c][function-10][ln:797]
[2019-04-04 22:44:40,421][INFO] any info message - [id:10][instance:5] - [COMP-8][file-4.c][function-2][ln:509]
[2019-04-04 22:44:41,922][INFO] any info message - [id:10][instance:1] - [COMP-13][file-8.c][function-8][ln:155]
[2019-04-04 22:44:43,423][INFO] any info message - [id:10][instance:5] - [COMP-6][file-3.c][function-13][ln:201]
[2019-04-04 22:44:44,925][INFO] any info message - [id:10][instance:7] - [COMP-3][file-9.c][function-3][ln:241]
[2019-04-04 22:44:46,427][INFO] any info message - [id:10][instance:4] - [COMP-6][file-3.c][function-10][ln:516]
[2019-04-04 22:44:47,928][INFO] any info message - [id:10][instance:3] - [COMP-12][file-12.c][function-6][ln:560]
[2019-04-04 22:44:49,429][INFO] any info message - [id:10][instance:6] - [COMP-5][file-3.c][function-4][ln:746]
[2019-04-04 22:44:50,930][INFO] any info message - [id:10][instance:1] - [COMP-6][file-9.c][function-7][ln:686]
[2019-04-04 22:44:51,823][CRITICAL] ATTENTION: This is a critical issue! - [id:10][instance:3] - [COMP-2][file-7.c][function-11][ln:552]
[2019-04-04 22:44:51,862][ERROR] It is an error message - [id:10][instance:3] - [COMP-7][file-3.c][function-10][ln:424]
[2019-04-04 22:44:52,026][WARNING] Here is a warning message - [id:10][instance:4] - [COMP-10][file-8.c][function-4][ln:558]
[2019-04-04 22:44:52,219][DEBUG] any debug message - [id:10][instance:5] - [COMP-13][file-5.c][function-7][ln:548]
[2019-04-04 22:44:52,431][INFO] any info message - [id:10][instance:1] - [COMP-7][file-10.c][function-6][ln:868]
[2019-04-04 22:44:53,933][INFO] any info message - [id:10][instance:5] - [COMP-6][file-12.c][function-2][ln:937]
[2019-04-04 22:44:55,435][INFO] any info message - [id:10][instance:3] - [COMP-4][file-8.c][function-9][ln:56]
[2019-04-04 22:44:56,936][INFO] any info message - [id:10][instance:5] - [COMP-2][file-1.c][function-5][ln:441]
[2019-04-04 22:44:58,438][INFO] any info message - [id:10][instance:4] - [COMP-4][file-3.c][function-3][ln:761]
[2019-04-04 22:44:59,939][INFO] any info message - [id:10][instance:6] - [COMP-10][file-3.c][function-6][ln:969]
[2019-04-04 22:45:01,440][INFO] any info message - [id:10][instance:6] - [COMP-5][file-12.c][function-13][ln:389]
[2019-04-04 22:45:02,942][INFO] any info message - [id:10][instance:7] - [COMP-2][file-1.c][function-12][ln:39]
[2019-04-04 22:45:04,442][INFO] any info message - [id:10][instance:3] - [COMP-7][file-8.c][function-9][ln:656]
[2019-04-04 22:45:05,943][INFO] any info message - [id:10][instance:7] - [COMP-11][file-10.c][function-7][ln:587]
[2019-04-04 22:45:07,219][DEBUG] any debug message - [id:10][instance:6] - [COMP-6][file-13.c][function-4][ln:396]
[2019-04-04 22:45:07,444][INFO] any info message - [id:10][instance:5] - [COMP-12][file-2.c][function-11][ln:470]
[2019-04-04 22:45:08,945][INFO] any info message - [id:10][instance:1] - [COMP-11][file-7.c][function-4][ln:26]
[2019-04-04 22:45:10,446][INFO] any info message - [id:10][instance:7] - [COMP-7][file-9.c][function-7][ln:303]
[2019-04-04 22:45:11,947][INFO] any info message - [id:10][instance:1] - [COMP-2][file-7.c][function-3][ln:538]
[2019-04-04 22:45:13,449][INFO] any info message - [id:10][instance:4] - [COMP-3][file-4.c][function-13][ln:153]
[2019-04-04 22:45:14,951][INFO] any info message - [id:10][instance:3] - [COMP-5][file-3.c][function-5][ln:166]
[2019-04-04 22:45:16,452][INFO] any info message - [id:10][instance:4] - [COMP-3][file-4.c][function-10][ln:773]
[2019-04-04 22:45:17,953][INFO] any info message - [id:10][instance:4] - [COMP-1][file-9.c][function-11][ln:744]
[2019-04-04 22:45:19,455][INFO] any info message - [id:10][instance:1] - [COMP-3][file-10.c][function-4][ln:402]
[2019-04-04 22:45:20,956][INFO] any info message - [id:10][instance:4] - [COMP-13][file-2.c][function-7][ln:963]
[2019-04-04 22:45:22,028][WARNING] Here is a warning message - [id:10][instance:2] - [COMP-8][file-10.c][function-1][ln:722]
[2019-04-04 22:45:22,221][DEBUG] any debug message - [id:10][instance:3] - [COMP-2][file-12.c][function-11][ln:283]
[2019-04-04 22:45:22,457][INFO] any info message - [id:10][instance:2] - [COMP-10][file-8.c][function-2][ln:616]
[2019-04-04 22:45:23,959][INFO] any info message - [id:10][instance:4] - [COMP-10][file-11.c][function-9][ln:416]
[2019-04-04 22:45:25,461][INFO] any info message - [id:10][instance:1] - [COMP-4][file-1.c][function-2][ln:819]
[2019-04-04 22:45:26,962][INFO] any info message - [id:10][instance:2] - [COMP-5][file-12.c][function-9][ln:107]
[2019-04-04 22:45:28,464][INFO] any info message - [id:10][instance:3] - [COMP-4][file-11.c][function-1][ln:118]
[2019-04-04 22:45:29,966][INFO] any info message - [id:10][instance:7] - [COMP-8][file-11.c][function-8][ln:125]
[2019-04-04 22:45:31,468][INFO] any info message - [id:10][instance:6] - [COMP-12][file-9.c][function-10][ln:401]
[2019-04-04 22:45:32,971][INFO] any info message - [id:10][instance:1] - [COMP-7][file-12.c][function-3][ln:321]
[2019-04-04 22:45:34,470][INFO] any info message - [id:10][instance:3] - [COMP-1][file-8.c][function-12][ln:121]
[2019-04-04 22:45:35,970][INFO] any info message - [id:10][instance:5] - [COMP-4][file-11.c][function-7][ln:679]
[2019-04-04 22:45:37,222][DEBUG] any debug message - [id:10][instance:1] - [COMP-2][file-5.c][function-10][ln:693]
[2019-04-04 22:45:37,471][INFO] any info message - [id:10][instance:2] - [COMP-1][file-9.c][function-11][ln:414]
[2019-04-04 22:45:38,972][INFO] any info message - [id:10][instance:5] - [COMP-13][file-8.c][function-13][ln:458]
[2019-04-04 22:45:40,473][INFO] any info message - [id:10][instance:7] - [COMP-5][file-9.c][function-2][ln:355]
[2019-04-04 22:45:41,974][INFO] any info message - [id:10][instance:4] - [COMP-11][file-8.c][function-2][ln:207]
[2019-04-04 22:45:43,474][INFO] any info message - [id:10][instance:2] - [COMP-8][file-13.c][function-7][ln:649]
[2019-04-04 22:45:44,975][INFO] any info message - [id:10][instance:3] - [COMP-13][file-8.c][function-10][ln:99]
[2019-04-04 22:45:46,475][INFO] any info message - [id:10][instance:1] - [COMP-7][file-13.c][function-9][ln:353]
[2019-04-04 22:45:47,975][INFO] any info message - [id:10][instance:5] - [COMP-9][file-5.c][function-5][ln:456]
[2019-04-04 22:45:49,476][INFO] any info message - [id:10][instance:4] - [COMP-9][file-13.c][function-3][ln:325]
[2019-04-04 22:45:50,977][INFO] any info message - [id:10][instance:1] - [COMP-4][file-5.c][function-5][ln:747]
[2019-04-04 22:45:51,863][ERROR] It is an error message - [id:10][instance:5] - [COMP-9][file-6.c][function-8][ln:892]
[2019-04-04 22:45:52,028][WARNING] Here is a warning message - [id:10][instance:5] - [COMP-10][file-4.c][function-4][ln:656]
[2019-04-04 22:45:52,224][DEBUG] any debug message - [id:10][instance:5] - [COMP-8][file-8.c][function-11][ln:69]
[2019-04-04 22:45:52,479][INFO] any info message - [id:10][instance:6] - [COMP-6][file-5.c][function-8][ln:555]
[2019-04-04 22:45:53,980][INFO] any info message - [id:10][instance:1] - [COMP-10][file-6.c][function-7][ln:444]
[2019-04-04 22:45:55,480][INFO] any info message - [id:10][instance:2] - [COMP-3][file-7.c][function-4][ln:356]
[2019-04-04 22:45:56,980][INFO] any info message - [id:10][instance:7] - [COMP-3][file-12.c][function-9][ln:730]
[2019-04-04 22:45:58,510][INFO] any info message - [id:10][instance:6] - [COMP-12][file-5.c][function-6][ln:951]
[2019-04-04 22:46:00,011][INFO] any info message - [id:10][instance:6] - [COMP-13][file-7.c][function-7][ln:942]
[2019-04-04 22:46:01,512][INFO] any info message - [id:10][instance:6] - [COMP-13][file-6.c][function-10][ln:648]
[2019-04-04 22:46:03,013][INFO] any info message - [id:10][instance:2] - [COMP-1][file-11.c][function-1][ln:337]
[2019-04-04 22:46:04,515][INFO] any info message - [id:10][instance:1] - [COMP-9][file-6.c][function-13][ln:439]
[2019-04-04 22:46:06,016][INFO] any info message - [id:10][instance:6] - [COMP-3][file-4.c][function-9][ln:549]
[2019-04-04 22:46:07,224][DEBUG] any debug message - [id:10][instance:6] - [COMP-9][file-1.c][function-9][ln:436]
[2019-04-04 22:46:07,518][INFO] any info message - [id:10][instance:1] - [COMP-6][file-9.c][function-7][ln:110]
[2019-04-04 22:46:09,018][INFO] any info message - [id:10][instance:6] - [COMP-5][file-1.c][function-1][ln:342]
[2019-04-04 22:46:10,520][INFO] any info message - [id:10][instance:6] - [COMP-1][file-3.c][function-12][ln:306]
[2019-04-04 22:46:12,022][INFO] any info message - [id:10][instance:6] - [COMP-8][file-2.c][function-12][ln:810]
[2019-04-04 22:46:13,523][INFO] any info message - [id:10][instance:1] - [COMP-6][file-10.c][function-3][ln:246]
[2019-04-04 22:46:15,023][INFO] any info message - [id:10][instance:2] - [COMP-7][file-4.c][function-7][ln:971]
[2019-04-04 22:46:16,525][INFO] any info message - [id:10][instance:2] - [COMP-6][file-4.c][function-1][ln:86]
[2019-04-04 22:46:18,026][INFO] any info message - [id:10][instance:3] - [COMP-13][file-2.c][function-1][ln:397]
[2019-04-04 22:46:19,527][INFO] any info message - [id:10][instance:1] - [COMP-12][file-2.c][function-6][ln:732]
[2019-04-04 22:46:21,027][INFO] any info message - [id:10][instance:1] - [COMP-13][file-1.c][function-8][ln:794]
[2019-04-04 22:46:22,028][WARNING] Here is a warning message - [id:10][instance:4] - [COMP-11][file-6.c][function-4][ln:313]
[2019-04-04 22:46:22,225][DEBUG] any debug message - [id:10][instance:2] - [COMP-12][file-6.c][function-7][ln:313]
[2019-04-04 22:46:22,528][INFO] any info message - [id:10][instance:5] - [COMP-13][file-7.c][function-1][ln:795]
[2019-04-04 22:46:24,031][INFO] any info message - [id:10][instance:1] - [COMP-5][file-13.c][function-3][ln:481]
[2019-04-04 22:46:25,533][INFO] any info message - [id:10][instance:7] - [COMP-6][file-2.c][function-12][ln:670]
[2019-04-04 22:46:27,034][INFO] any info message - [id:10][instance:7] - [COMP-11][file-13.c][function-12][ln:243]
[2019-04-04 22:46:28,534][INFO] any info message - [id:10][instance:5] - [COMP-6][file-6.c][function-6][ln:38]
[2019-04-04 22:46:30,035][INFO] any info message - [id:10][instance:5] - [COMP-7][file-13.c][function-6][ln:692]
[2019-04-04 22:46:31,537][INFO] any info message - [id:10][instance:4] - [COMP-11][file-7.c][function-2][ln:196]
[2019-04-04 22:46:33,038][INFO] any info message - [id:10][instance:5] - [COMP-1][file-4.c][function-5][ln:272]
[2019-04-04 22:46:34,540][INFO] any info message - [id:10][instance:7] - [COMP-13][file-13.c][function-11][ln:44]
[2019-04-04 22:46:36,040][INFO] any info message - [id:10][instance:5] - [COMP-8][file-1.c][function-7][ln:487]
[2019-04-04 22:46:37,225][DEBUG] any debug message - [id:10][instance:3] - [COMP-12][file-7.c][function-10][ln:433]
[2019-04-04 22:46:37,541][INFO] any info message - [id:10][instance:2] - [COMP-7][file-1.c][function-10][ln:969]
[2019-04-04 22:46:39,043][INFO] any info message - [id:10][instance:7] - [COMP-4][file-5.c][function-2][ln:515]
[2019-04-04 22:46:40,543][INFO] any info message - [id:10][instance:7] - [COMP-4][file-5.c][function-6][ln:768]
[2019-04-04 22:46:42,044][INFO] any info message - [id:10][instance:4] - [COMP-2][file-11.c][function-5][ln:49]
[2019-04-04 22:46:43,545][INFO] any info message - [id:10][instance:6] - [COMP-4][file-13.c][function-4][ln:970]
[2019-04-04 22:46:45,047][INFO] any info message - [id:10][instance:3] - [COMP-10][file-6.c][function-5][ln:121]
[2019-04-04 22:46:46,547][INFO] any info message - [id:10][instance:3] - [COMP-13][file-2.c][function-12][ln:900]
[2019-04-04 22:46:48,048][INFO] any info message - [id:10][instance:2] - [COMP-2][file-6.c][function-6][ln:545]
[2019-04-04 22:46:49,550][INFO] any info message - [id:10][instance:4] - [COMP-5][file-4.c][function-3][ln:910]
[2019-04-04 22:46:51,050][INFO] any info message - [id:10][instance:2] - [COMP-2][file-12.c][function-5][ln:742]
[2019-04-04 22:46:51,828][CRITICAL] ATTENTION: This is a critical issue! - [id:10][instance:4] - [COMP-12][file-12.c][function-6][ln:847]
[2019-04-04 22:46:51,864][ERROR] It is an error message - [id:10][instance:3] - [COMP-10][file-12.c][function-9][ln:32]
[2019-04-04 22:46:52,028][WARNING] Here is a warning message - [id:10][instance:3] - [COMP-10][file-6.c][function-10][ln:362]
[2019-04-04 22:46:52,226][DEBUG] any debug message - [id:10][instance:5] - [COMP-5][file-4.c][function-11][ln:870]
[2019-04-04 22:46:52,551][INFO] any info message - [id:10][instance:6] - [COMP-12][file-2.c][function-12][ln:594]
[2019-04-04 22:46:54,053][INFO] any info message - [id:10][instance:1] - [COMP-3][file-12.c][function-1][ln:369]
[2019-04-04 22:46:55,554][INFO] any info message - [id:10][instance:5] - [COMP-5][file-6.c][function-2][ln:716]
[2019-04-04 22:46:57,088][INFO] any info message - [id:10][instance:5] - [COMP-2][file-7.c][function-13][ln:430]
[2019-04-04 22:46:58,590][INFO] any info message - [id:10][instance:4] - [COMP-5][file-5.c][function-5][ln:210]
[2019-04-04 22:47:00,091][INFO] any info message - [id:10][instance:5] - [COMP-10][file-9.c][function-10][ln:456]
[2019-04-04 22:47:01,592][INFO] any info message - [id:10][instance:4] - [COMP-8][file-4.c][function-5][ln:272]
[2019-04-04 22:47:03,093][INFO] any info message - [id:10][instance:7] - [COMP-11][file-6.c][function-2][ln:338]
[2019-04-04 22:47:04,594][INFO] any info message - [id:10][instance:5] - [COMP-9][file-8.c][function-5][ln:199]
[2019-04-04 22:47:06,096][INFO] any info message - [id:10][instance:6] - [COMP-6][file-8.c][function-12][ln:29]
[2019-04-04 22:47:07,228][DEBUG] any debug message - [id:10][instance:1] - [COMP-6][file-2.c][function-4][ln:492]
[2019-04-04 22:47:07,598][INFO] any info message - [id:10][instance:7] - [COMP-2][file-10.c][function-10][ln:236]
[2019-04-04 22:47:09,100][INFO] any info message - [id:10][instance:6] - [COMP-12][file-12.c][function-4][ln:239]
[2019-04-04 22:47:10,600][INFO] any info message - [id:10][instance:2] - [COMP-4][file-4.c][function-1][ln:881]
[2019-04-04 22:47:12,102][INFO] any info message - [id:10][instance:5] - [COMP-10][file-7.c][function-5][ln:619]
[2019-04-04 22:47:13,603][INFO] any info message - [id:10][instance:4] - [COMP-3][file-8.c][function-6][ln:294]
[2019-04-04 22:47:15,104][INFO] any info message - [id:10][instance:7] - [COMP-7][file-2.c][function-10][ln:114]
[2019-04-04 22:47:16,605][INFO] any info message - [id:10][instance:4] - [COMP-13][file-9.c][function-6][ln:52]
[2019-04-04 22:47:18,107][INFO] any info message - [id:10][instance:6] - [COMP-7][file-11.c][function-2][ln:101]
[2019-04-04 22:47:19,610][INFO] any info message - [id:10][instance:6] - [COMP-12][file-6.c][function-9][ln:752]
[2019-04-04 22:47:21,110][INFO] any info message - [id:10][instance:6] - [COMP-8][file-12.c][function-4][ln:271]
[2019-04-04 22:47:22,031][WARNING] Here is a warning message - [id:10][instance:1] - [COMP-6][file-11.c][function-5][ln:863]
[2019-04-04 22:47:22,230][DEBUG] any debug message - [id:10][instance:5] - [COMP-4][file-1.c][function-9][ln:88]
[2019-04-04 22:47:22,610][INFO] any info message - [id:10][instance:6] - [COMP-7][file-11.c][function-8][ln:854]
[2019-04-04 22:47:24,110][INFO] any info message - [id:10][instance:7] - [COMP-13][file-6.c][function-4][ln:835]
[2019-04-04 22:47:25,612][INFO] any info message - [id:10][instance:5] - [COMP-10][file-3.c][function-1][ln:473]
[2019-04-04 22:47:27,112][INFO] any info message - [id:10][instance:4] - [COMP-9][file-10.c][function-11][ln:597]
[2019-04-04 22:47:28,615][INFO] any info message - [id:10][instance:7] - [COMP-9][file-3.c][function-6][ln:113]
[2019-04-04 22:47:30,116][INFO] any info message - [id:10][instance:5] - [COMP-9][file-4.c][function-4][ln:618]
[2019-04-04 22:47:31,616][INFO] any info message - [id:10][instance:1] - [COMP-5][file-11.c][function-7][ln:702]
[2019-04-04 22:47:33,118][INFO] any info message - [id:10][instance:4] - [COMP-11][file-9.c][function-9][ln:446]
[2019-04-04 22:47:34,619][INFO] any info message - [id:10][instance:5] - [COMP-13][file-8.c][function-5][ln:944]
[2019-04-04 22:47:36,119][INFO] any info message - [id:10][instance:1] - [COMP-2][file-12.c][function-9][ln:664]
[2019-04-04 22:47:37,231][DEBUG] any debug message - [id:10][instance:5] - [COMP-1][file-4.c][function-10][ln:501]
[2019-04-04 22:47:37,619][INFO] any info message - [id:10][instance:1] - [COMP-3][file-7.c][function-5][ln:149]
[2019-04-04 22:47:39,120][INFO] any info message - [id:10][instance:3] - [COMP-5][file-2.c][function-3][ln:442]
[2019-04-04 22:47:40,621][INFO] any info message - [id:10][instance:5] - [COMP-2][file-5.c][function-5][ln:585]
[2019-04-04 22:47:42,123][INFO] any info message - [id:10][instance:2] - [COMP-12][file-9.c][function-7][ln:484]
[2019-04-04 22:47:43,623][INFO] any info message - [id:10][instance:5] - [COMP-6][file-12.c][function-7][ln:237]
[2019-04-04 22:47:45,124][INFO] any info message - [id:10][instance:5] - [COMP-13][file-1.c][function-7][ln:448]
[2019-04-04 22:47:46,625][INFO] any info message - [id:10][instance:5] - [COMP-12][file-12.c][function-12][ln:411]
[2019-04-04 22:47:48,126][INFO] any info message - [id:10][instance:2] - [COMP-9][file-10.c][function-12][ln:892]
[2019-04-04 22:47:49,631][INFO] any info message - [id:10][instance:4] - [COMP-11][file-13.c][function-4][ln:553]
[2019-04-04 22:47:51,131][INFO] any info message - [id:10][instance:7] - [COMP-7][file-6.c][function-4][ln:265]
[2019-04-04 22:47:51,866][ERROR] It is an error message - [id:10][instance:7] - [COMP-4][file-11.c][function-8][ln:272]
[2019-04-04 22:47:52,031][WARNING] Here is a warning message - [id:10][instance:3] - [COMP-3][file-8.c][function-12][ln:365]
[2019-04-04 22:47:52,232][DEBUG] any debug message - [id:10][instance:1] - [COMP-10][file-2.c][function-3][ln:608]
[2019-04-04 22:47:52,634][INFO] any info message - [id:10][instance:3] - [COMP-12][file-13.c][function-13][ln:155]
[2019-04-04 22:47:54,134][INFO] any info message - [id:10][instance:7] - [COMP-4][file-12.c][function-13][ln:927]
[2019-04-04 22:47:55,636][INFO] any info message - [id:10][instance:7] - [COMP-9][file-1.c][function-6][ln:426]
[2019-04-04 22:47:57,138][INFO] any info message - [id:10][instance:3] - [COMP-3][file-7.c][function-13][ln:158]
[2019-04-04 22:47:58,639][INFO] any info message - [id:10][instance:6] - [COMP-13][file-11.c][function-7][ln:563]
[2019-04-04 22:48:00,147][INFO] any info message - [id:10][instance:2] - [COMP-7][file-4.c][function-12][ln:475]
[2019-04-04 22:48:01,649][INFO] any info message - [id:10][instance:3] - [COMP-6][file-6.c][function-10][ln:286]
[2019-04-04 22:48:03,151][INFO] any info message - [id:10][instance:5] - [COMP-3][file-2.c][function-9][ln:965]
[2019-04-04 22:48:04,651][INFO] any info message - [id:10][instance:3] - [COMP-5][file-7.c][function-6][ln:422]
[2019-04-04 22:48:06,152][INFO] any info message - [id:10][instance:4] - [COMP-12][file-8.c][function-2][ln:754]
[2019-04-04 22:48:07,232][DEBUG] any debug message - [id:10][instance:2] - [COMP-12][file-10.c][function-12][ln:697]
[2019-04-04 22:48:07,653][INFO] any info message - [id:10][instance:6] - [COMP-5][file-1.c][function-13][ln:767]
[2019-04-04 22:48:09,155][INFO] any info message - [id:10][instance:3] - [COMP-6][file-1.c][function-8][ln:861]
[2019-04-04 22:48:10,665][INFO] any info message - [id:10][instance:2] - [COMP-4][file-13.c][function-1][ln:625]
[2019-04-04 22:48:12,166][INFO] any info message - [id:10][instance:3] - [COMP-12][file-9.c][function-11][ln:716]
[2019-04-04 22:48:13,668][INFO] any info message - [id:10][instance:1] - [COMP-12][file-5.c][function-8][ln:304]
[2019-04-04 22:48:15,170][INFO] any info message - [id:10][instance:2] - [COMP-1][file-11.c][function-9][ln:804]
[2019-04-04 22:48:16,671][INFO] any info message - [id:10][instance:6] - [COMP-5][file-13.c][function-3][ln:165]
[2019-04-04 22:48:18,173][INFO] any info message - [id:10][instance:2] - [COMP-12][file-9.c][function-11][ln:128]
[2019-04-04 22:48:19,674][INFO] any info message - [id:10][instance:6] - [COMP-5][file-12.c][function-8][ln:463]
[2019-04-04 22:48:21,178][INFO] any info message - [id:10][instance:3] - [COMP-12][file-13.c][function-11][ln:836]
[2019-04-04 22:48:22,032][WARNING] Here is a warning message - [id:10][instance:4] - [COMP-2][file-4.c][function-13][ln:50]
[2019-04-04 22:48:22,234][DEBUG] any debug message - [id:10][instance:1] - [COMP-1][file-10.c][function-4][ln:560]
[2019-04-04 22:48:22,679][INFO] any info message - [id:10][instance:3] - [COMP-1][file-9.c][function-12][ln:891]
[2019-04-04 22:48:24,181][INFO] any info message - [id:10][instance:4] - [COMP-13][file-1.c][function-1][ln:10]
[2019-04-04 22:48:25,682][INFO] any info message - [id:10][instance:1] - [COMP-11][file-9.c][function-5][ln:12]
[2019-04-04 22:48:27,183][INFO] any info message - [id:10][instance:5] - [COMP-10][file-7.c][function-12][ln:497]
[2019-04-04 22:48:28,684][INFO] any info message - [id:10][instance:5] - [COMP-8][file-9.c][function-3][ln:373]
[2019-04-04 22:48:30,185][INFO] any info message - [id:10][instance:1] - [COMP-2][file-8.c][function-4][ln:180]
[2019-04-04 22:48:31,689][INFO] any info message - [id:10][instance:4] - [COMP-2][file-5.c][function-4][ln:293]
[2019-04-04 22:48:33,190][INFO] any info message - [id:10][instance:2] - [COMP-4][file-7.c][function-1][ln:575]
[2019-04-04 22:48:34,691][INFO] any info message - [id:10][instance:4] - [COMP-13][file-1.c][function-6][ln:563]
[2019-04-04 22:48:36,194][INFO] any info message - [id:10][instance:4] - [COMP-1][file-12.c][function-8][ln:517]
[2019-04-04 22:48:37,235][DEBUG] any debug message - [id:10][instance:4] - [COMP-4][file-3.c][function-8][ln:341]
[2019-04-04 22:48:37,694][INFO] any info message - [id:10][instance:2] - [COMP-11][file-12.c][function-7][ln:866]
[2019-04-04 22:48:39,195][INFO] any info message - [id:10][instance:5] - [COMP-4][file-5.c][function-13][ln:470]
[2019-04-04 22:48:40,697][INFO] any info message - [id:10][instance:5] - [COMP-12][file-1.c][function-7][ln:781]
[2019-04-04 22:48:42,197][INFO] any info message - [id:10][instance:2] - [COMP-13][file-5.c][function-10][ln:208]
[2019-04-04 22:48:43,698][INFO] any info message - [id:10][instance:7] - [COMP-4][file-11.c][function-11][ln:334]
[2019-04-04 22:48:45,200][INFO] any info message - [id:10][instance:5] - [COMP-5][file-12.c][function-7][ln:233]
[2019-04-04 22:48:46,701][INFO] any info message - [id:10][instance:3] - [COMP-11][file-12.c][function-7][ln:158]
[2019-04-04 22:48:48,203][INFO] any info message - [id:10][instance:1] - [COMP-4][file-8.c][function-7][ln:595]
[2019-04-04 22:48:49,704][INFO] any info message - [id:10][instance:3] - [COMP-9][file-6.c][function-6][ln:444]
[2019-04-04 22:48:51,205][INFO] any info message - [id:10][instance:1] - [COMP-2][file-11.c][function-11][ln:271]
[2019-04-04 22:48:51,830][CRITICAL] ATTENTION: This is a critical issue! - [id:10][instance:7] - [COMP-2][file-12.c][function-2][ln:593]
[2019-04-04 22:48:51,868][ERROR] It is an error message - [id:10][instance:4] - [COMP-4][file-4.c][function-13][ln:524]
[2019-04-04 22:48:52,034][WARNING] Here is a warning message - [id:10][instance:3] - [COMP-11][file-7.c][function-2][ln:894]
[2019-04-04 22:48:52,236][DEBUG] any debug message - [id:10][instance:5] - [COMP-8][file-8.c][function-11][ln:184]
[2019-04-04 22:48:52,705][INFO] any info message - [id:10][instance:2] - [COMP-11][file-12.c][function-4][ln:298]
[2019-04-04 22:48:54,208][INFO] any info message - [id:10][instance:3] - [COMP-6][file-13.c][function-5][ln:898]
[2019-04-04 22:48:55,709][INFO] any info message - [id:10][instance:7] - [COMP-8][file-3.c][function-4][ln:413]
[2019-04-04 22:48:57,210][INFO] any info message - [id:10][instance:6] - [COMP-11][file-10.c][function-4][ln:593]
[2019-04-04 22:48:58,712][INFO] any info message - [id:10][instance:7] - [COMP-9][file-1.c][function-9][ln:543]
[2019-04-04 22:49:00,212][INFO] any info message - [id:10][instance:1] - [COMP-3][file-9.c][function-6][ln:407]
[2019-04-04 22:49:01,714][INFO] any info message - [id:10][instance:7] - [COMP-2][file-6.c][function-4][ln:294]
[2019-04-04 22:49:03,214][INFO] any info message - [id:10][instance:4] - [COMP-3][file-3.c][function-7][ln:290]
[2019-04-04 22:49:04,716][INFO] any info message - [id:10][instance:4] - [COMP-5][file-10.c][function-8][ln:598]
[2019-04-04 22:49:06,217][INFO] any info message - [id:10][instance:1] - [COMP-12][file-5.c][function-5][ln:22]
[2019-04-04 22:49:07,238][DEBUG] any debug message - [id:10][instance:7] - [COMP-1][file-4.c][function-3][ln:466]
[2019-04-04 22:49:07,718][INFO] any info message - [id:10][instance:7] - [COMP-7][file-7.c][function-9][ln:666]
[2019-04-04 22:49:09,219][INFO] any info message - [id:10][instance:2] - [COMP-4][file-2.c][function-8][ln:888]
[2019-04-04 22:49:10,720][INFO] any info message - [id:10][instance:7] - [COMP-1][file-8.c][function-8][ln:205]
[2019-04-04 22:49:12,222][INFO] any info message - [id:10][instance:3] - [COMP-10][file-12.c][function-4][ln:571]
[2019-04-04 22:49:13,722][INFO] any info message - [id:10][instance:2] - [COMP-13][file-9.c][function-5][ln:755]
[2019-04-04 22:49:15,223][INFO] any info message - [id:10][instance:6] - [COMP-6][file-3.c][function-4][ln:451]
[2019-04-04 22:49:16,724][INFO] any info message - [id:10][instance:5] - [COMP-3][file-8.c][function-6][ln:225]
[2019-04-04 22:49:18,226][INFO] any info message - [id:10][instance:3] - [COMP-7][file-7.c][function-12][ln:941]
[2019-04-04 22:49:19,727][INFO] any info message - [id:10][instance:6] - [COMP-8][file-4.c][function-1][ln:827]
[2019-04-04 22:49:21,228][INFO] any info message - [id:10][instance:5] - [COMP-1][file-4.c][function-5][ln:324]
[2019-04-04 22:49:22,035][WARNING] Here is a warning message - [id:10][instance:5] - [COMP-8][file-7.c][function-10][ln:490]
[2019-04-04 22:49:22,239][DEBUG] any debug message - [id:10][instance:2] - [COMP-7][file-13.c][function-12][ln:466]
[2019-04-04 22:49:22,729][INFO] any info message - [id:10][instance:3] - [COMP-3][file-12.c][function-4][ln:699]
[2019-04-04 22:49:24,229][INFO] any info message - [id:10][instance:4] - [COMP-8][file-6.c][function-1][ln:107]
[2019-04-04 22:49:25,731][INFO] any info message - [id:10][instance:6] - [COMP-8][file-6.c][function-12][ln:824]
[2019-04-04 22:49:27,232][INFO] any info message - [id:10][instance:1] - [COMP-13][file-10.c][function-3][ln:319]
[2019-04-04 22:49:28,733][INFO] any info message - [id:10][instance:6] - [COMP-1][file-4.c][function-8][ln:406]
[2019-04-04 22:49:30,234][INFO] any info message - [id:10][instance:4] - [COMP-3][file-6.c][function-6][ln:159]
[2019-04-04 22:49:31,736][INFO] any info message - [id:10][instance:1] - [COMP-7][file-10.c][function-6][ln:92]
[2019-04-04 22:49:33,237][INFO] any info message - [id:10][instance:6] - [COMP-10][file-3.c][function-12][ln:711]
[2019-04-04 22:49:34,737][INFO] any info message - [id:10][instance:5] - [COMP-7][file-7.c][function-9][ln:997]
[2019-04-04 22:49:36,238][INFO] any info message - [id:10][instance:5] - [COMP-11][file-5.c][function-10][ln:766]
[2019-04-04 22:49:37,241][DEBUG] any debug message - [id:10][instance:7] - [COMP-3][file-6.c][function-10][ln:6]
[2019-04-04 22:49:37,740][INFO] any info message - [id:10][instance:2] - [COMP-9][file-2.c][function-5][ln:584]
[2019-04-04 22:49:39,241][INFO] any info message - [id:10][instance:3] - [COMP-13][file-10.c][function-5][ln:440]
[2019-04-04 22:49:40,742][INFO] any info message - [id:10][instance:6] - [COMP-5][file-9.c][function-12][ln:299]
[2019-04-04 22:49:42,243][INFO] any info message - [id:10][instance:7] - [COMP-5][file-5.c][function-1][ln:836]
[2019-04-04 22:49:43,745][INFO] any info message - [id:10][instance:7] - [COMP-11][file-1.c][function-4][ln:795]
[2019-04-04 22:49:45,245][INFO] any info message - [id:10][instance:3] - [COMP-3][file-1.c][function-12][ln:485]
[2019-04-04 22:49:46,747][INFO] any info message - [id:10][instance:1] - [COMP-4][file-11.c][function-6][ln:379]
[2019-04-04 22:49:48,248][INFO] any info message - [id:10][instance:4] - [COMP-10][file-1.c][function-11][ln:147]
[2019-04-04 22:49:49,749][INFO] any info message - [id:10][instance:7] - [COMP-7][file-7.c][function-5][ln:137]
[2019-04-04 22:49:51,251][INFO] any info message - [id:10][instance:7] - [COMP-1][file-11.c][function-7][ln:110]
[2019-04-04 22:49:51,870][ERROR] It is an error message - [id:10][instance:3] - [COMP-3][file-7.c][function-8][ln:586]
[2019-04-04 22:49:52,036][WARNING] Here is a warning message - [id:10][instance:4] - [COMP-2][file-2.c][function-4][ln:620]
[2019-04-04 22:49:52,242][DEBUG] any debug message - [id:10][instance:1] - [COMP-6][file-13.c][function-8][ln:822]
[2019-04-04 22:49:52,752][INFO] any info message - [id:10][instance:2] - [COMP-7][file-6.c][function-10][ln:390]
[2019-04-04 22:49:54,254][INFO] any info message - [id:10][instance:1] - [COMP-5][file-7.c][function-5][ln:415]
[2019-04-04 22:49:55,754][INFO] any info message - [id:10][instance:6] - [COMP-12][file-11.c][function-6][ln:942]
[2019-04-04 22:49:57,255][INFO] any info message - [id:10][instance:1] - [COMP-3][file-11.c][function-7][ln:433]
[2019-04-04 22:49:58,757][INFO] any info message - [id:10][instance:4] - [COMP-11][file-11.c][function-9][ln:34]
[2019-04-04 22:50:00,258][INFO] any info message - [id:10][instance:5] - [COMP-10][file-13.c][function-11][ln:82]
[2019-04-04 22:50:01,759][INFO] any info message - [id:10][instance:2] - [COMP-11][file-12.c][function-9][ln:405]
[2019-04-04 22:50:03,260][INFO] any info message - [id:10][instance:6] - [COMP-8][file-10.c][function-7][ln:487]
[2019-04-04 22:50:04,761][INFO] any info message - [id:10][instance:3] - [COMP-13][file-12.c][function-3][ln:46]
[2019-04-04 22:50:06,261][INFO] any info message - [id:10][instance:5] - [COMP-8][file-2.c][function-2][ln:25]
[2019-04-04 22:50:07,243][DEBUG] any debug message - [id:10][instance:2] - [COMP-7][file-10.c][function-1][ln:390]
[2019-04-04 22:50:07,762][INFO] any info message - [id:10][instance:5] - [COMP-10][file-8.c][function-9][ln:836]
[2019-04-04 22:50:09,263][INFO] any info message - [id:10][instance:1] - [COMP-2][file-8.c][function-1][ln:392]
[2019-04-04 22:50:10,764][INFO] any info message - [id:10][instance:5] - [COMP-4][file-8.c][function-3][ln:160]
[2019-04-04 22:50:12,265][INFO] any info message - [id:10][instance:2] - [COMP-9][file-6.c][function-1][ln:121]
[2019-04-04 22:50:13,767][INFO] any info message - [id:10][instance:7] - [COMP-10][file-5.c][function-10][ln:458]
[2019-04-04 22:50:15,268][INFO] any info message - [id:10][instance:7] - [COMP-10][file-1.c][function-13][ln:398]
[2019-04-04 22:50:16,770][INFO] any info message - [id:10][instance:3] - [COMP-13][file-13.c][function-9][ln:232]
[2019-04-04 22:50:18,271][INFO] any info message - [id:10][instance:6] - [COMP-10][file-6.c][function-9][ln:890]
[2019-04-04 22:50:19,772][INFO] any info message - [id:10][instance:4] - [COMP-11][file-1.c][function-5][ln:100]
[2019-04-04 22:50:21,274][INFO] any info message - [id:10][instance:4] - [COMP-7][file-13.c][function-11][ln:571]
[2019-04-04 22:50:22,037][WARNING] Here is a warning message - [id:10][instance:6] - [COMP-1][file-13.c][function-7][ln:322]
[2019-04-04 22:50:22,244][DEBUG] any debug message - [id:10][instance:2] - [COMP-5][file-4.c][function-3][ln:214]
[2019-04-04 22:50:22,775][INFO] any info message - [id:10][instance:3] - [COMP-5][file-9.c][function-12][ln:73]
[2019-04-04 22:50:24,276][INFO] any info message - [id:10][instance:7] - [COMP-7][file-11.c][function-11][ln:818]
[2019-04-04 22:50:25,778][INFO] any info message - [id:10][instance:4] - [COMP-3][file-9.c][function-1][ln:872]
[2019-04-04 22:50:27,280][INFO] any info message - [id:10][instance:7] - [COMP-4][file-4.c][function-2][ln:229]
[2019-04-04 22:50:28,781][INFO] any info message - [id:10][instance:1] - [COMP-13][file-8.c][function-12][ln:529]
[2019-04-04 22:50:30,282][INFO] any info message - [id:10][instance:1] - [COMP-6][file-9.c][function-11][ln:155]
[2019-04-04 22:50:31,783][INFO] any info message - [id:10][instance:5] - [COMP-10][file-12.c][function-7][ln:855]
[2019-04-04 22:50:33,284][INFO] any info message - [id:10][instance:2] - [COMP-3][file-6.c][function-7][ln:650]
[2019-04-04 22:50:34,785][INFO] any info message - [id:10][instance:5] - [COMP-4][file-8.c][function-1][ln:650]
[2019-04-04 22:50:36,286][INFO] any info message - [id:10][instance:4] - [COMP-9][file-4.c][function-9][ln:716]
[2019-04-04 22:50:37,246][DEBUG] any debug message - [id:10][instance:5] - [COMP-12][file-8.c][function-13][ln:888]
[2019-04-04 22:50:37,787][INFO] any info message - [id:10][instance:5] - [COMP-3][file-8.c][function-5][ln:888]
[2019-04-04 22:50:39,288][INFO] any info message - [id:10][instance:2] - [COMP-9][file-3.c][function-10][ln:473]
[2019-04-04 22:50:40,790][INFO] any info message - [id:10][instance:7] - [COMP-1][file-8.c][function-10][ln:710]
[2019-04-04 22:50:42,292][INFO] any info message - [id:10][instance:7] - [COMP-7][file-3.c][function-9][ln:805]
[2019-04-04 22:50:43,793][INFO] any info message - [id:10][instance:5] - [COMP-6][file-10.c][function-4][ln:367]
[2019-04-04 22:50:45,294][INFO] any info message - [id:10][instance:4] - [COMP-4][file-2.c][function-9][ln:982]
[2019-04-04 22:50:46,796][INFO] any info message - [id:10][instance:2] - [COMP-3][file-3.c][function-6][ln:539]
[2019-04-04 22:50:48,297][INFO] any info message - [id:10][instance:6] - [COMP-11][file-4.c][function-7][ln:45]
[2019-04-04 22:50:49,798][INFO] any info message - [id:10][instance:1] - [COMP-6][file-9.c][function-9][ln:905]
[2019-04-04 22:50:51,299][INFO] any info message - [id:10][instance:2] - [COMP-7][file-13.c][function-3][ln:13]
[2019-04-04 22:50:51,831][CRITICAL] ATTENTION: This is a critical issue! - [id:10][instance:2] - [COMP-8][file-11.c][function-5][ln:149]
[2019-04-04 22:50:51,871][ERROR] It is an error message - [id:10][instance:1] - [COMP-3][file-13.c][function-12][ln:985]
[2019-04-04 22:50:52,039][WARNING] Here is a warning message - [id:10][instance:7] - [COMP-10][file-11.c][function-5][ln:120]
[2019-04-04 22:50:52,247][DEBUG] any debug message - [id:10][instance:6] - [COMP-6][file-12.c][function-7][ln:326]
[2019-04-04 22:50:52,800][INFO] any info message - [id:10][instance:3] - [COMP-11][file-6.c][function-6][ln:991]
[2019-04-04 22:50:54,302][INFO] any info message - [id:10][instance:2] - [COMP-7][file-9.c][function-4][ln:619]
[2019-04-04 22:50:55,803][INFO] any info message - [id:10][instance:4] - [COMP-5][file-12.c][function-7][ln:175]
[2019-04-04 22:50:57,304][INFO] any info message - [id:10][instance:2] - [COMP-11][file-1.c][function-13][ln:216]
[2019-04-04 22:50:58,806][INFO] any info message - [id:10][instance:5] - [COMP-5][file-7.c][function-9][ln:993]
[2019-04-04 22:51:00,308][INFO] any info message - [id:10][instance:5] - [COMP-8][file-3.c][function-2][ln:725]
[2019-04-04 22:51:01,809][INFO] any info message - [id:10][instance:3] - [COMP-11][file-7.c][function-11][ln:473]
[2019-04-04 22:51:03,311][INFO] any info message - [id:10][instance:7] - [COMP-5][file-1.c][function-10][ln:764]
[2019-04-04 22:51:04,812][INFO] any info message - [id:10][instance:7] - [COMP-12][file-11.c][function-11][ln:354]
[2019-04-04 22:51:06,313][INFO] any info message - [id:10][instance:1] - [COMP-3][file-5.c][function-9][ln:475]
[2019-04-04 22:51:07,248][DEBUG] any debug message - [id:10][instance:7] - [COMP-11][file-4.c][function-2][ln:535]
[2019-04-04 22:51:07,814][INFO] any info message - [id:10][instance:6] - [COMP-13][file-10.c][function-4][ln:432]
[2019-04-04 22:51:09,316][INFO] any info message - [id:10][instance:3] - [COMP-1][file-4.c][function-1][ln:279]
[2019-04-04 22:51:10,817][INFO] any info message - [id:10][instance:3] - [COMP-5][file-5.c][function-10][ln:206]
[2019-04-04 22:51:12,318][INFO] any info message - [id:10][instance:5] - [COMP-10][file-13.c][function-13][ln:657]
[2019-04-04 22:51:13,820][INFO] any info message - [id:10][instance:5] - [COMP-10][file-13.c][function-9][ln:662]
[2019-04-04 22:51:15,321][INFO] any info message - [id:10][instance:4] - [COMP-4][file-10.c][function-7][ln:858]
[2019-04-04 22:51:16,822][INFO] any info message - [id:10][instance:5] - [COMP-3][file-8.c][function-13][ln:148]
[2019-04-04 22:51:18,324][INFO] any info message - [id:10][instance:2] - [COMP-13][file-4.c][function-7][ln:680]
[2019-04-04 22:51:19,826][INFO] any info message - [id:10][instance:4] - [COMP-10][file-1.c][function-9][ln:174]
[2019-04-04 22:51:21,327][INFO] any info message - [id:10][instance:3] - [COMP-1][file-10.c][function-12][ln:459]
[2019-04-04 22:51:22,041][WARNING] Here is a warning message - [id:10][instance:3] - [COMP-12][file-13.c][function-2][ln:615]
[2019-04-04 22:51:22,250][DEBUG] any debug message - [id:10][instance:5] - [COMP-11][file-2.c][function-6][ln:600]
[2019-04-04 22:51:22,829][INFO] any info message - [id:10][instance:2] - [COMP-13][file-10.c][function-5][ln:474]
[2019-04-04 22:51:24,330][INFO] any info message - [id:10][instance:7] - [COMP-9][file-2.c][function-10][ln:891]
[2019-04-04 22:51:25,831][INFO] any info message - [id:10][instance:6] - [COMP-3][file-7.c][function-3][ln:902]
[2019-04-04 22:51:27,332][INFO] any info message - [id:10][instance:7] - [COMP-13][file-13.c][function-5][ln:358]
[2019-04-04 22:51:28,833][INFO] any info message - [id:10][instance:5] - [COMP-9][file-6.c][function-3][ln:843]
[2019-04-04 22:51:30,335][INFO] any info message - [id:10][instance:4] - [COMP-7][file-7.c][function-13][ln:501]
[2019-04-04 22:51:31,837][INFO] any info message - [id:10][instance:1] - [COMP-7][file-7.c][function-7][ln:730]
[2019-04-04 22:51:33,338][INFO] any info message - [id:10][instance:3] - [COMP-12][file-13.c][function-7][ln:612]
[2019-04-04 22:51:34,839][INFO] any info message - [id:10][instance:2] - [COMP-8][file-1.c][function-8][ln:488]
[2019-04-04 22:51:36,340][INFO] any info message - [id:10][instance:3] - [COMP-11][file-5.c][function-8][ln:878]
[2019-04-04 22:51:37,251][DEBUG] any debug message - [id:10][instance:7] - [COMP-2][file-1.c][function-4][ln:900]
[2019-04-04 22:51:37,842][INFO] any info message - [id:10][instance:2] - [COMP-11][file-10.c][function-7][ln:316]
[2019-04-04 22:51:39,343][INFO] any info message - [id:10][instance:1] - [COMP-12][file-6.c][function-8][ln:269]
[2019-04-04 22:51:40,844][INFO] any info message - [id:10][instance:1] - [COMP-1][file-2.c][function-10][ln:152]
[2019-04-04 22:51:42,345][INFO] any info message - [id:10][instance:7] - [COMP-13][file-11.c][function-2][ln:589]
[2019-04-04 22:51:43,847][INFO] any info message - [id:10][instance:6] - [COMP-2][file-13.c][function-10][ln:745]
[2019-04-04 22:51:45,348][INFO] any info message - [id:10][instance:1] - [COMP-12][file-2.c][function-7][ln:962]
[2019-04-04 22:51:46,849][INFO] any info message - [id:10][instance:3] - [COMP-9][file-8.c][function-8][ln:218]
[2019-04-04 22:51:48,351][INFO] any info message - [id:10][instance:7] - [COMP-3][file-1.c][function-8][ln:835]
[2019-04-04 22:51:49,852][INFO] any info message - [id:10][instance:5] - [COMP-1][file-5.c][function-4][ln:292]
[2019-04-04 22:51:51,353][INFO] any info message - [id:10][instance:6] - [COMP-13][file-2.c][function-1][ln:144]
[2019-04-04 22:51:51,872][ERROR] It is an error message - [id:10][instance:5] - [COMP-3][file-6.c][function-10][ln:950]
[2019-04-04 22:51:52,042][WARNING] Here is a warning message - [id:10][instance:2] - [COMP-8][file-13.c][function-6][ln:26]
[2019-04-04 22:51:52,253][DEBUG] any debug message - [id:10][instance:6] - [COMP-3][file-10.c][function-3][ln:268]
[2019-04-04 22:51:52,854][INFO] any info message - [id:10][instance:6] - [COMP-10][file-5.c][function-13][ln:479]
[2019-04-04 22:51:54,356][INFO] any info message - [id:10][instance:4] - [COMP-1][file-2.c][function-5][ln:225]
[2019-04-04 22:51:55,857][INFO] any info message - [id:10][instance:7] - [COMP-7][file-1.c][function-6][ln:74]
[2019-04-04 22:51:57,359][INFO] any info message - [id:10][instance:4] - [COMP-1][file-4.c][function-5][ln:795]
[2019-04-04 22:51:58,860][INFO] any info message - [id:10][instance:3] - [COMP-4][file-6.c][function-10][ln:872]
[2019-04-04 22:52:00,362][INFO] any info message - [id:10][instance:1] - [COMP-9][file-12.c][function-12][ln:379]
[2019-04-04 22:52:01,862][INFO] any info message - [id:10][instance:7] - [COMP-7][file-12.c][function-12][ln:211]
[2019-04-04 22:52:03,364][INFO] any info message - [id:10][instance:6] - [COMP-7][file-12.c][function-13][ln:518]
[2019-04-04 22:52:04,864][INFO] any info message - [id:10][instance:7] - [COMP-1][file-6.c][function-3][ln:109]
[2019-04-04 22:52:06,365][INFO] any info message - [id:10][instance:3] - [COMP-4][file-2.c][function-8][ln:900]
[2019-04-04 22:52:07,255][DEBUG] any debug message - [id:10][instance:4] - [COMP-4][file-8.c][function-1][ln:90]
[2019-04-04 22:52:07,866][INFO] any info message - [id:10][instance:4] - [COMP-5][file-11.c][function-12][ln:584]
[2019-04-04 22:52:09,367][INFO] any info message - [id:10][instance:2] - [COMP-11][file-9.c][function-7][ln:646]
[2019-04-04 22:52:10,869][INFO] any info message - [id:10][instance:3] - [COMP-12][file-1.c][function-10][ln:68]
[2019-04-04 22:52:12,371][INFO] any info message - [id:10][instance:5] - [COMP-3][file-6.c][function-9][ln:40]
[2019-04-04 22:52:13,872][INFO] any info message - [id:10][instance:3] - [COMP-5][file-4.c][function-9][ln:290]
[2019-04-04 22:52:15,373][INFO] any info message - [id:10][instance:6] - [COMP-9][file-10.c][function-2][ln:39]
[2019-04-04 22:52:16,874][INFO] any info message - [id:10][instance:7] - [COMP-6][file-8.c][function-2][ln:575]
[2019-04-04 22:52:18,376][INFO] any info message - [id:10][instance:2] - [COMP-6][file-6.c][function-1][ln:438]
[2019-04-04 22:52:19,877][INFO] any info message - [id:10][instance:7] - [COMP-1][file-5.c][function-2][ln:709]
[2019-04-04 22:52:21,379][INFO] any info message - [id:10][instance:3] - [COMP-11][file-13.c][function-10][ln:677]
[2019-04-04 22:52:22,043][WARNING] Here is a warning message - [id:10][instance:6] - [COMP-2][file-9.c][function-13][ln:933]
[2019-04-04 22:52:22,259][DEBUG] any debug message - [id:10][instance:5] - [COMP-6][file-8.c][function-4][ln:213]
[2019-04-04 22:52:22,880][INFO] any info message - [id:10][instance:5] - [COMP-5][file-9.c][function-5][ln:46]
[2019-04-04 22:52:24,382][INFO] any info message - [id:10][instance:7] - [COMP-4][file-9.c][function-12][ln:225]
[2019-04-04 22:52:25,883][INFO] any info message - [id:10][instance:1] - [COMP-11][file-10.c][function-11][ln:790]
[2019-04-04 22:52:27,384][INFO] any info message - [id:10][instance:5] - [COMP-7][file-11.c][function-7][ln:915]
[2019-04-04 22:52:28,886][INFO] any info message - [id:10][instance:3] - [COMP-8][file-5.c][function-10][ln:587]
[2019-04-04 22:52:30,387][INFO] any info message - [id:10][instance:7] - [COMP-13][file-8.c][function-10][ln:361]
[2019-04-04 22:52:31,889][INFO] any info message - [id:10][instance:3] - [COMP-9][file-3.c][function-10][ln:698]
[2019-04-04 22:52:33,390][INFO] any info message - [id:10][instance:5] - [COMP-11][file-3.c][function-10][ln:257]
[2019-04-04 22:52:34,892][INFO] any info message - [id:10][instance:7] - [COMP-2][file-11.c][function-13][ln:872]
[2019-04-04 22:52:36,394][INFO] any info message - [id:10][instance:4] - [COMP-11][file-7.c][function-7][ln:303]
[2019-04-04 22:52:37,260][DEBUG] any debug message - [id:10][instance:4] - [COMP-1][file-11.c][function-5][ln:206]
[2019-04-04 22:52:37,895][INFO] any info message - [id:10][instance:7] - [COMP-10][file-2.c][function-12][ln:708]
[2019-04-04 22:52:39,396][INFO] any info message - [id:10][instance:3] - [COMP-4][file-11.c][function-11][ln:710]
[2019-04-04 22:52:40,897][INFO] any info message - [id:10][instance:4] - [COMP-13][file-2.c][function-12][ln:479]
[2019-04-04 22:52:42,398][INFO] any info message - [id:10][instance:3] - [COMP-2][file-5.c][function-1][ln:706]
[2019-04-04 22:52:43,899][INFO] any info message - [id:10][instance:5] - [COMP-7][file-6.c][function-7][ln:543]
[2019-04-04 22:52:45,401][INFO] any info message - [id:10][instance:5] - [COMP-13][file-10.c][function-10][ln:790]
[2019-04-04 22:52:46,902][INFO] any info message - [id:10][instance:5] - [COMP-4][file-11.c][function-9][ln:53]
[2019-04-04 22:52:48,419][INFO] any info message - [id:10][instance:4] - [COMP-5][file-2.c][function-2][ln:216]
[2019-04-04 22:52:49,920][INFO] any info message - [id:10][instance:1] - [COMP-11][file-12.c][function-9][ln:815]
[2019-04-04 22:52:51,421][INFO] any info message - [id:10][instance:7] - [COMP-8][file-5.c][function-1][ln:43]
[2019-04-04 22:52:51,833][CRITICAL] ATTENTION: This is a critical issue! - [id:10][instance:3] - [COMP-7][file-4.c][function-9][ln:338]
[2019-04-04 22:52:51,874][ERROR] It is an error message - [id:10][instance:4] - [COMP-7][file-9.c][function-12][ln:485]
[2019-04-04 22:52:52,045][WARNING] Here is a warning message - [id:10][instance:3] - [COMP-8][file-9.c][function-5][ln:209]
[2019-04-04 22:52:52,262][DEBUG] any debug message - [id:10][instance:1] - [COMP-1][file-8.c][function-4][ln:875]
[2019-04-04 22:52:52,922][INFO] any info message - [id:10][instance:6] - [COMP-8][file-11.c][function-8][ln:514]
[2019-04-04 22:52:54,423][INFO] any info message - [id:10][instance:6] - [COMP-9][file-2.c][function-3][ln:926]
[2019-04-04 22:52:55,925][INFO] any info message - [id:10][instance:5] - [COMP-13][file-11.c][function-8][ln:268]
[2019-04-04 22:52:57,426][INFO] any info message - [id:10][instance:6] - [COMP-5][file-10.c][function-2][ln:717]
[2019-04-04 22:52:58,932][INFO] any info message - [id:10][instance:3] - [COMP-3][file-2.c][function-11][ln:784]
[2019-04-04 22:53:00,434][INFO] any info message - [id:10][instance:6] - [COMP-10][file-11.c][function-1][ln:326]
[2019-04-04 22:53:01,935][INFO] any info message - [id:10][instance:5] - [COMP-12][file-13.c][function-2][ln:917]
[2019-04-04 22:53:03,436][INFO] any info message - [id:10][instance:6] - [COMP-4][file-12.c][function-5][ln:379]
[2019-04-04 22:53:04,938][INFO] any info message - [id:10][instance:3] - [COMP-8][file-1.c][function-9][ln:180]
[2019-04-04 22:53:06,440][INFO] any info message - [id:10][instance:6] - [COMP-3][file-5.c][function-6][ln:357]
[2019-04-04 22:53:07,263][DEBUG] any debug message - [id:10][instance:2] - [COMP-10][file-8.c][function-1][ln:587]
[2019-04-04 22:53:07,941][INFO] any info message - [id:10][instance:4] - [COMP-12][file-2.c][function-5][ln:430]
[2019-04-04 22:53:09,441][INFO] any info message - [id:10][instance:5] - [COMP-13][file-1.c][function-10][ln:172]
[2019-04-04 22:53:10,943][INFO] any info message - [id:10][instance:7] - [COMP-12][file-12.c][function-5][ln:373]
[2019-04-04 22:53:12,444][INFO] any info message - [id:10][instance:3] - [COMP-2][file-11.c][function-12][ln:43]
[2019-04-04 22:53:13,945][INFO] any info message - [id:10][instance:3] - [COMP-11][file-11.c][function-11][ln:436]
[2019-04-04 22:53:15,446][INFO] any info message - [id:10][instance:6] - [COMP-5][file-6.c][function-1][ln:56]
[2019-04-04 22:53:16,948][INFO] any info message - [id:10][instance:3] - [COMP-6][file-3.c][function-4][ln:568]
[2019-04-04 22:53:18,449][INFO] any info message - [id:10][instance:7] - [COMP-11][file-12.c][function-1][ln:358]
[2019-04-04 22:53:19,949][INFO] any info message - [id:10][instance:4] - [COMP-5][file-7.c][function-8][ln:700]
[2019-04-04 22:53:21,451][INFO] any info message - [id:10][instance:5] - [COMP-4][file-2.c][function-12][ln:613]
[2019-04-04 22:53:22,046][WARNING] Here is a warning message - [id:10][instance:6] - [COMP-5][file-2.c][function-1][ln:75]
[2019-04-04 22:53:22,265][DEBUG] any debug message - [id:10][instance:1] - [COMP-4][file-5.c][function-7][ln:243]
[2019-04-04 22:53:22,952][INFO] any info message - [id:10][instance:6] - [COMP-7][file-4.c][function-1][ln:815]
[2019-04-04 22:53:24,454][INFO] any info message - [id:10][instance:7] - [COMP-2][file-9.c][function-3][ln:604]
[2019-04-04 22:53:25,955][INFO] any info message - [id:10][instance:5] - [COMP-11][file-4.c][function-11][ln:453]
[2019-04-04 22:53:27,456][INFO] any info message - [id:10][instance:3] - [COMP-11][file-8.c][function-13][ln:351]
[2019-04-04 22:53:28,958][INFO] any info message - [id:10][instance:6] - [COMP-9][file-8.c][function-12][ln:121]
[2019-04-04 22:53:30,458][INFO] any info message - [id:10][instance:6] - [COMP-10][file-5.c][function-8][ln:814]
[2019-04-04 22:53:31,960][INFO] any info message - [id:10][instance:6] - [COMP-2][file-13.c][function-4][ln:661]
[2019-04-04 22:53:33,461][INFO] any info message - [id:10][instance:6] - [COMP-10][file-11.c][function-6][ln:112]
[2019-04-04 22:53:34,963][INFO] any info message - [id:10][instance:5] - [COMP-5][file-2.c][function-10][ln:353]
[2019-04-04 22:53:36,464][INFO] any info message - [id:10][instance:1] - [COMP-12][file-10.c][function-11][ln:769]
[2019-04-04 22:53:37,266][DEBUG] any debug message - [id:10][instance:1] - [COMP-12][file-8.c][function-6][ln:615]
[2019-04-04 22:53:37,965][INFO] any info message - [id:10][instance:6] - [COMP-13][file-13.c][function-8][ln:592]
[2019-04-04 22:53:39,466][INFO] any info message - [id:10][instance:7] - [COMP-5][file-13.c][function-11][ln:287]
[2019-04-04 22:53:40,967][INFO] any info message - [id:10][instance:7] - [COMP-5][file-6.c][function-13][ln:980]
[2019-04-04 22:53:42,468][INFO] any info message - [id:10][instance:6] - [COMP-5][file-2.c][function-8][ln:98]
[2019-04-04 22:53:43,969][INFO] any info message - [id:10][instance:1] - [COMP-10][file-8.c][function-11][ln:500]
[2019-04-04 22:53:45,470][INFO] any info message - [id:10][instance:1] - [COMP-10][file-1.c][function-3][ln:705]
[2019-04-04 22:53:46,972][INFO] any info message - [id:10][instance:7] - [COMP-9][file-11.c][function-13][ln:97]
[2019-04-04 22:53:48,473][INFO] any info message - [id:10][instance:4] - [COMP-2][file-10.c][function-4][ln:89]
[2019-04-04 22:53:49,974][INFO] any info message - [id:10][instance:4] - [COMP-10][file-1.c][function-4][ln:216]
[2019-04-04 22:53:51,474][INFO] any info message - [id:10][instance:5] - [COMP-4][file-1.c][function-10][ln:394]
[2019-04-04 22:53:51,875][ERROR] It is an error message - [id:10][instance:7] - [COMP-8][file-5.c][function-4][ln:814]
[2019-04-04 22:53:52,047][WARNING] Here is a warning message - [id:10][instance:2] - [COMP-4][file-11.c][function-9][ln:382]
[2019-04-04 22:53:52,268][DEBUG] any debug message - [id:10][instance:6] - [COMP-9][file-8.c][function-4][ln:745]
[2019-04-04 22:53:52,976][INFO] any info message - [id:10][instance:6] - [COMP-12][file-10.c][function-6][ln:312]
[2019-04-04 22:53:54,476][INFO] any info message - [id:10][instance:7] - [COMP-3][file-1.c][function-1][ln:591]
[2019-04-04 22:53:55,978][INFO] any info message - [id:10][instance:1] - [COMP-6][file-4.c][function-2][ln:79]
[2019-04-04 22:53:57,480][INFO] any info message - [id:10][instance:7] - [COMP-4][file-5.c][function-4][ln:345]
[2019-04-04 22:53:58,981][INFO] any info message - [id:10][instance:2] - [COMP-3][file-12.c][function-5][ln:942]
[2019-04-04 22:54:00,482][INFO] any info message - [id:10][instance:5] - [COMP-11][file-11.c][function-4][ln:832]
[2019-04-04 22:54:01,984][INFO] any info message - [id:10][instance:5] - [COMP-12][file-5.c][function-12][ln:438]
[2019-04-04 22:54:03,484][INFO] any info message - [id:10][instance:2] - [COMP-8][file-1.c][function-1][ln:608]
[2019-04-04 22:54:04,985][INFO] any info message - [id:10][instance:7] - [COMP-9][file-3.c][function-9][ln:512]
[2019-04-04 22:54:06,487][INFO] any info message - [id:10][instance:2] - [COMP-11][file-1.c][function-7][ln:791]
[2019-04-04 22:54:07,268][DEBUG] any debug message - [id:10][instance:2] - [COMP-1][file-3.c][function-4][ln:424]
[2019-04-04 22:54:07,988][INFO] any info message - [id:10][instance:4] - [COMP-4][file-11.c][function-5][ln:46]
[2019-04-04 22:54:09,490][INFO] any info message - [id:10][instance:5] - [COMP-2][file-7.c][function-3][ln:925]
[2019-04-04 22:54:10,991][INFO] any info message - [id:10][instance:3] - [COMP-2][file-11.c][function-1][ln:230]
[2019-04-04 22:54:12,491][INFO] any info message - [id:10][instance:7] - [COMP-2][file-5.c][function-7][ln:107]
[2019-04-04 22:54:13,992][INFO] any info message - [id:10][instance:6] - [COMP-7][file-13.c][function-11][ln:254]
[2019-04-04 22:54:15,495][INFO] any info message - [id:10][instance:2] - [COMP-9][file-10.c][function-8][ln:846]
[2019-04-04 22:54:16,996][INFO] any info message - [id:10][instance:3] - [COMP-6][file-9.c][function-8][ln:99]
[2019-04-04 22:54:18,498][INFO] any info message - [id:10][instance:6] - [COMP-9][file-13.c][function-10][ln:351]
[2019-04-04 22:54:19,999][INFO] any info message - [id:10][instance:2] - [COMP-7][file-7.c][function-9][ln:953]
[2019-04-04 22:54:21,500][INFO] any info message - [id:10][instance:1] - [COMP-9][file-7.c][function-1][ln:268]
[2019-04-04 22:54:22,049][WARNING] Here is a warning message - [id:10][instance:1] - [COMP-1][file-1.c][function-8][ln:563]
[2019-04-04 22:54:22,270][DEBUG] any debug message - [id:10][instance:4] - [COMP-8][file-4.c][function-13][ln:735]
[2019-04-04 22:54:23,002][INFO] any info message - [id:10][instance:2] - [COMP-3][file-6.c][function-5][ln:63]
[2019-04-04 22:54:24,504][INFO] any info message - [id:10][instance:6] - [COMP-13][file-12.c][function-3][ln:139]
[2019-04-04 22:54:26,072][INFO] any info message - [id:10][instance:7] - [COMP-11][file-13.c][function-11][ln:169]
[2019-04-04 22:54:27,573][INFO] any info message - [id:10][instance:2] - [COMP-11][file-8.c][function-2][ln:321]
[2019-04-04 22:54:29,074][INFO] any info message - [id:10][instance:2] - [COMP-4][file-7.c][function-9][ln:488]
[2019-04-04 22:54:30,576][INFO] any info message - [id:10][instance:2] - [COMP-4][file-7.c][function-12][ln:326]
[2019-04-04 22:54:32,077][INFO] any info message - [id:10][instance:1] - [COMP-4][file-7.c][function-1][ln:652]
[2019-04-04 22:54:33,578][INFO] any info message - [id:10][instance:1] - [COMP-6][file-5.c][function-9][ln:855]
[2019-04-04 22:54:35,079][INFO] any info message - [id:10][instance:5] - [COMP-13][file-7.c][function-7][ln:404]
[2019-04-04 22:54:36,581][INFO] any info message - [id:10][instance:3] - [COMP-3][file-11.c][function-11][ln:36]
[2019-04-04 22:54:37,270][DEBUG] any debug message - [id:10][instance:7] - [COMP-13][file-9.c][function-2][ln:360]
[2019-04-04 22:54:38,083][INFO] any info message - [id:10][instance:4] - [COMP-10][file-12.c][function-13][ln:248]
[2019-04-04 22:54:39,585][INFO] any info message - [id:10][instance:4] - [COMP-8][file-12.c][function-3][ln:803]
[2019-04-04 22:54:41,086][INFO] any info message - [id:10][instance:5] - [COMP-2][file-7.c][function-5][ln:375]
[2019-04-04 22:54:42,586][INFO] any info message - [id:10][instance:2] - [COMP-4][file-13.c][function-12][ln:178]
[2019-04-04 22:54:44,088][INFO] any info message - [id:10][instance:6] - [COMP-11][file-7.c][function-8][ln:784]
[2019-04-04 22:54:45,589][INFO] any info message - [id:10][instance:6] - [COMP-12][file-7.c][function-9][ln:125]
[2019-04-04 22:54:47,090][INFO] any info message - [id:10][instance:7] - [COMP-13][file-1.c][function-8][ln:974]
[2019-04-04 22:54:48,591][INFO] any info message - [id:10][instance:3] - [COMP-11][file-4.c][function-3][ln:811]
[2019-04-04 22:54:50,092][INFO] any info message - [id:10][instance:1] - [COMP-11][file-9.c][function-6][ln:884]
[2019-04-04 22:54:51,592][INFO] any info message - [id:10][instance:7] - [COMP-10][file-2.c][function-9][ln:229]
[2019-04-04 22:54:51,835][CRITICAL] ATTENTION: This is a critical issue! - [id:10][instance:6] - [COMP-4][file-11.c][function-8][ln:846]
[2019-04-04 22:54:51,877][ERROR] It is an error message - [id:10][instance:2] - [COMP-8][file-10.c][function-3][ln:922]
[2019-04-04 22:54:52,050][WARNING] Here is a warning message - [id:10][instance:7] - [COMP-9][file-9.c][function-11][ln:417]
[2019-04-04 22:54:52,271][DEBUG] any debug message - [id:10][instance:7] - [COMP-13][file-3.c][function-9][ln:382]
[2019-04-04 22:54:53,094][INFO] any info message - [id:10][instance:4] - [COMP-3][file-2.c][function-3][ln:149]
[2019-04-04 22:54:54,595][INFO] any info message - [id:10][instance:6] - [COMP-10][file-3.c][function-12][ln:175]
[2019-04-04 22:54:56,096][INFO] any info message - [id:10][instance:3] - [COMP-11][file-10.c][function-9][ln:238]
[2019-04-04 22:54:57,597][INFO] any info message - [id:10][instance:2] - [COMP-2][file-13.c][function-8][ln:199]
[2019-04-04 22:54:59,097][INFO] any info message - [id:10][instance:5] - [COMP-7][file-10.c][function-9][ln:845]
[2019-04-04 22:55:00,596][INFO] any info message - [id:10][instance:3] - [COMP-6][file-11.c][function-9][ln:360]
[2019-04-04 22:55:02,097][INFO] any info message - [id:10][instance:2] - [COMP-1][file-4.c][function-4][ln:137]
[2019-04-04 22:55:03,597][INFO] any info message - [id:10][instance:3] - [COMP-5][file-13.c][function-6][ln:362]
[2019-04-04 22:55:05,099][INFO] any info message - [id:10][instance:7] - [COMP-1][file-6.c][function-4][ln:178]
[2019-04-04 22:55:06,599][INFO] any info message - [id:10][instance:7] - [COMP-8][file-2.c][function-8][ln:948]
[2019-04-04 22:55:07,272][DEBUG] any debug message - [id:10][instance:4] - [COMP-10][file-6.c][function-1][ln:837]
[2019-04-04 22:55:08,099][INFO] any info message - [id:10][instance:3] - [COMP-5][file-2.c][function-11][ln:249]
[2019-04-04 22:55:09,601][INFO] any info message - [id:10][instance:2] - [COMP-10][file-7.c][function-8][ln:227]
[2019-04-04 22:55:11,102][INFO] any info message - [id:10][instance:2] - [COMP-11][file-5.c][function-4][ln:147]
[2019-04-04 22:55:12,602][INFO] any info message - [id:10][instance:5] - [COMP-2][file-2.c][function-1][ln:886]
[2019-04-04 22:55:14,103][INFO] any info message - [id:10][instance:1] - [COMP-13][file-6.c][function-5][ln:24]
[2019-04-04 22:55:15,603][INFO] any info message - [id:10][instance:2] - [COMP-4][file-6.c][function-3][ln:933]
[2019-04-04 22:55:17,104][INFO] any info message - [id:10][instance:3] - [COMP-10][file-1.c][function-13][ln:768]
[2019-04-04 22:55:18,606][INFO] any info message - [id:10][instance:7] - [COMP-3][file-5.c][function-5][ln:807]
[2019-04-04 22:55:20,108][INFO] any info message - [id:10][instance:2] - [COMP-9][file-12.c][function-8][ln:323]
[2019-04-04 22:55:21,608][INFO] any info message - [id:10][instance:5] - [COMP-6][file-3.c][function-12][ln:123]
[2019-04-04 22:55:22,051][WARNING] Here is a warning message - [id:10][instance:7] - [COMP-8][file-8.c][function-13][ln:36]
[2019-04-04 22:55:22,277][DEBUG] any debug message - [id:10][instance:3] - [COMP-11][file-12.c][function-13][ln:295]
[2019-04-04 22:55:23,109][INFO] any info message - [id:10][instance:7] - [COMP-4][file-10.c][function-1][ln:806]
[2019-04-04 22:55:24,610][INFO] any info message - [id:10][instance:7] - [COMP-6][file-10.c][function-1][ln:53]
[2019-04-04 22:55:26,113][INFO] any info message - [id:10][instance:7] - [COMP-1][file-11.c][function-7][ln:220]
[2019-04-04 22:55:27,615][INFO] any info message - [id:10][instance:6] - [COMP-8][file-11.c][function-6][ln:404]
[2019-04-04 22:55:29,116][INFO] any info message - [id:10][instance:1] - [COMP-10][file-5.c][function-2][ln:29]
[2019-04-04 22:55:30,618][INFO] any info message - [id:10][instance:4] - [COMP-6][file-1.c][function-1][ln:563]
[2019-04-04 22:55:32,119][INFO] any info message - [id:10][instance:3] - [COMP-3][file-7.c][function-3][ln:131]
[2019-04-04 22:55:33,620][INFO] any info message - [id:10][instance:3] - [COMP-10][file-4.c][function-2][ln:766]
[2019-04-04 22:55:35,121][INFO] any info message - [id:10][instance:4] - [COMP-1][file-5.c][function-11][ln:907]
[2019-04-04 22:55:36,622][INFO] any info message - [id:10][instance:2] - [COMP-11][file-7.c][function-11][ln:825]
[2019-04-04 22:55:37,279][DEBUG] any debug message - [id:10][instance:1] - [COMP-12][file-13.c][function-10][ln:651]
[2019-04-04 22:55:38,122][INFO] any info message - [id:10][instance:3] - [COMP-12][file-9.c][function-2][ln:43]
[2019-04-04 22:55:39,623][INFO] any info message - [id:10][instance:7] - [COMP-11][file-12.c][function-2][ln:688]
[2019-04-04 22:55:41,124][INFO] any info message - [id:10][instance:2] - [COMP-11][file-2.c][function-2][ln:602]
[2019-04-04 22:55:42,624][INFO] any info message - [id:10][instance:3] - [COMP-11][file-13.c][function-1][ln:723]
[2019-04-04 22:55:44,126][INFO] any info message - [id:10][instance:6] - [COMP-12][file-13.c][function-11][ln:342]
[2019-04-04 22:55:45,627][INFO] any info message - [id:10][instance:7] - [COMP-7][file-1.c][function-3][ln:980]
[2019-04-04 22:55:47,128][INFO] any info message - [id:10][instance:7] - [COMP-2][file-10.c][function-1][ln:564]
[2019-04-04 22:55:48,628][INFO] any info message - [id:10][instance:3] - [COMP-2][file-4.c][function-3][ln:620]
[2019-04-04 22:55:50,129][INFO] any info message - [id:10][instance:4] - [COMP-7][file-9.c][function-12][ln:253]
[2019-04-04 22:55:51,630][INFO] any info message - [id:10][instance:5] - [COMP-10][file-2.c][function-10][ln:541]
[2019-04-04 22:55:51,878][ERROR] It is an error message - [id:10][instance:5] - [COMP-9][file-2.c][function-8][ln:960]
[2019-04-04 22:55:52,078][WARNING] Here is a warning message - [id:10][instance:6] - [COMP-11][file-4.c][function-1][ln:489]
[2019-04-04 22:55:52,279][DEBUG] any debug message - [id:10][instance:7] - [COMP-6][file-3.c][function-1][ln:332]
[2019-04-04 22:55:53,129][INFO] any info message - [id:10][instance:2] - [COMP-13][file-9.c][function-9][ln:154]
[2019-04-04 22:55:54,632][INFO] any info message - [id:10][instance:6] - [COMP-6][file-13.c][function-8][ln:695]
[2019-04-04 22:55:56,132][INFO] any info message - [id:10][instance:1] - [COMP-3][file-10.c][function-4][ln:485]
[2019-04-04 22:55:57,634][INFO] any info message - [id:10][instance:2] - [COMP-4][file-6.c][function-7][ln:812]
[2019-04-04 22:55:59,135][INFO] any info message - [id:10][instance:5] - [COMP-7][file-9.c][function-4][ln:337]
[2019-04-04 22:56:00,638][INFO] any info message - [id:10][instance:3] - [COMP-10][file-5.c][function-4][ln:200]
[2019-04-04 22:56:02,139][INFO] any info message - [id:10][instance:4] - [COMP-7][file-3.c][function-2][ln:432]
[2019-04-04 22:56:03,641][INFO] any info message - [id:10][instance:6] - [COMP-1][file-8.c][function-4][ln:550]
[2019-04-04 22:56:05,141][INFO] any info message - [id:10][instance:6] - [COMP-9][file-6.c][function-11][ln:327]
[2019-04-04 22:56:06,642][INFO] any info message - [id:10][instance:5] - [COMP-6][file-9.c][function-11][ln:124]
[2019-04-04 22:56:07,279][DEBUG] any debug message - [id:10][instance:6] - [COMP-6][file-5.c][function-4][ln:779]
[2019-04-04 22:56:08,142][INFO] any info message - [id:10][instance:6] - [COMP-9][file-12.c][function-9][ln:648]
[2019-04-04 22:56:09,643][INFO] any info message - [id:10][instance:4] - [COMP-5][file-9.c][function-3][ln:576]
[2019-04-04 22:56:11,144][INFO] any info message - [id:10][instance:2] - [COMP-11][file-13.c][function-7][ln:564]
[2019-04-04 22:56:12,646][INFO] any info message - [id:10][instance:4] - [COMP-2][file-12.c][function-4][ln:31]
[2019-04-04 22:56:14,147][INFO] any info message - [id:10][instance:7] - [COMP-8][file-9.c][function-3][ln:411]
[2019-04-04 22:56:15,648][INFO] any info message - [id:10][instance:1] - [COMP-3][file-11.c][function-12][ln:646]
[2019-04-04 22:56:17,148][INFO] any info message - [id:10][instance:3] - [COMP-3][file-3.c][function-1][ln:679]
[2019-04-04 22:56:18,649][INFO] any info message - [id:10][instance:2] - [COMP-8][file-3.c][function-8][ln:389]
[2019-04-04 22:56:20,150][INFO] any info message - [id:10][instance:6] - [COMP-8][file-1.c][function-11][ln:692]
[2019-04-04 22:56:21,651][INFO] any info message - [id:10][instance:6] - [COMP-7][file-3.c][function-3][ln:988]
[2019-04-04 22:56:22,079][WARNING] Here is a warning message - [id:10][instance:5] - [COMP-3][file-4.c][function-1][ln:417]
[2019-04-04 22:56:22,281][DEBUG] any debug message - [id:10][instance:6] - [COMP-7][file-11.c][function-9][ln:516]
[2019-04-04 22:56:23,152][INFO] any info message - [id:10][instance:5] - [COMP-6][file-7.c][function-12][ln:830]
[2019-04-04 22:56:24,653][INFO] any info message - [id:10][instance:1] - [COMP-7][file-1.c][function-3][ln:28]
[2019-04-04 22:56:26,154][INFO] any info message - [id:10][instance:1] - [COMP-2][file-9.c][function-7][ln:737]
[2019-04-04 22:56:27,654][INFO] any info message - [id:10][instance:5] - [COMP-4][file-8.c][function-13][ln:34]
[2019-04-04 22:56:29,155][INFO] any info message - [id:10][instance:7] - [COMP-13][file-12.c][function-5][ln:132]
[2019-04-04 22:56:30,657][INFO] any info message - [id:10][instance:7] - [COMP-9][file-4.c][function-5][ln:288]
[2019-04-04 22:56:32,158][INFO] any info message - [id:10][instance:4] - [COMP-1][file-3.c][function-7][ln:681]
[2019-04-04 22:56:33,659][INFO] any info message - [id:10][instance:5] - [COMP-7][file-13.c][function-13][ln:614]
[2019-04-04 22:56:35,159][INFO] any info message - [id:10][instance:7] - [COMP-5][file-12.c][function-9][ln:848]
[2019-04-04 22:56:36,660][INFO] any info message - [id:10][instance:6] - [COMP-11][file-11.c][function-10][ln:161]
[2019-04-04 22:56:37,283][DEBUG] any debug message - [id:10][instance:1] - [COMP-13][file-5.c][function-1][ln:887]
[2019-04-04 22:56:38,161][INFO] any info message - [id:10][instance:4] - [COMP-3][file-9.c][function-10][ln:623]
[2019-04-04 22:56:39,662][INFO] any info message - [id:10][instance:1] - [COMP-12][file-6.c][function-1][ln:719]
[2019-04-04 22:56:41,165][INFO] any info message - [id:10][instance:6] - [COMP-5][file-12.c][function-10][ln:67]
[2019-04-04 22:56:42,666][INFO] any info message - [id:10][instance:2] - [COMP-7][file-8.c][function-12][ln:150]
[2019-04-04 22:56:44,168][INFO] any info message - [id:10][instance:1] - [COMP-3][file-12.c][function-7][ln:155]
[2019-04-04 22:56:45,669][INFO] any info message - [id:10][instance:1] - [COMP-9][file-2.c][function-12][ln:706]
[2019-04-04 22:56:47,171][INFO] any info message - [id:10][instance:5] - [COMP-3][file-13.c][function-2][ln:407]
[2019-04-04 22:56:48,672][INFO] any info message - [id:10][instance:3] - [COMP-13][file-4.c][function-8][ln:227]
[2019-04-04 22:56:50,173][INFO] any info message - [id:10][instance:3] - [COMP-8][file-1.c][function-6][ln:154]
[2019-04-04 22:56:51,673][INFO] any info message - [id:10][instance:1] - [COMP-3][file-7.c][function-10][ln:403]
[2019-04-04 22:56:51,836][CRITICAL] ATTENTION: This is a critical issue! - [id:10][instance:6] - [COMP-2][file-13.c][function-9][ln:399]
[2019-04-04 22:56:51,878][ERROR] It is an error message - [id:10][instance:7] - [COMP-4][file-13.c][function-11][ln:44]
[2019-04-04 22:56:52,080][WARNING] Here is a warning message - [id:10][instance:4] - [COMP-8][file-3.c][function-8][ln:85]
[2019-04-04 22:56:52,283][DEBUG] any debug message - [id:10][instance:5] - [COMP-2][file-2.c][function-9][ln:111]
[2019-04-04 22:56:53,175][INFO] any info message - [id:10][instance:4] - [COMP-7][file-5.c][function-5][ln:222]
[2019-04-04 22:56:54,675][INFO] any info message - [id:10][instance:1] - [COMP-12][file-12.c][function-8][ln:732]
[2019-04-04 22:56:56,177][INFO] any info message - [id:10][instance:2] - [COMP-5][file-12.c][function-5][ln:655]
[2019-04-04 22:56:57,678][INFO] any info message - [id:10][instance:6] - [COMP-4][file-9.c][function-3][ln:720]
[2019-04-04 22:56:59,178][INFO] any info message - [id:10][instance:4] - [COMP-12][file-5.c][function-9][ln:882]
[2019-04-04 22:57:00,678][INFO] any info message - [id:10][instance:4] - [COMP-5][file-4.c][function-8][ln:758]
[2019-04-04 22:57:02,179][INFO] any info message - [id:10][instance:6] - [COMP-6][file-7.c][function-6][ln:806]
[2019-04-04 22:57:03,680][INFO] any info message - [id:10][instance:4] - [COMP-7][file-8.c][function-10][ln:235]
[2019-04-04 22:57:05,181][INFO] any info message - [id:10][instance:2] - [COMP-10][file-10.c][function-7][ln:676]
[2019-04-04 22:57:06,683][INFO] any info message - [id:10][instance:4] - [COMP-10][file-5.c][function-9][ln:104]
[2019-04-04 22:57:07,285][DEBUG] any debug message - [id:10][instance:6] - [COMP-8][file-7.c][function-13][ln:240]
[2019-04-04 22:57:08,185][INFO] any info message - [id:10][instance:5] - [COMP-12][file-2.c][function-9][ln:7]
[2019-04-04 22:57:09,686][INFO] any info message - [id:10][instance:6] - [COMP-3][file-11.c][function-6][ln:732]
[2019-04-04 22:57:11,185][INFO] any info message - [id:10][instance:7] - [COMP-5][file-9.c][function-10][ln:335]
[2019-04-04 22:57:12,686][INFO] any info message - [id:10][instance:3] - [COMP-10][file-7.c][function-1][ln:521]
[2019-04-04 22:57:14,187][INFO] any info message - [id:10][instance:5] - [COMP-2][file-4.c][function-2][ln:610]
[2019-04-04 22:57:15,688][INFO] any info message - [id:10][instance:4] - [COMP-13][file-9.c][function-9][ln:423]
[2019-04-04 22:57:17,190][INFO] any info message - [id:10][instance:4] - [COMP-5][file-9.c][function-6][ln:938]
[2019-04-04 22:57:18,690][INFO] any info message - [id:10][instance:2] - [COMP-2][file-11.c][function-5][ln:838]
[2019-04-04 22:57:20,190][INFO] any info message - [id:10][instance:4] - [COMP-10][file-6.c][function-6][ln:668]
[2019-04-04 22:57:21,690][INFO] any info message - [id:10][instance:4] - [COMP-6][file-12.c][function-13][ln:184]
[2019-04-04 22:57:22,080][WARNING] Here is a warning message - [id:10][instance:3] - [COMP-9][file-7.c][function-7][ln:983]
[2019-04-04 22:57:22,285][DEBUG] any debug message - [id:10][instance:6] - [COMP-3][file-5.c][function-3][ln:198]
[2019-04-04 22:57:23,191][INFO] any info message - [id:10][instance:1] - [COMP-12][file-11.c][function-1][ln:937]
[2019-04-04 22:57:24,692][INFO] any info message - [id:10][instance:3] - [COMP-6][file-13.c][function-3][ln:203]
[2019-04-04 22:57:26,192][INFO] any info message - [id:10][instance:1] - [COMP-13][file-9.c][function-9][ln:306]
[2019-04-04 22:57:27,692][INFO] any info message - [id:10][instance:7] - [COMP-12][file-1.c][function-3][ln:272]
[2019-04-04 22:57:29,192][INFO] any info message - [id:10][instance:1] - [COMP-8][file-10.c][function-10][ln:181]
[2019-04-04 22:57:30,694][INFO] any info message - [id:10][instance:5] - [COMP-1][file-13.c][function-4][ln:134]
[2019-04-04 22:57:32,194][INFO] any info message - [id:10][instance:6] - [COMP-4][file-6.c][function-2][ln:55]
[2019-04-04 22:57:33,695][INFO] any info message - [id:10][instance:7] - [COMP-8][file-8.c][function-5][ln:661]
[2019-04-04 22:57:35,196][INFO] any info message - [id:10][instance:4] - [COMP-12][file-6.c][function-4][ln:27]
[2019-04-04 22:57:36,696][INFO] any info message - [id:10][instance:7] - [COMP-2][file-8.c][function-7][ln:67]
[2019-04-04 22:57:37,285][DEBUG] any debug message - [id:10][instance:1] - [COMP-13][file-13.c][function-2][ln:788]
[2019-04-04 22:57:38,197][INFO] any info message - [id:10][instance:6] - [COMP-1][file-13.c][function-6][ln:186]
[2019-04-04 22:57:39,698][INFO] any info message - [id:10][instance:2] - [COMP-5][file-13.c][function-7][ln:280]
[2019-04-04 22:57:41,200][INFO] any info message - [id:10][instance:2] - [COMP-6][file-11.c][function-1][ln:624]
[2019-04-04 22:57:42,700][INFO] any info message - [id:10][instance:3] - [COMP-1][file-2.c][function-1][ln:708]
[2019-04-04 22:57:44,201][INFO] any info message - [id:10][instance:7] - [COMP-1][file-10.c][function-9][ln:122]
[2019-04-04 22:57:45,702][INFO] any info message - [id:10][instance:7] - [COMP-8][file-6.c][function-10][ln:635]
[2019-04-04 22:57:47,203][INFO] any info message - [id:10][instance:6] - [COMP-7][file-8.c][function-6][ln:204]
[2019-04-04 22:57:48,704][INFO] any info message - [id:10][instance:4] - [COMP-7][file-3.c][function-2][ln:650]
[2019-04-04 22:57:50,205][INFO] any info message - [id:10][instance:7] - [COMP-9][file-8.c][function-12][ln:419]
[2019-04-04 22:57:51,705][INFO] any info message - [id:10][instance:5] - [COMP-8][file-10.c][function-11][ln:774]
[2019-04-04 22:57:51,879][ERROR] It is an error message - [id:10][instance:3] - [COMP-7][file-13.c][function-13][ln:676]
[2019-04-04 22:57:52,080][WARNING] Here is a warning message - [id:10][instance:7] - [COMP-2][file-8.c][function-13][ln:534]
[2019-04-04 22:57:52,287][DEBUG] any debug message - [id:10][instance:2] - [COMP-12][file-6.c][function-2][ln:21]
[2019-04-04 22:57:53,206][INFO] any info message - [id:10][instance:1] - [COMP-13][file-11.c][function-6][ln:921]
[2019-04-04 22:57:54,707][INFO] any info message - [id:10][instance:5] - [COMP-7][file-3.c][function-3][ln:887]
[2019-04-04 22:57:56,208][INFO] any info message - [id:10][instance:2] - [COMP-13][file-13.c][function-8][ln:529]
[2019-04-04 22:57:57,710][INFO] any info message - [id:10][instance:5] - [COMP-5][file-4.c][function-6][ln:999]
[2019-04-04 22:57:59,211][INFO] any info message - [id:10][instance:3] - [COMP-2][file-11.c][function-3][ln:967]
[2019-04-04 22:58:00,711][INFO] any info message - [id:10][instance:6] - [COMP-10][file-3.c][function-3][ln:240]
[2019-04-04 22:58:02,212][INFO] any info message - [id:10][instance:2] - [COMP-11][file-3.c][function-7][ln:268]
[2019-04-04 22:58:03,713][INFO] any info message - [id:10][instance:6] - [COMP-7][file-3.c][function-3][ln:919]
[2019-04-04 22:58:05,214][INFO] any info message - [id:10][instance:3] - [COMP-11][file-10.c][function-1][ln:71]
[2019-04-04 22:58:06,715][INFO] any info message - [id:10][instance:3] - [COMP-1][file-6.c][function-5][ln:930]
[2019-04-04 22:58:07,288][DEBUG] any debug message - [id:10][instance:3] - [COMP-7][file-9.c][function-3][ln:268]
[2019-04-04 22:58:08,216][INFO] any info message - [id:10][instance:4] - [COMP-3][file-9.c][function-10][ln:703]
[2019-04-04 22:58:09,717][INFO] any info message - [id:10][instance:1] - [COMP-10][file-4.c][function-8][ln:236]
[2019-04-04 22:58:11,228][INFO] any info message - [id:10][instance:6] - [COMP-10][file-9.c][function-9][ln:696]
[2019-04-04 22:58:12,729][INFO] any info message - [id:10][instance:7] - [COMP-1][file-5.c][function-13][ln:194]
[2019-04-04 22:58:14,230][INFO] any info message - [id:10][instance:1] - [COMP-10][file-2.c][function-11][ln:267]
[2019-04-04 22:58:15,731][INFO] any info message - [id:10][instance:4] - [COMP-1][file-5.c][function-8][ln:471]
[2019-04-04 22:58:17,233][INFO] any info message - [id:10][instance:5] - [COMP-12][file-1.c][function-2][ln:10]
[2019-04-04 22:58:18,735][INFO] any info message - [id:10][instance:1] - [COMP-1][file-12.c][function-5][ln:89]
[2019-04-04 22:58:20,235][INFO] any info message - [id:10][instance:5] - [COMP-4][file-11.c][function-11][ln:225]
[2019-04-04 22:58:21,736][INFO] any info message - [id:10][instance:1] - [COMP-12][file-10.c][function-3][ln:861]
[2019-04-04 22:58:22,081][WARNING] Here is a warning message - [id:10][instance:7] - [COMP-11][file-8.c][function-2][ln:849]
[2019-04-04 22:58:22,289][DEBUG] any debug message - [id:10][instance:2] - [COMP-7][file-3.c][function-9][ln:818]
[2019-04-04 22:58:23,237][INFO] any info message - [id:10][instance:2] - [COMP-2][file-7.c][function-6][ln:449]
[2019-04-04 22:58:24,739][INFO] any info message - [id:10][instance:3] - [COMP-11][file-5.c][function-1][ln:495]
[2019-04-04 22:58:26,240][INFO] any info message - [id:10][instance:4] - [COMP-4][file-13.c][function-12][ln:540]
[2019-04-04 22:58:27,741][INFO] any info message - [id:10][instance:2] - [COMP-1][file-9.c][function-6][ln:220]
[2019-04-04 22:58:29,243][INFO] any info message - [id:10][instance:3] - [COMP-8][file-11.c][function-13][ln:982]
[2019-04-04 22:58:30,743][INFO] any info message - [id:10][instance:2] - [COMP-7][file-9.c][function-2][ln:748]
[2019-04-04 22:58:32,244][INFO] any info message - [id:10][instance:6] - [COMP-3][file-4.c][function-1][ln:906]
[2019-04-04 22:58:33,746][INFO] any info message - [id:10][instance:7] - [COMP-13][file-12.c][function-4][ln:428]
[2019-04-04 22:58:35,246][INFO] any info message - [id:10][instance:2] - [COMP-6][file-3.c][function-11][ln:847]
[2019-04-04 22:58:36,747][INFO] any info message - [id:10][instance:2] - [COMP-1][file-8.c][function-2][ln:92]
[2019-04-04 22:58:37,291][DEBUG] any debug message - [id:10][instance:4] - [COMP-11][file-8.c][function-6][ln:597]
[2019-04-04 22:58:38,249][INFO] any info message - [id:10][instance:7] - [COMP-12][file-3.c][function-1][ln:21]
[2019-04-04 22:58:39,749][INFO] any info message - [id:10][instance:3] - [COMP-7][file-1.c][function-10][ln:934]
[2019-04-04 22:58:41,251][INFO] any info message - [id:10][instance:4] - [COMP-8][file-12.c][function-1][ln:145]
[2019-04-04 22:58:42,752][INFO] any info message - [id:10][instance:6] - [COMP-9][file-7.c][function-7][ln:780]
[2019-04-04 22:58:44,254][INFO] any info message - [id:10][instance:6] - [COMP-5][file-11.c][function-1][ln:525]
[2019-04-04 22:58:45,754][INFO] any info message - [id:10][instance:1] - [COMP-7][file-6.c][function-9][ln:89]
[2019-04-04 22:58:47,256][INFO] any info message - [id:10][instance:2] - [COMP-12][file-2.c][function-8][ln:937]
