[2019-04-04 23:40:14,045][INFO] any info message - [id:10][instance:5] - [COMP-11][file-12.c][function-12][ln:237]
[2019-04-04 23:40:15,546][INFO] any info message - [id:10][instance:1] - [COMP-2][file-6.c][function-12][ln:934]
[2019-04-04 23:40:17,046][INFO] any info message - [id:10][instance:5] - [COMP-7][file-11.c][function-7][ln:166]
[2019-04-04 23:40:18,547][INFO] any info message - [id:10][instance:5] - [COMP-9][file-4.c][function-9][ln:28]
[2019-04-04 23:40:20,048][INFO] any info message - [id:10][instance:3] - [COMP-5][file-9.c][function-2][ln:911]
[2019-04-04 23:40:21,548][INFO] any info message - [id:10][instance:5] - [COMP-10][file-9.c][function-2][ln:342]
[2019-04-04 23:40:23,049][INFO] any info message - [id:10][instance:7] - [COMP-6][file-12.c][function-5][ln:721]
[2019-04-04 23:40:23,828][DEBUG] any debug message - [id:10][instance:5] - [COMP-7][file-11.c][function-10][ln:37]
[2019-04-04 23:40:24,549][INFO] any info message - [id:10][instance:6] - [COMP-13][file-5.c][function-13][ln:242]
[2019-04-04 23:40:26,050][INFO] any info message - [id:10][instance:4] - [COMP-2][file-7.c][function-4][ln:806]
[2019-04-04 23:40:27,551][INFO] any info message - [id:10][instance:6] - [COMP-3][file-4.c][function-1][ln:473]
[2019-04-04 23:40:29,051][INFO] any info message - [id:10][instance:1] - [COMP-3][file-8.c][function-11][ln:993]
[2019-04-04 23:40:30,552][INFO] any info message - [id:10][instance:7] - [COMP-2][file-7.c][function-3][ln:621]
[2019-04-04 23:40:32,052][INFO] any info message - [id:10][instance:7] - [COMP-9][file-9.c][function-13][ln:108]
[2019-04-04 23:40:33,552][INFO] any info message - [id:10][instance:7] - [COMP-9][file-9.c][function-10][ln:407]
[2019-04-04 23:40:35,052][INFO] any info message - [id:10][instance:3] - [COMP-3][file-8.c][function-4][ln:243]
[2019-04-04 23:40:36,553][INFO] any info message - [id:10][instance:3] - [COMP-6][file-5.c][function-9][ln:278]
[2019-04-04 23:40:38,053][INFO] any info message - [id:10][instance:2] - [COMP-10][file-8.c][function-3][ln:818]
[2019-04-04 23:40:38,774][CRITICAL] ATTENTION: This is a critical issue! - [id:10][instance:6] - [COMP-10][file-7.c][function-7][ln:840]
[2019-04-04 23:40:38,781][ERROR] It is an error message - [id:10][instance:2] - [COMP-3][file-8.c][function-11][ln:246]
[2019-04-04 23:40:38,794][WARNING] Here is a warning message - [id:10][instance:2] - [COMP-6][file-4.c][function-7][ln:875]
[2019-04-04 23:40:38,828][DEBUG] any debug message - [id:10][instance:4] - [COMP-9][file-12.c][function-9][ln:820]
[2019-04-04 23:40:39,554][INFO] any info message - [id:10][instance:4] - [COMP-2][file-4.c][function-1][ln:399]
[2019-04-04 23:40:41,055][INFO] any info message - [id:10][instance:7] - [COMP-9][file-8.c][function-8][ln:738]
[2019-04-04 23:40:42,556][INFO] any info message - [id:10][instance:7] - [COMP-2][file-5.c][function-10][ln:550]
[2019-04-04 23:40:44,056][INFO] any info message - [id:10][instance:3] - [COMP-3][file-9.c][function-1][ln:397]
[2019-04-04 23:40:45,557][INFO] any info message - [id:10][instance:5] - [COMP-8][file-12.c][function-9][ln:425]
[2019-04-04 23:40:47,057][INFO] any info message - [id:10][instance:4] - [COMP-12][file-10.c][function-10][ln:947]
[2019-04-04 23:40:48,557][INFO] any info message - [id:10][instance:1] - [COMP-5][file-4.c][function-3][ln:324]
[2019-04-04 23:40:50,058][INFO] any info message - [id:10][instance:2] - [COMP-12][file-5.c][function-12][ln:203]
[2019-04-04 23:40:51,560][INFO] any info message - [id:10][instance:6] - [COMP-10][file-3.c][function-3][ln:820]
[2019-04-04 23:40:53,061][INFO] any info message - [id:10][instance:5] - [COMP-11][file-2.c][function-4][ln:67]
[2019-04-04 23:40:53,828][DEBUG] any debug message - [id:10][instance:1] - [COMP-3][file-8.c][function-1][ln:252]
[2019-04-04 23:40:54,563][INFO] any info message - [id:10][instance:2] - [COMP-7][file-8.c][function-7][ln:147]
[2019-04-04 23:40:56,062][INFO] any info message - [id:10][instance:1] - [COMP-6][file-3.c][function-12][ln:846]
[2019-04-04 23:40:57,562][INFO] any info message - [id:10][instance:7] - [COMP-10][file-1.c][function-5][ln:865]
[2019-04-04 23:40:59,064][INFO] any info message - [id:10][instance:2] - [COMP-2][file-5.c][function-11][ln:487]
[2019-04-04 23:41:00,565][INFO] any info message - [id:10][instance:6] - [COMP-4][file-2.c][function-6][ln:753]
[2019-04-04 23:41:02,071][INFO] any info message - [id:10][instance:1] - [COMP-3][file-6.c][function-9][ln:499]
[2019-04-04 23:41:03,571][INFO] any info message - [id:10][instance:1] - [COMP-2][file-2.c][function-3][ln:668]
[2019-04-04 23:41:05,071][INFO] any info message - [id:10][instance:2] - [COMP-10][file-10.c][function-8][ln:592]
[2019-04-04 23:41:06,572][INFO] any info message - [id:10][instance:2] - [COMP-4][file-6.c][function-4][ln:690]
[2019-04-04 23:41:08,073][INFO] any info message - [id:10][instance:4] - [COMP-6][file-4.c][function-2][ln:99]
[2019-04-04 23:41:08,794][WARNING] Here is a warning message - [id:10][instance:4] - [COMP-1][file-8.c][function-10][ln:376]
[2019-04-04 23:41:08,828][DEBUG] any debug message - [id:10][instance:6] - [COMP-3][file-2.c][function-9][ln:339]
[2019-04-04 23:41:09,574][INFO] any info message - [id:10][instance:4] - [COMP-3][file-7.c][function-9][ln:738]
[2019-04-04 23:41:11,074][INFO] any info message - [id:10][instance:5] - [COMP-8][file-3.c][function-7][ln:31]
[2019-04-04 23:41:12,574][INFO] any info message - [id:10][instance:2] - [COMP-8][file-10.c][function-12][ln:856]
[2019-04-04 23:41:14,075][INFO] any info message - [id:10][instance:2] - [COMP-4][file-3.c][function-5][ln:310]
[2019-04-04 23:41:15,575][INFO] any info message - [id:10][instance:3] - [COMP-12][file-13.c][function-8][ln:842]
[2019-04-04 23:41:17,075][INFO] any info message - [id:10][instance:7] - [COMP-13][file-4.c][function-12][ln:353]
[2019-04-04 23:41:18,576][INFO] any info message - [id:10][instance:7] - [COMP-12][file-1.c][function-9][ln:777]
[2019-04-04 23:41:20,076][INFO] any info message - [id:10][instance:2] - [COMP-11][file-11.c][function-5][ln:902]
[2019-04-04 23:41:21,576][INFO] any info message - [id:10][instance:5] - [COMP-5][file-3.c][function-1][ln:268]
[2019-04-04 23:41:23,078][INFO] any info message - [id:10][instance:7] - [COMP-3][file-11.c][function-12][ln:307]
[2019-04-04 23:41:23,829][DEBUG] any debug message - [id:10][instance:5] - [COMP-10][file-8.c][function-1][ln:751]
[2019-04-04 23:41:24,580][INFO] any info message - [id:10][instance:2] - [COMP-1][file-11.c][function-6][ln:785]
[2019-04-04 23:41:26,080][INFO] any info message - [id:10][instance:7] - [COMP-12][file-4.c][function-13][ln:721]
[2019-04-04 23:41:27,581][INFO] any info message - [id:10][instance:4] - [COMP-4][file-3.c][function-7][ln:967]
[2019-04-04 23:41:29,083][INFO] any info message - [id:10][instance:1] - [COMP-13][file-6.c][function-8][ln:501]
[2019-04-04 23:41:30,584][INFO] any info message - [id:10][instance:3] - [COMP-3][file-4.c][function-5][ln:578]
[2019-04-04 23:41:32,085][INFO] any info message - [id:10][instance:6] - [COMP-5][file-9.c][function-6][ln:998]
[2019-04-04 23:41:33,585][INFO] any info message - [id:10][instance:6] - [COMP-12][file-11.c][function-6][ln:892]
[2019-04-04 23:41:35,086][INFO] any info message - [id:10][instance:5] - [COMP-1][file-3.c][function-3][ln:27]
[2019-04-04 23:41:36,586][INFO] any info message - [id:10][instance:5] - [COMP-12][file-13.c][function-4][ln:570]
[2019-04-04 23:41:38,087][INFO] any info message - [id:10][instance:7] - [COMP-12][file-6.c][function-8][ln:89]
[2019-04-04 23:41:38,793][ERROR] It is an error message - [id:10][instance:1] - [COMP-6][file-13.c][function-13][ln:836]
[2019-04-04 23:41:38,797][WARNING] Here is a warning message - [id:10][instance:6] - [COMP-1][file-4.c][function-9][ln:699]
[2019-04-04 23:41:38,830][DEBUG] any debug message - [id:10][instance:6] - [COMP-9][file-1.c][function-11][ln:356]
[2019-04-04 23:41:39,588][INFO] any info message - [id:10][instance:1] - [COMP-10][file-4.c][function-3][ln:715]
[2019-04-04 23:41:41,089][INFO] any info message - [id:10][instance:7] - [COMP-4][file-12.c][function-1][ln:555]
[2019-04-04 23:41:42,589][INFO] any info message - [id:10][instance:6] - [COMP-10][file-6.c][function-12][ln:431]
[2019-04-04 23:41:44,090][INFO] any info message - [id:10][instance:7] - [COMP-9][file-13.c][function-4][ln:243]
[2019-04-04 23:41:45,590][INFO] any info message - [id:10][instance:1] - [COMP-1][file-12.c][function-2][ln:535]
[2019-04-04 23:41:47,091][INFO] any info message - [id:10][instance:6] - [COMP-3][file-6.c][function-12][ln:61]
[2019-04-04 23:41:48,592][INFO] any info message - [id:10][instance:3] - [COMP-11][file-4.c][function-13][ln:847]
[2019-04-04 23:41:50,093][INFO] any info message - [id:10][instance:7] - [COMP-11][file-1.c][function-10][ln:521]
[2019-04-04 23:41:51,593][INFO] any info message - [id:10][instance:2] - [COMP-6][file-5.c][function-5][ln:779]
[2019-04-04 23:41:53,094][INFO] any info message - [id:10][instance:3] - [COMP-10][file-1.c][function-10][ln:728]
[2019-04-04 23:41:53,830][DEBUG] any debug message - [id:10][instance:5] - [COMP-1][file-6.c][function-9][ln:820]
[2019-04-04 23:41:54,596][INFO] any info message - [id:10][instance:5] - [COMP-1][file-10.c][function-4][ln:634]
[2019-04-04 23:41:56,097][INFO] any info message - [id:10][instance:2] - [COMP-6][file-6.c][function-8][ln:2]
[2019-04-04 23:41:57,598][INFO] any info message - [id:10][instance:3] - [COMP-9][file-4.c][function-12][ln:565]
[2019-04-04 23:41:59,098][INFO] any info message - [id:10][instance:4] - [COMP-10][file-12.c][function-3][ln:314]
[2019-04-04 23:42:00,599][INFO] any info message - [id:10][instance:2] - [COMP-3][file-11.c][function-7][ln:989]
[2019-04-04 23:42:02,100][INFO] any info message - [id:10][instance:7] - [COMP-5][file-9.c][function-7][ln:785]
[2019-04-04 23:42:03,600][INFO] any info message - [id:10][instance:6] - [COMP-10][file-3.c][function-6][ln:912]
[2019-04-04 23:42:05,102][INFO] any info message - [id:10][instance:1] - [COMP-7][file-10.c][function-2][ln:397]
[2019-04-04 23:42:06,602][INFO] any info message - [id:10][instance:5] - [COMP-11][file-8.c][function-2][ln:781]
[2019-04-04 23:42:08,102][INFO] any info message - [id:10][instance:1] - [COMP-2][file-10.c][function-10][ln:796]
[2019-04-04 23:42:08,798][WARNING] Here is a warning message - [id:10][instance:2] - [COMP-13][file-5.c][function-2][ln:354]
[2019-04-04 23:42:08,831][DEBUG] any debug message - [id:10][instance:4] - [COMP-13][file-1.c][function-9][ln:282]
[2019-04-04 23:42:09,603][INFO] any info message - [id:10][instance:4] - [COMP-1][file-8.c][function-11][ln:215]
[2019-04-04 23:42:11,103][INFO] any info message - [id:10][instance:3] - [COMP-7][file-10.c][function-11][ln:863]
[2019-04-04 23:42:12,603][INFO] any info message - [id:10][instance:7] - [COMP-1][file-12.c][function-1][ln:13]
[2019-04-04 23:42:14,103][INFO] any info message - [id:10][instance:3] - [COMP-12][file-2.c][function-8][ln:883]
[2019-04-04 23:42:15,606][INFO] any info message - [id:10][instance:3] - [COMP-4][file-2.c][function-7][ln:156]
[2019-04-04 23:42:17,108][INFO] any info message - [id:10][instance:6] - [COMP-11][file-2.c][function-4][ln:69]
[2019-04-04 23:42:18,608][INFO] any info message - [id:10][instance:3] - [COMP-7][file-10.c][function-10][ln:652]
[2019-04-04 23:42:20,110][INFO] any info message - [id:10][instance:7] - [COMP-3][file-13.c][function-5][ln:54]
[2019-04-04 23:42:21,609][INFO] any info message - [id:10][instance:1] - [COMP-2][file-6.c][function-2][ln:830]
[2019-04-04 23:42:23,110][INFO] any info message - [id:10][instance:6] - [COMP-3][file-10.c][function-9][ln:783]
[2019-04-04 23:42:23,831][DEBUG] any debug message - [id:10][instance:4] - [COMP-10][file-13.c][function-6][ln:758]
[2019-04-04 23:42:24,611][INFO] any info message - [id:10][instance:4] - [COMP-10][file-3.c][function-11][ln:275]
[2019-04-04 23:42:26,111][INFO] any info message - [id:10][instance:7] - [COMP-9][file-13.c][function-3][ln:534]
[2019-04-04 23:42:27,614][INFO] any info message - [id:10][instance:5] - [COMP-3][file-10.c][function-6][ln:787]
[2019-04-04 23:42:29,114][INFO] any info message - [id:10][instance:7] - [COMP-10][file-7.c][function-10][ln:775]
[2019-04-04 23:42:30,614][INFO] any info message - [id:10][instance:6] - [COMP-7][file-4.c][function-8][ln:625]
[2019-04-04 23:42:32,114][INFO] any info message - [id:10][instance:3] - [COMP-13][file-9.c][function-1][ln:111]
[2019-04-04 23:42:33,614][INFO] any info message - [id:10][instance:5] - [COMP-7][file-13.c][function-12][ln:770]
[2019-04-04 23:42:35,115][INFO] any info message - [id:10][instance:6] - [COMP-11][file-2.c][function-12][ln:494]
[2019-04-04 23:42:36,616][INFO] any info message - [id:10][instance:6] - [COMP-6][file-10.c][function-2][ln:343]
[2019-04-04 23:42:38,117][INFO] any info message - [id:10][instance:7] - [COMP-8][file-10.c][function-10][ln:201]
[2019-04-04 23:42:38,775][CRITICAL] ATTENTION: This is a critical issue! - [id:10][instance:6] - [COMP-5][file-10.c][function-10][ln:666]
[2019-04-04 23:42:38,795][ERROR] It is an error message - [id:10][instance:6] - [COMP-9][file-3.c][function-12][ln:265]
[2019-04-04 23:42:38,799][WARNING] Here is a warning message - [id:10][instance:6] - [COMP-1][file-10.c][function-5][ln:844]
[2019-04-04 23:42:38,832][DEBUG] any debug message - [id:10][instance:4] - [COMP-6][file-3.c][function-8][ln:805]
[2019-04-04 23:42:39,618][INFO] any info message - [id:10][instance:4] - [COMP-12][file-1.c][function-12][ln:82]
[2019-04-04 23:42:41,118][INFO] any info message - [id:10][instance:7] - [COMP-10][file-11.c][function-13][ln:874]
[2019-04-04 23:42:42,618][INFO] any info message - [id:10][instance:5] - [COMP-10][file-5.c][function-5][ln:762]
[2019-04-04 23:42:44,119][INFO] any info message - [id:10][instance:1] - [COMP-10][file-13.c][function-2][ln:47]
[2019-04-04 23:42:45,620][INFO] any info message - [id:10][instance:2] - [COMP-3][file-7.c][function-4][ln:395]
[2019-04-04 23:42:47,121][INFO] any info message - [id:10][instance:3] - [COMP-5][file-4.c][function-8][ln:884]
[2019-04-04 23:42:48,621][INFO] any info message - [id:10][instance:6] - [COMP-1][file-3.c][function-8][ln:37]
[2019-04-04 23:42:50,122][INFO] any info message - [id:10][instance:1] - [COMP-13][file-11.c][function-4][ln:541]
[2019-04-04 23:42:51,622][INFO] any info message - [id:10][instance:4] - [COMP-10][file-10.c][function-8][ln:502]
[2019-04-04 23:42:53,123][INFO] any info message - [id:10][instance:7] - [COMP-9][file-10.c][function-1][ln:884]
[2019-04-04 23:42:53,832][DEBUG] any debug message - [id:10][instance:1] - [COMP-9][file-8.c][function-9][ln:822]
[2019-04-04 23:42:54,623][INFO] any info message - [id:10][instance:2] - [COMP-4][file-7.c][function-10][ln:819]
[2019-04-04 23:42:56,124][INFO] any info message - [id:10][instance:1] - [COMP-1][file-1.c][function-8][ln:458]
[2019-04-04 23:42:57,624][INFO] any info message - [id:10][instance:5] - [COMP-11][file-13.c][function-8][ln:258]
[2019-04-04 23:42:59,124][INFO] any info message - [id:10][instance:5] - [COMP-6][file-8.c][function-5][ln:697]
[2019-04-04 23:43:00,624][INFO] any info message - [id:10][instance:2] - [COMP-12][file-1.c][function-9][ln:816]
[2019-04-04 23:43:02,125][INFO] any info message - [id:10][instance:3] - [COMP-10][file-12.c][function-11][ln:86]
[2019-04-04 23:43:03,625][INFO] any info message - [id:10][instance:6] - [COMP-11][file-7.c][function-5][ln:107]
[2019-04-04 23:43:05,126][INFO] any info message - [id:10][instance:3] - [COMP-6][file-6.c][function-2][ln:14]
[2019-04-04 23:43:06,626][INFO] any info message - [id:10][instance:6] - [COMP-4][file-4.c][function-13][ln:655]
[2019-04-04 23:43:08,126][INFO] any info message - [id:10][instance:1] - [COMP-10][file-4.c][function-13][ln:856]
[2019-04-04 23:43:08,800][WARNING] Here is a warning message - [id:10][instance:1] - [COMP-8][file-3.c][function-7][ln:347]
[2019-04-04 23:43:08,833][DEBUG] any debug message - [id:10][instance:7] - [COMP-3][file-9.c][function-5][ln:844]
[2019-04-04 23:43:09,626][INFO] any info message - [id:10][instance:6] - [COMP-1][file-10.c][function-11][ln:399]
[2019-04-04 23:43:11,127][INFO] any info message - [id:10][instance:5] - [COMP-7][file-7.c][function-11][ln:314]
[2019-04-04 23:43:12,627][INFO] any info message - [id:10][instance:2] - [COMP-7][file-6.c][function-3][ln:564]
[2019-04-04 23:43:14,128][INFO] any info message - [id:10][instance:7] - [COMP-11][file-8.c][function-10][ln:812]
[2019-04-04 23:43:15,629][INFO] any info message - [id:10][instance:2] - [COMP-11][file-8.c][function-5][ln:451]
[2019-04-04 23:43:17,129][INFO] any info message - [id:10][instance:1] - [COMP-6][file-1.c][function-4][ln:268]
[2019-04-04 23:43:18,630][INFO] any info message - [id:10][instance:5] - [COMP-2][file-9.c][function-12][ln:620]
[2019-04-04 23:43:20,130][INFO] any info message - [id:10][instance:6] - [COMP-8][file-12.c][function-11][ln:279]
[2019-04-04 23:43:21,631][INFO] any info message - [id:10][instance:7] - [COMP-5][file-11.c][function-3][ln:386]
[2019-04-04 23:43:23,131][INFO] any info message - [id:10][instance:1] - [COMP-10][file-7.c][function-12][ln:365]
[2019-04-04 23:43:23,833][DEBUG] any debug message - [id:10][instance:7] - [COMP-7][file-4.c][function-4][ln:426]
[2019-04-04 23:43:24,632][INFO] any info message - [id:10][instance:7] - [COMP-7][file-13.c][function-8][ln:229]
[2019-04-04 23:43:26,133][INFO] any info message - [id:10][instance:1] - [COMP-13][file-11.c][function-13][ln:422]
[2019-04-04 23:43:27,633][INFO] any info message - [id:10][instance:3] - [COMP-12][file-9.c][function-11][ln:525]
[2019-04-04 23:43:29,134][INFO] any info message - [id:10][instance:4] - [COMP-5][file-1.c][function-8][ln:100]
[2019-04-04 23:43:30,634][INFO] any info message - [id:10][instance:5] - [COMP-9][file-8.c][function-7][ln:220]
[2019-04-04 23:43:32,135][INFO] any info message - [id:10][instance:6] - [COMP-1][file-2.c][function-12][ln:557]
[2019-04-04 23:43:33,636][INFO] any info message - [id:10][instance:4] - [COMP-6][file-7.c][function-3][ln:948]
[2019-04-04 23:43:35,136][INFO] any info message - [id:10][instance:2] - [COMP-1][file-9.c][function-13][ln:830]
[2019-04-04 23:43:36,636][INFO] any info message - [id:10][instance:5] - [COMP-7][file-2.c][function-2][ln:271]
[2019-04-04 23:43:38,136][INFO] any info message - [id:10][instance:3] - [COMP-4][file-9.c][function-3][ln:838]
[2019-04-04 23:43:38,795][ERROR] It is an error message - [id:10][instance:7] - [COMP-12][file-10.c][function-11][ln:700]
[2019-04-04 23:43:38,800][WARNING] Here is a warning message - [id:10][instance:6] - [COMP-9][file-7.c][function-8][ln:763]
[2019-04-04 23:43:38,834][DEBUG] any debug message - [id:10][instance:1] - [COMP-1][file-8.c][function-5][ln:35]
[2019-04-04 23:43:39,637][INFO] any info message - [id:10][instance:7] - [COMP-5][file-3.c][function-7][ln:783]
[2019-04-04 23:43:41,137][INFO] any info message - [id:10][instance:5] - [COMP-8][file-4.c][function-4][ln:955]
[2019-04-04 23:43:42,638][INFO] any info message - [id:10][instance:2] - [COMP-12][file-7.c][function-8][ln:603]
[2019-04-04 23:43:44,140][INFO] any info message - [id:10][instance:3] - [COMP-6][file-8.c][function-13][ln:562]
[2019-04-04 23:43:45,640][INFO] any info message - [id:10][instance:2] - [COMP-4][file-12.c][function-3][ln:564]
[2019-04-04 23:43:47,141][INFO] any info message - [id:10][instance:6] - [COMP-6][file-9.c][function-4][ln:354]
[2019-04-04 23:43:48,642][INFO] any info message - [id:10][instance:7] - [COMP-12][file-13.c][function-7][ln:652]
[2019-04-04 23:43:50,142][INFO] any info message - [id:10][instance:4] - [COMP-2][file-9.c][function-5][ln:54]
[2019-04-04 23:43:51,643][INFO] any info message - [id:10][instance:2] - [COMP-4][file-4.c][function-3][ln:345]
[2019-04-04 23:43:53,143][INFO] any info message - [id:10][instance:5] - [COMP-3][file-8.c][function-11][ln:612]
[2019-04-04 23:43:53,835][DEBUG] any debug message - [id:10][instance:6] - [COMP-1][file-12.c][function-3][ln:37]
[2019-04-04 23:43:54,645][INFO] any info message - [id:10][instance:7] - [COMP-13][file-1.c][function-7][ln:984]
[2019-04-04 23:43:56,145][INFO] any info message - [id:10][instance:6] - [COMP-5][file-13.c][function-13][ln:636]
[2019-04-04 23:43:57,645][INFO] any info message - [id:10][instance:5] - [COMP-11][file-6.c][function-5][ln:991]
[2019-04-04 23:43:59,146][INFO] any info message - [id:10][instance:4] - [COMP-6][file-5.c][function-10][ln:422]
[2019-04-04 23:44:00,647][INFO] any info message - [id:10][instance:6] - [COMP-2][file-3.c][function-12][ln:368]
[2019-04-04 23:44:02,147][INFO] any info message - [id:10][instance:7] - [COMP-11][file-8.c][function-6][ln:215]
[2019-04-04 23:44:03,648][INFO] any info message - [id:10][instance:6] - [COMP-7][file-7.c][function-1][ln:898]
[2019-04-04 23:44:05,148][INFO] any info message - [id:10][instance:6] - [COMP-1][file-12.c][function-9][ln:101]
[2019-04-04 23:44:06,648][INFO] any info message - [id:10][instance:3] - [COMP-5][file-3.c][function-5][ln:914]
[2019-04-04 23:44:08,149][INFO] any info message - [id:10][instance:3] - [COMP-8][file-11.c][function-13][ln:861]
[2019-04-04 23:44:08,800][WARNING] Here is a warning message - [id:10][instance:3] - [COMP-11][file-10.c][function-1][ln:262]
[2019-04-04 23:44:08,836][DEBUG] any debug message - [id:10][instance:5] - [COMP-10][file-7.c][function-3][ln:762]
[2019-04-04 23:44:09,650][INFO] any info message - [id:10][instance:2] - [COMP-2][file-5.c][function-3][ln:351]
[2019-04-04 23:44:11,150][INFO] any info message - [id:10][instance:7] - [COMP-5][file-3.c][function-1][ln:202]
[2019-04-04 23:44:12,650][INFO] any info message - [id:10][instance:6] - [COMP-8][file-12.c][function-12][ln:291]
[2019-04-04 23:44:14,151][INFO] any info message - [id:10][instance:6] - [COMP-9][file-13.c][function-6][ln:57]
[2019-04-04 23:44:15,652][INFO] any info message - [id:10][instance:3] - [COMP-8][file-7.c][function-1][ln:579]
[2019-04-04 23:44:17,153][INFO] any info message - [id:10][instance:3] - [COMP-3][file-3.c][function-5][ln:946]
[2019-04-04 23:44:18,653][INFO] any info message - [id:10][instance:6] - [COMP-12][file-4.c][function-13][ln:476]
[2019-04-04 23:44:20,154][INFO] any info message - [id:10][instance:5] - [COMP-3][file-7.c][function-12][ln:837]
[2019-04-04 23:44:21,654][INFO] any info message - [id:10][instance:5] - [COMP-13][file-2.c][function-13][ln:966]
[2019-04-04 23:44:23,155][INFO] any info message - [id:10][instance:2] - [COMP-2][file-9.c][function-12][ln:234]
[2019-04-04 23:44:23,836][DEBUG] any debug message - [id:10][instance:5] - [COMP-9][file-2.c][function-5][ln:530]
[2019-04-04 23:44:24,655][INFO] any info message - [id:10][instance:5] - [COMP-6][file-11.c][function-2][ln:640]
[2019-04-04 23:44:26,156][INFO] any info message - [id:10][instance:5] - [COMP-3][file-11.c][function-11][ln:938]
[2019-04-04 23:44:27,719][INFO] any info message - [id:10][instance:1] - [COMP-7][file-4.c][function-1][ln:569]
[2019-04-04 23:44:29,219][INFO] any info message - [id:10][instance:4] - [COMP-4][file-11.c][function-1][ln:609]
[2019-04-04 23:44:30,720][INFO] any info message - [id:10][instance:3] - [COMP-3][file-7.c][function-7][ln:542]
[2019-04-04 23:44:32,221][INFO] any info message - [id:10][instance:1] - [COMP-8][file-7.c][function-12][ln:770]
[2019-04-04 23:44:33,722][INFO] any info message - [id:10][instance:6] - [COMP-3][file-2.c][function-13][ln:682]
[2019-04-04 23:44:35,223][INFO] any info message - [id:10][instance:2] - [COMP-1][file-1.c][function-1][ln:780]
[2019-04-04 23:44:36,723][INFO] any info message - [id:10][instance:7] - [COMP-1][file-3.c][function-2][ln:745]
[2019-04-04 23:44:38,224][INFO] any info message - [id:10][instance:4] - [COMP-9][file-13.c][function-11][ln:442]
[2019-04-04 23:44:38,776][CRITICAL] ATTENTION: This is a critical issue! - [id:10][instance:5] - [COMP-12][file-13.c][function-12][ln:852]
[2019-04-04 23:44:38,796][ERROR] It is an error message - [id:10][instance:5] - [COMP-10][file-13.c][function-12][ln:671]
[2019-04-04 23:44:38,800][WARNING] Here is a warning message - [id:10][instance:1] - [COMP-4][file-12.c][function-7][ln:279]
[2019-04-04 23:44:38,837][DEBUG] any debug message - [id:10][instance:4] - [COMP-5][file-7.c][function-4][ln:214]
[2019-04-04 23:44:39,724][INFO] any info message - [id:10][instance:4] - [COMP-6][file-10.c][function-6][ln:916]
[2019-04-04 23:44:41,226][INFO] any info message - [id:10][instance:7] - [COMP-12][file-3.c][function-2][ln:339]
[2019-04-04 23:44:42,725][INFO] any info message - [id:10][instance:5] - [COMP-2][file-8.c][function-11][ln:114]
[2019-04-04 23:44:44,226][INFO] any info message - [id:10][instance:6] - [COMP-10][file-3.c][function-11][ln:598]
[2019-04-04 23:44:45,726][INFO] any info message - [id:10][instance:5] - [COMP-3][file-5.c][function-5][ln:11]
[2019-04-04 23:44:47,227][INFO] any info message - [id:10][instance:1] - [COMP-6][file-2.c][function-8][ln:106]
[2019-04-04 23:44:48,728][INFO] any info message - [id:10][instance:4] - [COMP-12][file-2.c][function-2][ln:34]
[2019-04-04 23:44:50,228][INFO] any info message - [id:10][instance:7] - [COMP-9][file-10.c][function-13][ln:867]
[2019-04-04 23:44:51,731][INFO] any info message - [id:10][instance:3] - [COMP-9][file-4.c][function-7][ln:127]
[2019-04-04 23:44:53,232][INFO] any info message - [id:10][instance:2] - [COMP-4][file-3.c][function-7][ln:874]
[2019-04-04 23:44:53,838][DEBUG] any debug message - [id:10][instance:2] - [COMP-13][file-8.c][function-4][ln:271]
[2019-04-04 23:44:54,732][INFO] any info message - [id:10][instance:7] - [COMP-8][file-10.c][function-2][ln:63]
[2019-04-04 23:44:56,233][INFO] any info message - [id:10][instance:6] - [COMP-8][file-7.c][function-11][ln:821]
[2019-04-04 23:44:57,733][INFO] any info message - [id:10][instance:3] - [COMP-5][file-13.c][function-3][ln:240]
[2019-04-04 23:44:59,235][INFO] any info message - [id:10][instance:3] - [COMP-8][file-12.c][function-9][ln:367]
[2019-04-04 23:45:00,734][INFO] any info message - [id:10][instance:2] - [COMP-7][file-3.c][function-5][ln:848]
[2019-04-04 23:45:02,235][INFO] any info message - [id:10][instance:4] - [COMP-9][file-13.c][function-12][ln:352]
[2019-04-04 23:45:03,736][INFO] any info message - [id:10][instance:1] - [COMP-2][file-4.c][function-12][ln:162]
[2019-04-04 23:45:05,236][INFO] any info message - [id:10][instance:6] - [COMP-9][file-12.c][function-2][ln:870]
[2019-04-04 23:45:06,737][INFO] any info message - [id:10][instance:2] - [COMP-9][file-1.c][function-3][ln:34]
[2019-04-04 23:45:08,238][INFO] any info message - [id:10][instance:4] - [COMP-3][file-4.c][function-13][ln:20]
[2019-04-04 23:45:08,801][WARNING] Here is a warning message - [id:10][instance:2] - [COMP-9][file-11.c][function-11][ln:670]
[2019-04-04 23:45:08,838][DEBUG] any debug message - [id:10][instance:3] - [COMP-13][file-8.c][function-9][ln:358]
[2019-04-04 23:45:09,738][INFO] any info message - [id:10][instance:4] - [COMP-2][file-7.c][function-11][ln:571]
[2019-04-04 23:45:11,238][INFO] any info message - [id:10][instance:1] - [COMP-8][file-7.c][function-3][ln:674]
[2019-04-04 23:45:12,739][INFO] any info message - [id:10][instance:6] - [COMP-10][file-1.c][function-11][ln:484]
[2019-04-04 23:45:14,239][INFO] any info message - [id:10][instance:4] - [COMP-10][file-12.c][function-12][ln:360]
[2019-04-04 23:45:15,739][INFO] any info message - [id:10][instance:4] - [COMP-12][file-6.c][function-3][ln:30]
[2019-04-04 23:45:17,241][INFO] any info message - [id:10][instance:1] - [COMP-4][file-4.c][function-8][ln:787]
[2019-04-04 23:45:18,742][INFO] any info message - [id:10][instance:4] - [COMP-3][file-1.c][function-8][ln:617]
[2019-04-04 23:45:20,242][INFO] any info message - [id:10][instance:5] - [COMP-1][file-1.c][function-2][ln:538]
[2019-04-04 23:45:21,742][INFO] any info message - [id:10][instance:3] - [COMP-11][file-10.c][function-2][ln:365]
[2019-04-04 23:45:23,243][INFO] any info message - [id:10][instance:2] - [COMP-12][file-2.c][function-4][ln:645]
[2019-04-04 23:45:23,838][DEBUG] any debug message - [id:10][instance:3] - [COMP-6][file-8.c][function-12][ln:575]
[2019-04-04 23:45:24,743][INFO] any info message - [id:10][instance:4] - [COMP-5][file-10.c][function-5][ln:662]
[2019-04-04 23:45:26,243][INFO] any info message - [id:10][instance:2] - [COMP-13][file-13.c][function-2][ln:413]
[2019-04-04 23:45:27,743][INFO] any info message - [id:10][instance:5] - [COMP-10][file-3.c][function-9][ln:571]
[2019-04-04 23:45:29,243][INFO] any info message - [id:10][instance:4] - [COMP-12][file-10.c][function-2][ln:538]
[2019-04-04 23:45:30,744][INFO] any info message - [id:10][instance:4] - [COMP-7][file-2.c][function-10][ln:145]
[2019-04-04 23:45:32,244][INFO] any info message - [id:10][instance:2] - [COMP-7][file-10.c][function-3][ln:361]
[2019-04-04 23:45:33,744][INFO] any info message - [id:10][instance:1] - [COMP-1][file-10.c][function-9][ln:609]
[2019-04-04 23:45:35,245][INFO] any info message - [id:10][instance:7] - [COMP-8][file-4.c][function-11][ln:335]
[2019-04-04 23:45:36,746][INFO] any info message - [id:10][instance:6] - [COMP-13][file-7.c][function-11][ln:224]
[2019-04-04 23:45:38,246][INFO] any info message - [id:10][instance:7] - [COMP-8][file-8.c][function-12][ln:411]
[2019-04-04 23:45:38,796][ERROR] It is an error message - [id:10][instance:1] - [COMP-13][file-9.c][function-6][ln:950]
[2019-04-04 23:45:38,802][WARNING] Here is a warning message - [id:10][instance:4] - [COMP-4][file-13.c][function-8][ln:33]
[2019-04-04 23:45:38,840][DEBUG] any debug message - [id:10][instance:6] - [COMP-2][file-4.c][function-10][ln:689]
[2019-04-04 23:45:39,746][INFO] any info message - [id:10][instance:3] - [COMP-9][file-7.c][function-3][ln:303]
[2019-04-04 23:45:41,246][INFO] any info message - [id:10][instance:3] - [COMP-12][file-11.c][function-2][ln:429]
[2019-04-04 23:45:42,747][INFO] any info message - [id:10][instance:3] - [COMP-2][file-5.c][function-13][ln:960]
[2019-04-04 23:45:44,247][INFO] any info message - [id:10][instance:5] - [COMP-2][file-12.c][function-3][ln:774]
[2019-04-04 23:45:45,748][INFO] any info message - [id:10][instance:7] - [COMP-10][file-10.c][function-7][ln:532]
[2019-04-04 23:45:47,248][INFO] any info message - [id:10][instance:1] - [COMP-7][file-1.c][function-12][ln:834]
[2019-04-04 23:45:48,749][INFO] any info message - [id:10][instance:7] - [COMP-7][file-2.c][function-3][ln:203]
[2019-04-04 23:45:50,249][INFO] any info message - [id:10][instance:1] - [COMP-8][file-5.c][function-1][ln:256]
[2019-04-04 23:45:51,749][INFO] any info message - [id:10][instance:3] - [COMP-12][file-2.c][function-6][ln:872]
[2019-04-04 23:45:53,250][INFO] any info message - [id:10][instance:2] - [COMP-10][file-3.c][function-11][ln:915]
[2019-04-04 23:45:53,840][DEBUG] any debug message - [id:10][instance:1] - [COMP-3][file-6.c][function-6][ln:22]
[2019-04-04 23:45:54,765][INFO] any info message - [id:10][instance:7] - [COMP-9][file-11.c][function-7][ln:682]
[2019-04-04 23:45:56,266][INFO] any info message - [id:10][instance:3] - [COMP-13][file-1.c][function-3][ln:612]
[2019-04-04 23:45:57,768][INFO] any info message - [id:10][instance:7] - [COMP-8][file-11.c][function-12][ln:335]
[2019-04-04 23:45:59,268][INFO] any info message - [id:10][instance:7] - [COMP-5][file-9.c][function-6][ln:668]
[2019-04-04 23:46:00,771][INFO] any info message - [id:10][instance:4] - [COMP-9][file-4.c][function-8][ln:65]
[2019-04-04 23:46:02,271][INFO] any info message - [id:10][instance:3] - [COMP-11][file-2.c][function-7][ln:192]
[2019-04-04 23:46:03,771][INFO] any info message - [id:10][instance:7] - [COMP-7][file-11.c][function-8][ln:80]
[2019-04-04 23:46:05,272][INFO] any info message - [id:10][instance:7] - [COMP-9][file-5.c][function-13][ln:117]
[2019-04-04 23:46:06,773][INFO] any info message - [id:10][instance:2] - [COMP-12][file-11.c][function-2][ln:707]
[2019-04-04 23:46:08,273][INFO] any info message - [id:10][instance:2] - [COMP-1][file-6.c][function-10][ln:986]
[2019-04-04 23:46:08,802][WARNING] Here is a warning message - [id:10][instance:2] - [COMP-1][file-10.c][function-10][ln:176]
[2019-04-04 23:46:08,841][DEBUG] any debug message - [id:10][instance:6] - [COMP-6][file-7.c][function-12][ln:292]
[2019-04-04 23:46:09,774][INFO] any info message - [id:10][instance:3] - [COMP-11][file-9.c][function-5][ln:723]
[2019-04-04 23:46:11,274][INFO] any info message - [id:10][instance:6] - [COMP-13][file-2.c][function-4][ln:243]
[2019-04-04 23:46:12,775][INFO] any info message - [id:10][instance:7] - [COMP-7][file-3.c][function-13][ln:86]
[2019-04-04 23:46:14,275][INFO] any info message - [id:10][instance:4] - [COMP-1][file-13.c][function-8][ln:120]
[2019-04-04 23:46:15,776][INFO] any info message - [id:10][instance:5] - [COMP-8][file-1.c][function-10][ln:475]
[2019-04-04 23:46:17,277][INFO] any info message - [id:10][instance:7] - [COMP-2][file-3.c][function-5][ln:488]
[2019-04-04 23:46:18,777][INFO] any info message - [id:10][instance:6] - [COMP-1][file-5.c][function-11][ln:475]
[2019-04-04 23:46:20,277][INFO] any info message - [id:10][instance:6] - [COMP-3][file-13.c][function-3][ln:756]
[2019-04-04 23:46:21,778][INFO] any info message - [id:10][instance:6] - [COMP-2][file-5.c][function-13][ln:379]
[2019-04-04 23:46:23,278][INFO] any info message - [id:10][instance:6] - [COMP-5][file-1.c][function-6][ln:510]
[2019-04-04 23:46:23,841][DEBUG] any debug message - [id:10][instance:4] - [COMP-13][file-9.c][function-5][ln:262]
[2019-04-04 23:46:24,779][INFO] any info message - [id:10][instance:5] - [COMP-6][file-3.c][function-9][ln:683]
[2019-04-04 23:46:26,280][INFO] any info message - [id:10][instance:3] - [COMP-5][file-13.c][function-5][ln:138]
[2019-04-04 23:46:27,781][INFO] any info message - [id:10][instance:3] - [COMP-7][file-4.c][function-2][ln:344]
[2019-04-04 23:46:29,281][INFO] any info message - [id:10][instance:3] - [COMP-11][file-13.c][function-13][ln:843]
[2019-04-04 23:46:30,782][INFO] any info message - [id:10][instance:5] - [COMP-4][file-3.c][function-1][ln:852]
[2019-04-04 23:46:32,282][INFO] any info message - [id:10][instance:7] - [COMP-1][file-8.c][function-5][ln:24]
[2019-04-04 23:46:33,782][INFO] any info message - [id:10][instance:3] - [COMP-13][file-5.c][function-4][ln:717]
[2019-04-04 23:46:35,283][INFO] any info message - [id:10][instance:6] - [COMP-6][file-7.c][function-8][ln:62]
[2019-04-04 23:46:36,783][INFO] any info message - [id:10][instance:5] - [COMP-3][file-7.c][function-9][ln:339]
[2019-04-04 23:46:38,284][INFO] any info message - [id:10][instance:7] - [COMP-1][file-6.c][function-4][ln:596]
[2019-04-04 23:46:38,777][CRITICAL] ATTENTION: This is a critical issue! - [id:10][instance:3] - [COMP-2][file-2.c][function-10][ln:466]
[2019-04-04 23:46:38,796][ERROR] It is an error message - [id:10][instance:3] - [COMP-11][file-3.c][function-4][ln:360]
[2019-04-04 23:46:38,802][WARNING] Here is a warning message - [id:10][instance:2] - [COMP-2][file-4.c][function-1][ln:307]
[2019-04-04 23:46:38,841][DEBUG] any debug message - [id:10][instance:3] - [COMP-9][file-7.c][function-3][ln:352]
[2019-04-04 23:46:39,784][INFO] any info message - [id:10][instance:3] - [COMP-8][file-6.c][function-1][ln:466]
[2019-04-04 23:46:41,284][INFO] any info message - [id:10][instance:3] - [COMP-10][file-10.c][function-1][ln:928]
[2019-04-04 23:46:42,784][INFO] any info message - [id:10][instance:1] - [COMP-12][file-11.c][function-12][ln:953]
[2019-04-04 23:46:44,285][INFO] any info message - [id:10][instance:2] - [COMP-6][file-11.c][function-9][ln:232]
[2019-04-04 23:46:45,786][INFO] any info message - [id:10][instance:3] - [COMP-10][file-12.c][function-2][ln:221]
[2019-04-04 23:46:47,286][INFO] any info message - [id:10][instance:4] - [COMP-12][file-12.c][function-9][ln:240]
[2019-04-04 23:46:48,787][INFO] any info message - [id:10][instance:5] - [COMP-1][file-12.c][function-4][ln:586]
[2019-04-04 23:46:50,288][INFO] any info message - [id:10][instance:3] - [COMP-3][file-7.c][function-10][ln:105]
[2019-04-04 23:46:51,788][INFO] any info message - [id:10][instance:4] - [COMP-2][file-2.c][function-6][ln:964]
[2019-04-04 23:46:53,288][INFO] any info message - [id:10][instance:6] - [COMP-12][file-2.c][function-7][ln:656]
[2019-04-04 23:46:53,841][DEBUG] any debug message - [id:10][instance:5] - [COMP-13][file-8.c][function-1][ln:353]
[2019-04-04 23:46:54,788][INFO] any info message - [id:10][instance:5] - [COMP-8][file-6.c][function-3][ln:47]
[2019-04-04 23:46:56,289][INFO] any info message - [id:10][instance:6] - [COMP-13][file-1.c][function-1][ln:482]
[2019-04-04 23:46:57,791][INFO] any info message - [id:10][instance:3] - [COMP-11][file-3.c][function-3][ln:556]
[2019-04-04 23:46:59,291][INFO] any info message - [id:10][instance:4] - [COMP-1][file-7.c][function-7][ln:353]
[2019-04-04 23:47:00,792][INFO] any info message - [id:10][instance:1] - [COMP-11][file-9.c][function-11][ln:11]
[2019-04-04 23:47:02,292][INFO] any info message - [id:10][instance:4] - [COMP-10][file-8.c][function-5][ln:477]
[2019-04-04 23:47:03,793][INFO] any info message - [id:10][instance:2] - [COMP-8][file-2.c][function-8][ln:196]
[2019-04-04 23:47:05,293][INFO] any info message - [id:10][instance:1] - [COMP-2][file-1.c][function-5][ln:125]
[2019-04-04 23:47:06,793][INFO] any info message - [id:10][instance:5] - [COMP-5][file-7.c][function-2][ln:219]
[2019-04-04 23:47:08,294][INFO] any info message - [id:10][instance:6] - [COMP-2][file-1.c][function-10][ln:845]
[2019-04-04 23:47:08,802][WARNING] Here is a warning message - [id:10][instance:2] - [COMP-10][file-7.c][function-8][ln:940]
[2019-04-04 23:47:08,842][DEBUG] any debug message - [id:10][instance:4] - [COMP-3][file-5.c][function-10][ln:793]
[2019-04-04 23:47:09,795][INFO] any info message - [id:10][instance:5] - [COMP-6][file-2.c][function-1][ln:672]
[2019-04-04 23:47:11,295][INFO] any info message - [id:10][instance:5] - [COMP-6][file-13.c][function-2][ln:831]
[2019-04-04 23:47:12,796][INFO] any info message - [id:10][instance:2] - [COMP-7][file-8.c][function-7][ln:409]
[2019-04-04 23:47:14,297][INFO] any info message - [id:10][instance:5] - [COMP-12][file-7.c][function-9][ln:236]
[2019-04-04 23:47:15,797][INFO] any info message - [id:10][instance:7] - [COMP-13][file-2.c][function-5][ln:865]
[2019-04-04 23:47:17,298][INFO] any info message - [id:10][instance:2] - [COMP-10][file-4.c][function-8][ln:605]
[2019-04-04 23:47:18,798][INFO] any info message - [id:10][instance:7] - [COMP-8][file-2.c][function-9][ln:628]
[2019-04-04 23:47:20,299][INFO] any info message - [id:10][instance:4] - [COMP-13][file-1.c][function-12][ln:470]
[2019-04-04 23:47:21,799][INFO] any info message - [id:10][instance:2] - [COMP-2][file-7.c][function-7][ln:476]
[2019-04-04 23:47:23,299][INFO] any info message - [id:10][instance:2] - [COMP-3][file-10.c][function-13][ln:310]
[2019-04-04 23:47:23,843][DEBUG] any debug message - [id:10][instance:1] - [COMP-5][file-1.c][function-12][ln:52]
[2019-04-04 23:47:24,800][INFO] any info message - [id:10][instance:7] - [COMP-13][file-12.c][function-8][ln:848]
[2019-04-04 23:47:26,302][INFO] any info message - [id:10][instance:7] - [COMP-4][file-3.c][function-6][ln:407]
[2019-04-04 23:47:27,803][INFO] any info message - [id:10][instance:3] - [COMP-2][file-2.c][function-8][ln:530]
[2019-04-04 23:47:29,303][INFO] any info message - [id:10][instance:3] - [COMP-2][file-11.c][function-11][ln:743]
[2019-04-04 23:47:30,803][INFO] any info message - [id:10][instance:5] - [COMP-13][file-7.c][function-9][ln:895]
[2019-04-04 23:47:32,303][INFO] any info message - [id:10][instance:4] - [COMP-4][file-12.c][function-11][ln:824]
[2019-04-04 23:47:33,804][INFO] any info message - [id:10][instance:4] - [COMP-13][file-7.c][function-13][ln:859]
[2019-04-04 23:47:35,305][INFO] any info message - [id:10][instance:1] - [COMP-12][file-2.c][function-13][ln:295]
[2019-04-04 23:47:36,807][INFO] any info message - [id:10][instance:7] - [COMP-13][file-6.c][function-12][ln:890]
[2019-04-04 23:47:38,307][INFO] any info message - [id:10][instance:7] - [COMP-2][file-7.c][function-1][ln:750]
[2019-04-04 23:47:38,796][ERROR] It is an error message - [id:10][instance:2] - [COMP-12][file-3.c][function-9][ln:546]
[2019-04-04 23:47:38,803][WARNING] Here is a warning message - [id:10][instance:5] - [COMP-10][file-12.c][function-8][ln:235]
[2019-04-04 23:47:38,844][DEBUG] any debug message - [id:10][instance:7] - [COMP-13][file-9.c][function-9][ln:538]
[2019-04-04 23:47:39,808][INFO] any info message - [id:10][instance:4] - [COMP-13][file-2.c][function-6][ln:161]
[2019-04-04 23:47:41,308][INFO] any info message - [id:10][instance:7] - [COMP-9][file-5.c][function-8][ln:14]
[2019-04-04 23:47:42,810][INFO] any info message - [id:10][instance:4] - [COMP-8][file-9.c][function-2][ln:377]
[2019-04-04 23:47:44,310][INFO] any info message - [id:10][instance:7] - [COMP-4][file-5.c][function-5][ln:711]
[2019-04-04 23:47:45,826][INFO] any info message - [id:10][instance:7] - [COMP-9][file-1.c][function-1][ln:532]
[2019-04-04 23:47:47,328][INFO] any info message - [id:10][instance:5] - [COMP-9][file-8.c][function-2][ln:540]
[2019-04-04 23:47:48,828][INFO] any info message - [id:10][instance:1] - [COMP-4][file-9.c][function-4][ln:445]
[2019-04-04 23:47:50,330][INFO] any info message - [id:10][instance:3] - [COMP-10][file-12.c][function-12][ln:450]
[2019-04-04 23:47:51,830][INFO] any info message - [id:10][instance:6] - [COMP-6][file-9.c][function-7][ln:51]
[2019-04-04 23:47:53,332][INFO] any info message - [id:10][instance:7] - [COMP-7][file-2.c][function-12][ln:648]
[2019-04-04 23:47:53,845][DEBUG] any debug message - [id:10][instance:1] - [COMP-8][file-11.c][function-6][ln:484]
[2019-04-04 23:47:54,833][INFO] any info message - [id:10][instance:6] - [COMP-4][file-2.c][function-4][ln:394]
[2019-04-04 23:47:56,338][INFO] any info message - [id:10][instance:4] - [COMP-2][file-5.c][function-1][ln:642]
[2019-04-04 23:47:57,838][INFO] any info message - [id:10][instance:3] - [COMP-13][file-12.c][function-6][ln:555]
[2019-04-04 23:47:59,339][INFO] any info message - [id:10][instance:6] - [COMP-10][file-10.c][function-13][ln:827]
[2019-04-04 23:48:00,840][INFO] any info message - [id:10][instance:6] - [COMP-9][file-10.c][function-7][ln:644]
[2019-04-04 23:48:02,341][INFO] any info message - [id:10][instance:7] - [COMP-11][file-2.c][function-9][ln:321]
[2019-04-04 23:48:03,842][INFO] any info message - [id:10][instance:4] - [COMP-6][file-4.c][function-10][ln:456]
[2019-04-04 23:48:05,342][INFO] any info message - [id:10][instance:2] - [COMP-2][file-6.c][function-8][ln:895]
[2019-04-04 23:48:06,850][INFO] any info message - [id:10][instance:4] - [COMP-12][file-5.c][function-12][ln:44]
[2019-04-04 23:48:08,351][INFO] any info message - [id:10][instance:1] - [COMP-9][file-5.c][function-1][ln:69]
[2019-04-04 23:48:08,805][WARNING] Here is a warning message - [id:10][instance:6] - [COMP-6][file-1.c][function-3][ln:178]
[2019-04-04 23:48:08,846][DEBUG] any debug message - [id:10][instance:6] - [COMP-8][file-5.c][function-11][ln:18]
[2019-04-04 23:48:09,851][INFO] any info message - [id:10][instance:2] - [COMP-2][file-5.c][function-4][ln:687]
[2019-04-04 23:48:11,351][INFO] any info message - [id:10][instance:4] - [COMP-9][file-6.c][function-3][ln:153]
[2019-04-04 23:48:12,853][INFO] any info message - [id:10][instance:7] - [COMP-1][file-1.c][function-1][ln:157]
[2019-04-04 23:48:14,355][INFO] any info message - [id:10][instance:6] - [COMP-13][file-11.c][function-3][ln:869]
[2019-04-04 23:48:15,856][INFO] any info message - [id:10][instance:3] - [COMP-12][file-13.c][function-7][ln:179]
[2019-04-04 23:48:17,357][INFO] any info message - [id:10][instance:4] - [COMP-3][file-13.c][function-8][ln:697]
[2019-04-04 23:48:18,859][INFO] any info message - [id:10][instance:2] - [COMP-8][file-9.c][function-7][ln:989]
[2019-04-04 23:48:20,359][INFO] any info message - [id:10][instance:4] - [COMP-1][file-12.c][function-12][ln:39]
[2019-04-04 23:48:21,859][INFO] any info message - [id:10][instance:1] - [COMP-5][file-5.c][function-2][ln:777]
[2019-04-04 23:48:23,360][INFO] any info message - [id:10][instance:6] - [COMP-13][file-11.c][function-1][ln:722]
[2019-04-04 23:48:23,848][DEBUG] any debug message - [id:10][instance:1] - [COMP-12][file-6.c][function-8][ln:980]
[2019-04-04 23:48:24,861][INFO] any info message - [id:10][instance:7] - [COMP-3][file-13.c][function-7][ln:399]
[2019-04-04 23:48:26,361][INFO] any info message - [id:10][instance:1] - [COMP-13][file-8.c][function-7][ln:530]
[2019-04-04 23:48:27,862][INFO] any info message - [id:10][instance:4] - [COMP-3][file-5.c][function-9][ln:229]
[2019-04-04 23:48:29,363][INFO] any info message - [id:10][instance:1] - [COMP-4][file-11.c][function-5][ln:697]
[2019-04-04 23:48:30,863][INFO] any info message - [id:10][instance:4] - [COMP-2][file-7.c][function-7][ln:661]
[2019-04-05 09:07:41,869][INFO] any info message - [id:10][instance:6] - [COMP-1][file-3.c][function-5][ln:352]
[2019-04-05 09:07:41,885][DEBUG] any debug message - [id:10][instance:2] - [COMP-12][file-13.c][function-8][ln:508]
[2019-04-05 09:07:41,886][WARNING] Here is a warning message - [id:10][instance:2] - [COMP-2][file-1.c][function-12][ln:670]
[2019-04-05 09:07:41,886][ERROR] It is an error message - [id:10][instance:6] - [COMP-11][file-10.c][function-8][ln:535]
[2019-04-05 09:07:41,888][CRITICAL] ATTENTION: This is a critical issue! - [id:10][instance:2] - [COMP-9][file-7.c][function-1][ln:360]
[2019-04-05 09:07:43,369][INFO] any info message - [id:10][instance:3] - [COMP-10][file-6.c][function-3][ln:858]
[2019-04-05 09:07:44,872][INFO] any info message - [id:10][instance:1] - [COMP-7][file-8.c][function-3][ln:214]
[2019-04-05 09:07:46,373][INFO] any info message - [id:10][instance:3] - [COMP-1][file-1.c][function-10][ln:53]
[2019-04-05 09:07:47,875][INFO] any info message - [id:10][instance:4] - [COMP-6][file-8.c][function-2][ln:927]
[2019-04-05 09:07:49,375][INFO] any info message - [id:10][instance:5] - [COMP-10][file-8.c][function-5][ln:464]
[2019-04-05 09:07:50,876][INFO] any info message - [id:10][instance:3] - [COMP-4][file-2.c][function-4][ln:647]
[2019-04-05 09:07:52,377][INFO] any info message - [id:10][instance:7] - [COMP-2][file-10.c][function-4][ln:967]
[2019-04-05 09:07:53,878][INFO] any info message - [id:10][instance:3] - [COMP-5][file-1.c][function-4][ln:960]
[2019-04-05 09:07:55,379][INFO] any info message - [id:10][instance:2] - [COMP-4][file-1.c][function-12][ln:261]
[2019-04-05 09:07:56,880][INFO] any info message - [id:10][instance:7] - [COMP-11][file-3.c][function-1][ln:782]
[2019-04-05 09:07:56,887][DEBUG] any debug message - [id:10][instance:1] - [COMP-3][file-12.c][function-11][ln:400]
[2019-04-05 09:07:58,382][INFO] any info message - [id:10][instance:1] - [COMP-11][file-11.c][function-4][ln:190]
[2019-04-05 09:07:59,884][INFO] any info message - [id:10][instance:3] - [COMP-5][file-4.c][function-13][ln:62]
[2019-04-05 09:08:01,385][INFO] any info message - [id:10][instance:2] - [COMP-4][file-12.c][function-13][ln:350]
[2019-04-05 09:08:02,887][INFO] any info message - [id:10][instance:7] - [COMP-1][file-7.c][function-7][ln:993]
[2019-04-05 09:08:04,387][INFO] any info message - [id:10][instance:5] - [COMP-8][file-4.c][function-1][ln:701]
[2019-04-05 09:08:05,889][INFO] any info message - [id:10][instance:4] - [COMP-9][file-3.c][function-4][ln:951]
[2019-04-05 09:08:07,390][INFO] any info message - [id:10][instance:4] - [COMP-2][file-13.c][function-10][ln:820]
[2019-04-05 09:08:08,892][INFO] any info message - [id:10][instance:3] - [COMP-12][file-11.c][function-5][ln:656]
[2019-04-05 09:08:10,394][INFO] any info message - [id:10][instance:6] - [COMP-13][file-13.c][function-7][ln:423]
[2019-04-05 09:08:11,888][WARNING] Here is a warning message - [id:10][instance:7] - [COMP-3][file-10.c][function-10][ln:517]
[2019-04-05 09:08:11,889][DEBUG] any debug message - [id:10][instance:4] - [COMP-7][file-3.c][function-2][ln:415]
[2019-04-05 09:08:11,895][INFO] any info message - [id:10][instance:3] - [COMP-8][file-8.c][function-10][ln:669]
[2019-04-05 09:08:13,396][INFO] any info message - [id:10][instance:7] - [COMP-7][file-5.c][function-8][ln:975]
[2019-04-05 09:08:14,897][INFO] any info message - [id:10][instance:3] - [COMP-1][file-8.c][function-6][ln:73]
[2019-04-05 09:08:16,398][INFO] any info message - [id:10][instance:3] - [COMP-2][file-4.c][function-2][ln:314]
[2019-04-05 09:08:17,899][INFO] any info message - [id:10][instance:5] - [COMP-13][file-7.c][function-6][ln:29]
[2019-04-05 09:08:19,400][INFO] any info message - [id:10][instance:6] - [COMP-3][file-5.c][function-9][ln:473]
[2019-04-05 09:08:20,901][INFO] any info message - [id:10][instance:5] - [COMP-1][file-12.c][function-6][ln:413]
[2019-04-05 09:08:22,401][INFO] any info message - [id:10][instance:6] - [COMP-9][file-4.c][function-2][ln:144]
[2019-04-05 09:08:23,902][INFO] any info message - [id:10][instance:7] - [COMP-1][file-3.c][function-7][ln:165]
[2019-04-05 09:08:25,403][INFO] any info message - [id:10][instance:5] - [COMP-4][file-9.c][function-3][ln:457]
[2019-04-05 09:08:26,890][DEBUG] any debug message - [id:10][instance:1] - [COMP-7][file-2.c][function-12][ln:289]
[2019-04-05 09:08:26,904][INFO] any info message - [id:10][instance:7] - [COMP-11][file-2.c][function-8][ln:963]
[2019-04-05 09:08:28,405][INFO] any info message - [id:10][instance:5] - [COMP-3][file-8.c][function-7][ln:254]
[2019-04-05 09:08:29,907][INFO] any info message - [id:10][instance:6] - [COMP-10][file-9.c][function-11][ln:409]
[2019-04-05 09:08:31,408][INFO] any info message - [id:10][instance:3] - [COMP-9][file-13.c][function-7][ln:367]
[2019-04-05 09:08:32,909][INFO] any info message - [id:10][instance:7] - [COMP-8][file-12.c][function-3][ln:109]
[2019-04-05 09:08:34,409][INFO] any info message - [id:10][instance:4] - [COMP-10][file-8.c][function-3][ln:965]
[2019-04-05 09:08:35,911][INFO] any info message - [id:10][instance:7] - [COMP-10][file-5.c][function-5][ln:222]
[2019-04-05 09:08:37,413][INFO] any info message - [id:10][instance:7] - [COMP-8][file-12.c][function-9][ln:205]
[2019-04-05 09:08:38,914][INFO] any info message - [id:10][instance:3] - [COMP-11][file-12.c][function-13][ln:381]
[2019-04-05 09:08:40,416][INFO] any info message - [id:10][instance:7] - [COMP-1][file-9.c][function-7][ln:933]
[2019-04-05 09:08:41,888][ERROR] It is an error message - [id:10][instance:1] - [COMP-10][file-7.c][function-11][ln:889]
[2019-04-05 09:08:41,891][WARNING] Here is a warning message - [id:10][instance:1] - [COMP-11][file-11.c][function-9][ln:572]
[2019-04-05 09:08:41,893][DEBUG] any debug message - [id:10][instance:4] - [COMP-10][file-13.c][function-10][ln:418]
[2019-04-05 09:08:41,917][INFO] any info message - [id:10][instance:7] - [COMP-5][file-7.c][function-11][ln:444]
[2019-04-05 09:08:43,419][INFO] any info message - [id:10][instance:2] - [COMP-10][file-3.c][function-8][ln:737]
[2019-04-05 09:08:44,920][INFO] any info message - [id:10][instance:4] - [COMP-11][file-8.c][function-11][ln:649]
[2019-04-05 09:08:46,420][INFO] any info message - [id:10][instance:3] - [COMP-9][file-9.c][function-1][ln:295]
[2019-04-05 09:08:47,921][INFO] any info message - [id:10][instance:2] - [COMP-8][file-13.c][function-1][ln:151]
[2019-04-05 09:08:49,422][INFO] any info message - [id:10][instance:7] - [COMP-13][file-4.c][function-3][ln:909]
[2019-04-05 09:08:50,922][INFO] any info message - [id:10][instance:2] - [COMP-9][file-12.c][function-11][ln:206]
[2019-04-05 09:08:52,423][INFO] any info message - [id:10][instance:3] - [COMP-1][file-7.c][function-7][ln:268]
[2019-04-05 09:08:53,924][INFO] any info message - [id:10][instance:6] - [COMP-6][file-3.c][function-12][ln:930]
[2019-04-05 09:08:55,426][INFO] any info message - [id:10][instance:7] - [COMP-3][file-11.c][function-8][ln:566]
[2019-04-05 09:08:56,894][DEBUG] any debug message - [id:10][instance:2] - [COMP-12][file-7.c][function-6][ln:881]
[2019-04-05 09:08:56,925][INFO] any info message - [id:10][instance:3] - [COMP-5][file-11.c][function-5][ln:886]
[2019-04-05 09:08:58,428][INFO] any info message - [id:10][instance:3] - [COMP-1][file-3.c][function-10][ln:739]
[2019-04-05 09:08:59,927][INFO] any info message - [id:10][instance:7] - [COMP-6][file-2.c][function-11][ln:705]
[2019-04-05 09:09:01,427][INFO] any info message - [id:10][instance:1] - [COMP-9][file-9.c][function-9][ln:156]
[2019-04-05 09:09:02,928][INFO] any info message - [id:10][instance:7] - [COMP-11][file-9.c][function-13][ln:839]
[2019-04-05 09:09:04,428][INFO] any info message - [id:10][instance:2] - [COMP-1][file-6.c][function-8][ln:221]
[2019-04-05 09:09:05,929][INFO] any info message - [id:10][instance:4] - [COMP-6][file-13.c][function-7][ln:150]
[2019-04-05 09:09:07,431][INFO] any info message - [id:10][instance:4] - [COMP-5][file-5.c][function-12][ln:931]
[2019-04-05 09:09:08,931][INFO] any info message - [id:10][instance:6] - [COMP-7][file-5.c][function-1][ln:872]
[2019-04-05 09:09:10,431][INFO] any info message - [id:10][instance:1] - [COMP-2][file-4.c][function-1][ln:458]
[2019-04-05 09:09:11,891][WARNING] Here is a warning message - [id:10][instance:4] - [COMP-11][file-13.c][function-10][ln:503]
[2019-04-05 09:09:11,894][DEBUG] any debug message - [id:10][instance:1] - [COMP-7][file-13.c][function-11][ln:266]
[2019-04-05 09:09:11,932][INFO] any info message - [id:10][instance:3] - [COMP-10][file-4.c][function-3][ln:326]
[2019-04-05 09:09:13,432][INFO] any info message - [id:10][instance:1] - [COMP-12][file-10.c][function-12][ln:227]
[2019-04-05 09:09:14,932][INFO] any info message - [id:10][instance:5] - [COMP-4][file-8.c][function-11][ln:441]
[2019-04-05 09:09:16,433][INFO] any info message - [id:10][instance:1] - [COMP-5][file-6.c][function-9][ln:420]
[2019-04-05 09:09:17,936][INFO] any info message - [id:10][instance:4] - [COMP-12][file-9.c][function-9][ln:847]
[2019-04-05 09:09:19,435][INFO] any info message - [id:10][instance:1] - [COMP-13][file-10.c][function-11][ln:553]
[2019-04-05 09:09:20,936][INFO] any info message - [id:10][instance:6] - [COMP-1][file-4.c][function-2][ln:864]
[2019-04-05 09:09:22,436][INFO] any info message - [id:10][instance:4] - [COMP-12][file-5.c][function-1][ln:197]
[2019-04-05 09:09:23,937][INFO] any info message - [id:10][instance:4] - [COMP-2][file-13.c][function-13][ln:394]
[2019-04-05 09:09:25,437][INFO] any info message - [id:10][instance:7] - [COMP-8][file-9.c][function-12][ln:340]
[2019-04-05 09:09:26,896][DEBUG] any debug message - [id:10][instance:6] - [COMP-1][file-9.c][function-13][ln:529]
[2019-04-05 09:09:26,939][INFO] any info message - [id:10][instance:2] - [COMP-5][file-6.c][function-4][ln:869]
[2019-04-05 09:09:28,444][INFO] any info message - [id:10][instance:6] - [COMP-13][file-9.c][function-4][ln:866]
[2019-04-05 09:09:29,944][INFO] any info message - [id:10][instance:4] - [COMP-1][file-9.c][function-4][ln:234]
[2019-04-05 09:09:31,445][INFO] any info message - [id:10][instance:3] - [COMP-4][file-10.c][function-6][ln:942]
[2019-04-05 09:09:32,945][INFO] any info message - [id:10][instance:1] - [COMP-8][file-8.c][function-6][ln:930]
[2019-04-05 09:09:34,446][INFO] any info message - [id:10][instance:5] - [COMP-4][file-7.c][function-10][ln:177]
[2019-04-05 09:09:35,947][INFO] any info message - [id:10][instance:7] - [COMP-8][file-11.c][function-6][ln:804]
[2019-04-05 09:09:37,447][INFO] any info message - [id:10][instance:1] - [COMP-6][file-8.c][function-1][ln:682]
[2019-04-05 09:09:38,951][INFO] any info message - [id:10][instance:3] - [COMP-12][file-12.c][function-7][ln:255]
[2019-04-05 09:09:40,452][INFO] any info message - [id:10][instance:3] - [COMP-12][file-7.c][function-8][ln:461]
[2019-04-05 09:09:41,888][ERROR] It is an error message - [id:10][instance:1] - [COMP-1][file-3.c][function-6][ln:611]
[2019-04-05 09:09:41,889][CRITICAL] ATTENTION: This is a critical issue! - [id:10][instance:3] - [COMP-11][file-9.c][function-3][ln:429]
[2019-04-05 09:09:41,892][WARNING] Here is a warning message - [id:10][instance:4] - [COMP-12][file-3.c][function-5][ln:689]
[2019-04-05 09:09:41,897][DEBUG] any debug message - [id:10][instance:2] - [COMP-5][file-8.c][function-9][ln:886]
[2019-04-05 09:09:41,952][INFO] any info message - [id:10][instance:5] - [COMP-5][file-2.c][function-13][ln:372]
[2019-04-05 09:09:43,453][INFO] any info message - [id:10][instance:6] - [COMP-3][file-10.c][function-10][ln:624]
[2019-04-05 09:09:44,954][INFO] any info message - [id:10][instance:3] - [COMP-4][file-9.c][function-7][ln:754]
[2019-04-05 09:09:46,454][INFO] any info message - [id:10][instance:1] - [COMP-8][file-4.c][function-11][ln:311]
[2019-04-05 09:09:47,954][INFO] any info message - [id:10][instance:3] - [COMP-9][file-3.c][function-11][ln:311]
[2019-04-05 09:09:49,455][INFO] any info message - [id:10][instance:1] - [COMP-1][file-11.c][function-9][ln:426]
[2019-04-05 09:09:50,955][INFO] any info message - [id:10][instance:6] - [COMP-5][file-5.c][function-10][ln:814]
[2019-04-05 09:09:52,455][INFO] any info message - [id:10][instance:6] - [COMP-7][file-6.c][function-12][ln:143]
[2019-04-05 09:09:53,955][INFO] any info message - [id:10][instance:2] - [COMP-10][file-4.c][function-3][ln:144]
[2019-04-05 09:09:55,455][INFO] any info message - [id:10][instance:6] - [COMP-1][file-4.c][function-9][ln:695]
[2019-04-05 09:09:56,897][DEBUG] any debug message - [id:10][instance:5] - [COMP-13][file-2.c][function-13][ln:400]
[2019-04-05 09:09:56,955][INFO] any info message - [id:10][instance:1] - [COMP-13][file-9.c][function-3][ln:783]
[2019-04-05 09:09:58,455][INFO] any info message - [id:10][instance:4] - [COMP-10][file-2.c][function-1][ln:229]
[2019-04-05 09:09:59,956][INFO] any info message - [id:10][instance:6] - [COMP-11][file-5.c][function-11][ln:138]
[2019-04-05 09:10:01,456][INFO] any info message - [id:10][instance:5] - [COMP-4][file-2.c][function-10][ln:829]
[2019-04-05 09:10:02,956][INFO] any info message - [id:10][instance:3] - [COMP-5][file-5.c][function-11][ln:137]
[2019-04-05 09:10:04,456][INFO] any info message - [id:10][instance:6] - [COMP-2][file-9.c][function-11][ln:448]
[2019-04-05 09:10:05,956][INFO] any info message - [id:10][instance:5] - [COMP-2][file-7.c][function-6][ln:299]
[2019-04-05 09:10:07,457][INFO] any info message - [id:10][instance:3] - [COMP-11][file-6.c][function-4][ln:527]
[2019-04-05 09:10:08,957][INFO] any info message - [id:10][instance:1] - [COMP-7][file-13.c][function-2][ln:308]
[2019-04-05 09:10:10,457][INFO] any info message - [id:10][instance:7] - [COMP-11][file-12.c][function-11][ln:130]
[2019-04-05 09:10:11,892][WARNING] Here is a warning message - [id:10][instance:5] - [COMP-10][file-3.c][function-8][ln:360]
[2019-04-05 09:10:11,898][DEBUG] any debug message - [id:10][instance:5] - [COMP-8][file-8.c][function-6][ln:826]
[2019-04-05 09:10:11,957][INFO] any info message - [id:10][instance:2] - [COMP-8][file-4.c][function-5][ln:109]
[2019-04-05 09:10:13,457][INFO] any info message - [id:10][instance:5] - [COMP-2][file-8.c][function-7][ln:452]
[2019-04-05 09:10:14,957][INFO] any info message - [id:10][instance:2] - [COMP-5][file-10.c][function-1][ln:948]
[2019-04-05 09:10:16,458][INFO] any info message - [id:10][instance:7] - [COMP-13][file-11.c][function-4][ln:537]
[2019-04-05 09:10:17,958][INFO] any info message - [id:10][instance:2] - [COMP-10][file-4.c][function-2][ln:540]
[2019-04-05 09:10:19,459][INFO] any info message - [id:10][instance:3] - [COMP-11][file-7.c][function-1][ln:903]
[2019-04-05 09:10:20,959][INFO] any info message - [id:10][instance:6] - [COMP-4][file-4.c][function-13][ln:567]
[2019-04-05 09:10:22,459][INFO] any info message - [id:10][instance:5] - [COMP-1][file-10.c][function-11][ln:2]
[2019-04-05 09:10:23,959][INFO] any info message - [id:10][instance:2] - [COMP-9][file-4.c][function-5][ln:455]
[2019-04-05 09:10:25,459][INFO] any info message - [id:10][instance:1] - [COMP-12][file-10.c][function-11][ln:557]
[2019-04-05 09:10:26,899][DEBUG] any debug message - [id:10][instance:7] - [COMP-9][file-6.c][function-10][ln:787]
[2019-04-05 09:10:26,959][INFO] any info message - [id:10][instance:6] - [COMP-4][file-10.c][function-11][ln:255]
[2019-04-05 09:10:28,459][INFO] any info message - [id:10][instance:1] - [COMP-3][file-3.c][function-6][ln:306]
[2019-04-05 09:10:29,961][INFO] any info message - [id:10][instance:4] - [COMP-8][file-4.c][function-1][ln:358]
[2019-04-05 09:10:31,461][INFO] any info message - [id:10][instance:3] - [COMP-13][file-6.c][function-4][ln:456]
[2019-04-05 09:10:32,961][INFO] any info message - [id:10][instance:2] - [COMP-6][file-12.c][function-6][ln:689]
[2019-04-05 09:10:34,461][INFO] any info message - [id:10][instance:3] - [COMP-7][file-13.c][function-7][ln:620]
[2019-04-05 09:10:35,962][INFO] any info message - [id:10][instance:1] - [COMP-8][file-2.c][function-9][ln:269]
[2019-04-05 09:10:37,462][INFO] any info message - [id:10][instance:7] - [COMP-1][file-2.c][function-2][ln:444]
[2019-04-05 09:10:38,963][INFO] any info message - [id:10][instance:2] - [COMP-3][file-13.c][function-10][ln:191]
[2019-04-05 09:10:40,463][INFO] any info message - [id:10][instance:2] - [COMP-4][file-13.c][function-10][ln:684]
[2019-04-05 09:10:41,888][ERROR] It is an error message - [id:10][instance:5] - [COMP-3][file-8.c][function-6][ln:698]
[2019-04-05 09:10:41,892][WARNING] Here is a warning message - [id:10][instance:7] - [COMP-2][file-4.c][function-6][ln:367]
[2019-04-05 09:10:41,899][DEBUG] any debug message - [id:10][instance:2] - [COMP-8][file-9.c][function-13][ln:216]
[2019-04-05 09:10:41,963][INFO] any info message - [id:10][instance:1] - [COMP-12][file-4.c][function-9][ln:257]
[2019-04-05 09:10:43,464][INFO] any info message - [id:10][instance:2] - [COMP-2][file-7.c][function-5][ln:808]
[2019-04-05 09:10:44,965][INFO] any info message - [id:10][instance:7] - [COMP-9][file-12.c][function-13][ln:533]
[2019-04-05 09:10:46,465][INFO] any info message - [id:10][instance:7] - [COMP-6][file-7.c][function-7][ln:595]
[2019-04-05 09:10:47,967][INFO] any info message - [id:10][instance:6] - [COMP-4][file-5.c][function-1][ln:245]
[2019-04-05 09:10:49,467][INFO] any info message - [id:10][instance:5] - [COMP-7][file-6.c][function-10][ln:536]
[2019-04-05 09:10:50,967][INFO] any info message - [id:10][instance:3] - [COMP-6][file-11.c][function-3][ln:647]
[2019-04-05 09:10:52,468][INFO] any info message - [id:10][instance:3] - [COMP-8][file-5.c][function-10][ln:386]
[2019-04-05 09:10:53,968][INFO] any info message - [id:10][instance:4] - [COMP-1][file-11.c][function-3][ln:365]
[2019-04-05 09:10:55,469][INFO] any info message - [id:10][instance:2] - [COMP-10][file-10.c][function-1][ln:245]
[2019-04-05 09:10:56,899][DEBUG] any debug message - [id:10][instance:4] - [COMP-3][file-5.c][function-10][ln:624]
[2019-04-05 09:10:56,969][INFO] any info message - [id:10][instance:2] - [COMP-7][file-4.c][function-4][ln:192]
[2019-04-05 09:10:58,470][INFO] any info message - [id:10][instance:1] - [COMP-3][file-10.c][function-9][ln:901]
[2019-04-05 09:10:59,971][INFO] any info message - [id:10][instance:3] - [COMP-12][file-2.c][function-6][ln:598]
[2019-04-05 09:11:01,471][INFO] any info message - [id:10][instance:1] - [COMP-13][file-4.c][function-11][ln:95]
[2019-04-05 09:11:02,971][INFO] any info message - [id:10][instance:6] - [COMP-4][file-7.c][function-3][ln:416]
[2019-04-05 09:11:04,471][INFO] any info message - [id:10][instance:1] - [COMP-10][file-6.c][function-11][ln:809]
[2019-04-05 09:11:05,972][INFO] any info message - [id:10][instance:5] - [COMP-1][file-7.c][function-9][ln:749]
[2019-04-05 09:11:07,472][INFO] any info message - [id:10][instance:4] - [COMP-13][file-11.c][function-2][ln:920]
[2019-04-05 09:11:08,973][INFO] any info message - [id:10][instance:5] - [COMP-3][file-1.c][function-4][ln:702]
[2019-04-05 09:11:10,475][INFO] any info message - [id:10][instance:4] - [COMP-7][file-3.c][function-12][ln:284]
[2019-04-05 09:11:11,893][WARNING] Here is a warning message - [id:10][instance:6] - [COMP-5][file-8.c][function-6][ln:880]
[2019-04-05 09:11:11,899][DEBUG] any debug message - [id:10][instance:7] - [COMP-2][file-7.c][function-9][ln:377]
[2019-04-05 09:11:11,976][INFO] any info message - [id:10][instance:5] - [COMP-1][file-8.c][function-3][ln:765]
[2019-04-05 09:11:13,476][INFO] any info message - [id:10][instance:1] - [COMP-11][file-9.c][function-6][ln:513]
[2019-04-05 09:11:14,976][INFO] any info message - [id:10][instance:4] - [COMP-1][file-10.c][function-8][ln:939]
[2019-04-05 09:11:16,476][INFO] any info message - [id:10][instance:1] - [COMP-5][file-4.c][function-9][ln:681]
[2019-04-05 09:11:17,977][INFO] any info message - [id:10][instance:1] - [COMP-12][file-13.c][function-1][ln:415]
[2019-04-05 09:11:19,479][INFO] any info message - [id:10][instance:1] - [COMP-8][file-8.c][function-8][ln:937]
[2019-04-05 09:11:20,980][INFO] any info message - [id:10][instance:5] - [COMP-5][file-12.c][function-8][ln:419]
[2019-04-05 09:11:22,480][INFO] any info message - [id:10][instance:6] - [COMP-1][file-2.c][function-13][ln:235]
[2019-04-05 09:11:23,980][INFO] any info message - [id:10][instance:3] - [COMP-5][file-6.c][function-2][ln:528]
[2019-04-05 09:11:25,480][INFO] any info message - [id:10][instance:1] - [COMP-3][file-3.c][function-2][ln:630]
[2019-04-05 09:11:26,900][DEBUG] any debug message - [id:10][instance:7] - [COMP-7][file-12.c][function-8][ln:468]
[2019-04-05 09:11:26,980][INFO] any info message - [id:10][instance:1] - [COMP-3][file-8.c][function-11][ln:714]
[2019-04-05 09:11:28,481][INFO] any info message - [id:10][instance:7] - [COMP-12][file-7.c][function-13][ln:687]
[2019-04-05 09:11:29,981][INFO] any info message - [id:10][instance:7] - [COMP-5][file-4.c][function-5][ln:934]
[2019-04-05 09:11:31,481][INFO] any info message - [id:10][instance:2] - [COMP-13][file-1.c][function-7][ln:638]
[2019-04-05 09:11:32,982][INFO] any info message - [id:10][instance:4] - [COMP-13][file-11.c][function-11][ln:501]
[2019-04-05 09:11:34,483][INFO] any info message - [id:10][instance:4] - [COMP-12][file-12.c][function-13][ln:807]
[2019-04-05 09:11:35,983][INFO] any info message - [id:10][instance:2] - [COMP-10][file-13.c][function-11][ln:167]
[2019-04-05 09:11:37,483][INFO] any info message - [id:10][instance:6] - [COMP-5][file-4.c][function-8][ln:523]
[2019-04-05 09:11:38,983][INFO] any info message - [id:10][instance:2] - [COMP-4][file-5.c][function-4][ln:341]
[2019-04-05 09:11:40,483][INFO] any info message - [id:10][instance:2] - [COMP-9][file-11.c][function-1][ln:423]
[2019-04-05 09:11:41,889][ERROR] It is an error message - [id:10][instance:6] - [COMP-13][file-7.c][function-4][ln:989]
[2019-04-05 09:11:41,890][CRITICAL] ATTENTION: This is a critical issue! - [id:10][instance:5] - [COMP-6][file-3.c][function-11][ln:483]
[2019-04-05 09:11:41,894][WARNING] Here is a warning message - [id:10][instance:1] - [COMP-5][file-13.c][function-2][ln:666]
[2019-04-05 09:11:41,900][DEBUG] any debug message - [id:10][instance:5] - [COMP-1][file-6.c][function-1][ln:545]
[2019-04-05 09:11:41,983][INFO] any info message - [id:10][instance:5] - [COMP-7][file-11.c][function-6][ln:220]
[2019-04-05 09:11:43,483][INFO] any info message - [id:10][instance:4] - [COMP-12][file-2.c][function-13][ln:103]
[2019-04-05 09:11:44,984][INFO] any info message - [id:10][instance:5] - [COMP-11][file-8.c][function-9][ln:638]
[2019-04-05 09:11:46,484][INFO] any info message - [id:10][instance:3] - [COMP-2][file-1.c][function-8][ln:521]
[2019-04-05 09:11:47,985][INFO] any info message - [id:10][instance:7] - [COMP-7][file-10.c][function-4][ln:725]
[2019-04-05 09:11:49,485][INFO] any info message - [id:10][instance:3] - [COMP-6][file-10.c][function-2][ln:403]
[2019-04-05 09:11:50,986][INFO] any info message - [id:10][instance:1] - [COMP-8][file-1.c][function-9][ln:64]
[2019-04-05 09:11:52,486][INFO] any info message - [id:10][instance:4] - [COMP-9][file-8.c][function-11][ln:401]
[2019-04-05 09:11:53,994][INFO] any info message - [id:10][instance:6] - [COMP-1][file-8.c][function-13][ln:640]
[2019-04-05 09:11:55,495][INFO] any info message - [id:10][instance:7] - [COMP-9][file-5.c][function-4][ln:138]
[2019-04-05 09:11:56,901][DEBUG] any debug message - [id:10][instance:7] - [COMP-12][file-9.c][function-11][ln:330]
[2019-04-05 09:11:56,995][INFO] any info message - [id:10][instance:2] - [COMP-9][file-11.c][function-3][ln:289]
[2019-04-05 09:11:58,496][INFO] any info message - [id:10][instance:5] - [COMP-11][file-1.c][function-2][ln:447]
[2019-04-05 09:11:59,997][INFO] any info message - [id:10][instance:3] - [COMP-10][file-1.c][function-7][ln:129]
[2019-04-05 09:12:01,497][INFO] any info message - [id:10][instance:6] - [COMP-1][file-6.c][function-3][ln:31]
[2019-04-05 09:12:02,997][INFO] any info message - [id:10][instance:1] - [COMP-8][file-12.c][function-9][ln:702]
[2019-04-05 09:12:04,498][INFO] any info message - [id:10][instance:3] - [COMP-6][file-1.c][function-1][ln:351]
[2019-04-05 09:12:05,998][INFO] any info message - [id:10][instance:2] - [COMP-8][file-10.c][function-2][ln:256]
[2019-04-05 09:12:07,499][INFO] any info message - [id:10][instance:5] - [COMP-7][file-10.c][function-9][ln:333]
[2019-04-05 09:12:09,000][INFO] any info message - [id:10][instance:5] - [COMP-7][file-12.c][function-3][ln:450]
[2019-04-05 09:12:10,501][INFO] any info message - [id:10][instance:7] - [COMP-13][file-5.c][function-4][ln:723]
[2019-04-05 09:12:11,894][WARNING] Here is a warning message - [id:10][instance:1] - [COMP-12][file-2.c][function-2][ln:957]
[2019-04-05 09:12:11,901][DEBUG] any debug message - [id:10][instance:5] - [COMP-9][file-10.c][function-5][ln:862]
[2019-04-05 09:12:12,001][INFO] any info message - [id:10][instance:3] - [COMP-13][file-3.c][function-10][ln:470]
[2019-04-05 09:12:13,501][INFO] any info message - [id:10][instance:3] - [COMP-13][file-7.c][function-12][ln:56]
[2019-04-05 09:12:15,002][INFO] any info message - [id:10][instance:5] - [COMP-3][file-13.c][function-9][ln:98]
[2019-04-05 09:12:16,502][INFO] any info message - [id:10][instance:3] - [COMP-10][file-13.c][function-13][ln:246]
[2019-04-05 09:12:18,003][INFO] any info message - [id:10][instance:3] - [COMP-12][file-10.c][function-6][ln:698]
[2019-04-05 09:12:19,504][INFO] any info message - [id:10][instance:4] - [COMP-10][file-13.c][function-1][ln:348]
[2019-04-05 09:12:21,004][INFO] any info message - [id:10][instance:2] - [COMP-11][file-7.c][function-13][ln:568]
[2019-04-05 09:12:22,504][INFO] any info message - [id:10][instance:7] - [COMP-11][file-7.c][function-4][ln:500]
[2019-04-05 09:12:24,005][INFO] any info message - [id:10][instance:7] - [COMP-2][file-8.c][function-8][ln:624]
[2019-04-05 09:12:25,505][INFO] any info message - [id:10][instance:1] - [COMP-9][file-9.c][function-4][ln:702]
[2019-04-05 09:12:26,901][DEBUG] any debug message - [id:10][instance:5] - [COMP-5][file-5.c][function-3][ln:270]
[2019-04-05 09:12:27,006][INFO] any info message - [id:10][instance:3] - [COMP-7][file-13.c][function-13][ln:710]
[2019-04-05 09:12:28,506][INFO] any info message - [id:10][instance:4] - [COMP-3][file-3.c][function-3][ln:386]
[2019-04-05 09:12:30,006][INFO] any info message - [id:10][instance:5] - [COMP-9][file-8.c][function-2][ln:946]
[2019-04-05 09:12:31,507][INFO] any info message - [id:10][instance:5] - [COMP-13][file-13.c][function-3][ln:586]
[2019-04-05 09:12:33,007][INFO] any info message - [id:10][instance:3] - [COMP-10][file-8.c][function-4][ln:389]
[2019-04-05 09:12:34,507][INFO] any info message - [id:10][instance:3] - [COMP-12][file-13.c][function-1][ln:620]
[2019-04-05 09:12:36,008][INFO] any info message - [id:10][instance:4] - [COMP-13][file-4.c][function-6][ln:171]
[2019-04-05 09:12:37,509][INFO] any info message - [id:10][instance:1] - [COMP-12][file-2.c][function-11][ln:803]
[2019-04-05 09:12:39,009][INFO] any info message - [id:10][instance:1] - [COMP-8][file-7.c][function-5][ln:736]
[2019-04-05 09:12:40,510][INFO] any info message - [id:10][instance:6] - [COMP-9][file-7.c][function-8][ln:958]
[2019-04-05 09:12:41,889][ERROR] It is an error message - [id:10][instance:7] - [COMP-12][file-9.c][function-8][ln:863]
[2019-04-05 09:12:41,894][WARNING] Here is a warning message - [id:10][instance:6] - [COMP-8][file-12.c][function-6][ln:682]
[2019-04-05 09:12:41,902][DEBUG] any debug message - [id:10][instance:2] - [COMP-1][file-7.c][function-2][ln:800]
[2019-04-05 09:12:42,012][INFO] any info message - [id:10][instance:6] - [COMP-11][file-12.c][function-5][ln:770]
[2019-04-05 09:12:43,512][INFO] any info message - [id:10][instance:5] - [COMP-9][file-2.c][function-2][ln:625]
[2019-04-05 09:12:45,014][INFO] any info message - [id:10][instance:5] - [COMP-10][file-1.c][function-6][ln:40]
[2019-04-05 09:12:46,513][INFO] any info message - [id:10][instance:5] - [COMP-11][file-9.c][function-6][ln:896]
[2019-04-05 09:12:48,013][INFO] any info message - [id:10][instance:4] - [COMP-12][file-13.c][function-12][ln:106]
[2019-04-05 09:12:49,514][INFO] any info message - [id:10][instance:6] - [COMP-10][file-7.c][function-12][ln:600]
[2019-04-05 09:12:51,014][INFO] any info message - [id:10][instance:5] - [COMP-7][file-11.c][function-8][ln:891]
[2019-04-05 09:12:52,515][INFO] any info message - [id:10][instance:1] - [COMP-13][file-6.c][function-2][ln:52]
[2019-04-05 09:12:54,017][INFO] any info message - [id:10][instance:3] - [COMP-10][file-3.c][function-7][ln:523]
[2019-04-05 09:12:55,516][INFO] any info message - [id:10][instance:5] - [COMP-10][file-4.c][function-8][ln:663]
[2019-04-05 09:12:56,902][DEBUG] any debug message - [id:10][instance:3] - [COMP-12][file-6.c][function-3][ln:813]
[2019-04-05 09:12:57,016][INFO] any info message - [id:10][instance:7] - [COMP-2][file-5.c][function-12][ln:92]
[2019-04-05 09:12:58,517][INFO] any info message - [id:10][instance:3] - [COMP-1][file-10.c][function-10][ln:451]
[2019-04-05 09:13:00,018][INFO] any info message - [id:10][instance:7] - [COMP-1][file-10.c][function-10][ln:732]
[2019-04-05 09:13:01,518][INFO] any info message - [id:10][instance:7] - [COMP-11][file-12.c][function-9][ln:300]
[2019-04-05 09:13:03,018][INFO] any info message - [id:10][instance:7] - [COMP-3][file-6.c][function-10][ln:420]
[2019-04-05 09:13:04,519][INFO] any info message - [id:10][instance:3] - [COMP-7][file-11.c][function-8][ln:320]
[2019-04-05 09:13:06,019][INFO] any info message - [id:10][instance:5] - [COMP-11][file-5.c][function-3][ln:874]
[2019-04-05 09:13:07,519][INFO] any info message - [id:10][instance:5] - [COMP-11][file-8.c][function-2][ln:723]
[2019-04-05 09:13:09,019][INFO] any info message - [id:10][instance:6] - [COMP-8][file-1.c][function-12][ln:342]
[2019-04-05 09:13:10,520][INFO] any info message - [id:10][instance:4] - [COMP-9][file-12.c][function-10][ln:224]
[2019-04-05 09:13:11,894][WARNING] Here is a warning message - [id:10][instance:5] - [COMP-4][file-1.c][function-13][ln:976]
[2019-04-05 09:13:11,902][DEBUG] any debug message - [id:10][instance:5] - [COMP-6][file-11.c][function-4][ln:201]
[2019-04-05 09:13:12,020][INFO] any info message - [id:10][instance:6] - [COMP-12][file-4.c][function-12][ln:2]
[2019-04-05 09:13:13,521][INFO] any info message - [id:10][instance:1] - [COMP-11][file-2.c][function-3][ln:147]
[2019-04-05 09:13:15,021][INFO] any info message - [id:10][instance:3] - [COMP-6][file-9.c][function-6][ln:65]
[2019-04-05 09:13:16,521][INFO] any info message - [id:10][instance:4] - [COMP-9][file-6.c][function-4][ln:529]
[2019-04-05 09:13:18,022][INFO] any info message - [id:10][instance:2] - [COMP-8][file-9.c][function-3][ln:739]
[2019-04-05 09:13:19,522][INFO] any info message - [id:10][instance:1] - [COMP-7][file-4.c][function-2][ln:870]
[2019-04-05 09:13:21,025][INFO] any info message - [id:10][instance:5] - [COMP-9][file-13.c][function-11][ln:138]
[2019-04-05 09:13:22,527][INFO] any info message - [id:10][instance:6] - [COMP-6][file-3.c][function-1][ln:158]
[2019-04-05 09:13:24,027][INFO] any info message - [id:10][instance:5] - [COMP-13][file-9.c][function-13][ln:697]
[2019-04-05 09:13:25,528][INFO] any info message - [id:10][instance:6] - [COMP-13][file-8.c][function-8][ln:97]
[2019-04-05 09:13:26,903][DEBUG] any debug message - [id:10][instance:6] - [COMP-5][file-12.c][function-10][ln:344]
[2019-04-05 09:13:27,028][INFO] any info message - [id:10][instance:3] - [COMP-10][file-6.c][function-6][ln:174]
[2019-04-05 09:13:28,528][INFO] any info message - [id:10][instance:7] - [COMP-2][file-2.c][function-3][ln:490]
[2019-04-05 09:13:30,029][INFO] any info message - [id:10][instance:5] - [COMP-7][file-11.c][function-3][ln:580]
[2019-04-05 09:13:31,531][INFO] any info message - [id:10][instance:5] - [COMP-7][file-10.c][function-3][ln:348]
[2019-04-05 09:13:33,033][INFO] any info message - [id:10][instance:2] - [COMP-6][file-3.c][function-12][ln:302]
[2019-04-05 09:13:34,534][INFO] any info message - [id:10][instance:3] - [COMP-5][file-11.c][function-5][ln:704]
[2019-04-05 09:13:36,035][INFO] any info message - [id:10][instance:7] - [COMP-6][file-7.c][function-2][ln:462]
[2019-04-05 09:13:37,535][INFO] any info message - [id:10][instance:6] - [COMP-11][file-5.c][function-9][ln:339]
[2019-04-05 09:13:39,036][INFO] any info message - [id:10][instance:7] - [COMP-8][file-11.c][function-2][ln:69]
[2019-04-05 09:13:40,556][INFO] any info message - [id:10][instance:3] - [COMP-7][file-6.c][function-5][ln:946]
[2019-04-05 09:13:41,889][ERROR] It is an error message - [id:10][instance:6] - [COMP-2][file-13.c][function-13][ln:775]
[2019-04-05 09:13:41,890][CRITICAL] ATTENTION: This is a critical issue! - [id:10][instance:3] - [COMP-9][file-8.c][function-4][ln:596]
[2019-04-05 09:13:41,895][WARNING] Here is a warning message - [id:10][instance:3] - [COMP-1][file-12.c][function-10][ln:597]
[2019-04-05 09:13:41,904][DEBUG] any debug message - [id:10][instance:5] - [COMP-5][file-2.c][function-2][ln:641]
[2019-04-05 09:13:42,057][INFO] any info message - [id:10][instance:5] - [COMP-10][file-4.c][function-8][ln:714]
[2019-04-05 09:13:43,559][INFO] any info message - [id:10][instance:2] - [COMP-13][file-10.c][function-1][ln:795]
[2019-04-05 09:13:45,059][INFO] any info message - [id:10][instance:4] - [COMP-7][file-1.c][function-5][ln:949]
[2019-04-05 09:13:46,560][INFO] any info message - [id:10][instance:2] - [COMP-9][file-9.c][function-6][ln:625]
[2019-04-05 09:13:48,060][INFO] any info message - [id:10][instance:4] - [COMP-10][file-12.c][function-9][ln:482]
[2019-04-05 09:13:49,560][INFO] any info message - [id:10][instance:6] - [COMP-12][file-12.c][function-6][ln:970]
[2019-04-05 09:13:51,060][INFO] any info message - [id:10][instance:2] - [COMP-1][file-11.c][function-3][ln:978]
[2019-04-05 09:13:52,562][INFO] any info message - [id:10][instance:6] - [COMP-1][file-7.c][function-10][ln:671]
[2019-04-05 09:13:54,062][INFO] any info message - [id:10][instance:4] - [COMP-12][file-7.c][function-5][ln:930]
[2019-04-05 09:13:55,562][INFO] any info message - [id:10][instance:7] - [COMP-11][file-11.c][function-3][ln:218]
[2019-04-05 09:13:56,904][DEBUG] any debug message - [id:10][instance:4] - [COMP-9][file-13.c][function-7][ln:837]
[2019-04-05 09:13:57,063][INFO] any info message - [id:10][instance:6] - [COMP-1][file-1.c][function-13][ln:570]
[2019-04-05 09:13:58,563][INFO] any info message - [id:10][instance:2] - [COMP-8][file-1.c][function-3][ln:559]
[2019-04-05 09:14:00,063][INFO] any info message - [id:10][instance:1] - [COMP-7][file-12.c][function-4][ln:916]
[2019-04-05 09:14:01,563][INFO] any info message - [id:10][instance:1] - [COMP-1][file-7.c][function-4][ln:807]
[2019-04-05 09:14:03,066][INFO] any info message - [id:10][instance:3] - [COMP-2][file-7.c][function-11][ln:730]
[2019-04-05 09:14:04,566][INFO] any info message - [id:10][instance:6] - [COMP-5][file-7.c][function-11][ln:223]
[2019-04-05 09:14:06,067][INFO] any info message - [id:10][instance:3] - [COMP-7][file-4.c][function-12][ln:531]
[2019-04-05 09:14:07,567][INFO] any info message - [id:10][instance:1] - [COMP-4][file-10.c][function-7][ln:983]
[2019-04-05 09:14:09,068][INFO] any info message - [id:10][instance:1] - [COMP-8][file-7.c][function-10][ln:15]
[2019-04-05 09:14:10,568][INFO] any info message - [id:10][instance:7] - [COMP-13][file-10.c][function-2][ln:149]
[2019-04-05 09:14:11,895][WARNING] Here is a warning message - [id:10][instance:5] - [COMP-7][file-2.c][function-1][ln:815]
[2019-04-05 09:14:11,905][DEBUG] any debug message - [id:10][instance:4] - [COMP-13][file-3.c][function-10][ln:864]
[2019-04-05 09:14:12,069][INFO] any info message - [id:10][instance:7] - [COMP-13][file-10.c][function-11][ln:689]
[2019-04-05 09:14:13,573][INFO] any info message - [id:10][instance:2] - [COMP-9][file-3.c][function-1][ln:754]
[2019-04-05 09:14:15,073][INFO] any info message - [id:10][instance:1] - [COMP-5][file-10.c][function-10][ln:175]
[2019-04-05 09:14:16,573][INFO] any info message - [id:10][instance:6] - [COMP-4][file-8.c][function-7][ln:434]
[2019-04-05 09:14:18,073][INFO] any info message - [id:10][instance:7] - [COMP-11][file-7.c][function-12][ln:979]
[2019-04-05 09:14:19,574][INFO] any info message - [id:10][instance:4] - [COMP-1][file-4.c][function-1][ln:54]
[2019-04-05 09:14:21,075][INFO] any info message - [id:10][instance:3] - [COMP-3][file-12.c][function-7][ln:630]
[2019-04-05 09:14:22,576][INFO] any info message - [id:10][instance:4] - [COMP-12][file-5.c][function-9][ln:276]
[2019-04-05 09:14:24,076][INFO] any info message - [id:10][instance:5] - [COMP-1][file-7.c][function-7][ln:300]
[2019-04-05 09:14:25,576][INFO] any info message - [id:10][instance:4] - [COMP-6][file-10.c][function-7][ln:301]
[2019-04-05 09:14:26,905][DEBUG] any debug message - [id:10][instance:1] - [COMP-12][file-8.c][function-4][ln:711]
[2019-04-05 09:14:27,077][INFO] any info message - [id:10][instance:7] - [COMP-11][file-1.c][function-8][ln:784]
[2019-04-05 09:14:28,577][INFO] any info message - [id:10][instance:7] - [COMP-13][file-1.c][function-1][ln:591]
[2019-04-05 09:14:30,077][INFO] any info message - [id:10][instance:7] - [COMP-1][file-5.c][function-2][ln:794]
[2019-04-05 09:14:31,578][INFO] any info message - [id:10][instance:6] - [COMP-1][file-2.c][function-10][ln:475]
[2019-04-05 09:14:33,078][INFO] any info message - [id:10][instance:5] - [COMP-5][file-4.c][function-10][ln:58]
[2019-04-05 09:14:34,579][INFO] any info message - [id:10][instance:2] - [COMP-8][file-11.c][function-9][ln:927]
[2019-04-05 09:14:36,079][INFO] any info message - [id:10][instance:5] - [COMP-12][file-6.c][function-5][ln:931]
[2019-04-05 09:14:37,580][INFO] any info message - [id:10][instance:5] - [COMP-5][file-10.c][function-3][ln:34]
[2019-04-05 09:14:39,081][INFO] any info message - [id:10][instance:6] - [COMP-9][file-2.c][function-10][ln:811]
[2019-04-05 09:14:40,581][INFO] any info message - [id:10][instance:7] - [COMP-11][file-3.c][function-7][ln:925]
[2019-04-05 09:14:41,890][ERROR] It is an error message - [id:10][instance:2] - [COMP-2][file-2.c][function-9][ln:217]
[2019-04-05 09:14:41,896][WARNING] Here is a warning message - [id:10][instance:5] - [COMP-4][file-12.c][function-1][ln:593]
[2019-04-05 09:14:41,905][DEBUG] any debug message - [id:10][instance:4] - [COMP-13][file-3.c][function-13][ln:420]
[2019-04-05 09:14:42,082][INFO] any info message - [id:10][instance:7] - [COMP-13][file-6.c][function-10][ln:659]
[2019-04-05 09:14:43,582][INFO] any info message - [id:10][instance:5] - [COMP-7][file-2.c][function-8][ln:652]
[2019-04-05 09:14:45,084][INFO] any info message - [id:10][instance:5] - [COMP-8][file-6.c][function-1][ln:890]
[2019-04-05 09:14:46,585][INFO] any info message - [id:10][instance:2] - [COMP-3][file-1.c][function-2][ln:323]
[2019-04-05 09:14:48,085][INFO] any info message - [id:10][instance:4] - [COMP-12][file-7.c][function-8][ln:677]
[2019-04-05 09:14:49,586][INFO] any info message - [id:10][instance:6] - [COMP-9][file-8.c][function-4][ln:842]
[2019-04-05 09:14:51,085][INFO] any info message - [id:10][instance:7] - [COMP-7][file-13.c][function-7][ln:574]
[2019-04-05 09:14:52,585][INFO] any info message - [id:10][instance:6] - [COMP-2][file-5.c][function-11][ln:741]
[2019-04-05 09:14:54,086][INFO] any info message - [id:10][instance:7] - [COMP-12][file-9.c][function-7][ln:424]
[2019-04-05 09:14:55,586][INFO] any info message - [id:10][instance:3] - [COMP-12][file-7.c][function-1][ln:430]
[2019-04-05 09:14:56,906][DEBUG] any debug message - [id:10][instance:7] - [COMP-10][file-3.c][function-13][ln:105]
[2019-04-05 09:14:57,087][INFO] any info message - [id:10][instance:7] - [COMP-2][file-4.c][function-6][ln:882]
[2019-04-05 09:14:58,587][INFO] any info message - [id:10][instance:2] - [COMP-7][file-2.c][function-12][ln:345]
[2019-04-05 09:15:00,088][INFO] any info message - [id:10][instance:1] - [COMP-2][file-4.c][function-2][ln:86]
[2019-04-05 09:15:01,588][INFO] any info message - [id:10][instance:4] - [COMP-2][file-3.c][function-6][ln:672]
[2019-04-05 09:15:03,089][INFO] any info message - [id:10][instance:4] - [COMP-12][file-1.c][function-1][ln:624]
[2019-04-05 09:15:04,590][INFO] any info message - [id:10][instance:7] - [COMP-13][file-7.c][function-3][ln:972]
[2019-04-05 09:15:06,090][INFO] any info message - [id:10][instance:3] - [COMP-6][file-11.c][function-13][ln:91]
[2019-04-05 09:15:07,590][INFO] any info message - [id:10][instance:4] - [COMP-5][file-6.c][function-5][ln:19]
[2019-04-05 09:15:09,090][INFO] any info message - [id:10][instance:7] - [COMP-4][file-11.c][function-12][ln:775]
[2019-04-05 09:15:10,590][INFO] any info message - [id:10][instance:4] - [COMP-2][file-11.c][function-6][ln:553]
[2019-04-05 09:15:11,898][WARNING] Here is a warning message - [id:10][instance:4] - [COMP-1][file-9.c][function-2][ln:246]
[2019-04-05 09:15:11,913][DEBUG] any debug message - [id:10][instance:2] - [COMP-3][file-4.c][function-10][ln:654]
[2019-04-05 09:15:12,091][INFO] any info message - [id:10][instance:7] - [COMP-6][file-8.c][function-2][ln:882]
[2019-04-05 09:15:13,591][INFO] any info message - [id:10][instance:1] - [COMP-1][file-6.c][function-10][ln:649]
[2019-04-05 09:15:15,092][INFO] any info message - [id:10][instance:5] - [COMP-6][file-1.c][function-13][ln:574]
[2019-04-05 09:15:16,593][INFO] any info message - [id:10][instance:1] - [COMP-12][file-6.c][function-2][ln:911]
[2019-04-05 09:15:18,093][INFO] any info message - [id:10][instance:1] - [COMP-1][file-13.c][function-12][ln:121]
[2019-04-05 09:15:19,594][INFO] any info message - [id:10][instance:7] - [COMP-5][file-9.c][function-9][ln:276]
[2019-04-05 09:15:21,094][INFO] any info message - [id:10][instance:3] - [COMP-4][file-13.c][function-10][ln:305]
[2019-04-05 09:15:22,596][INFO] any info message - [id:10][instance:5] - [COMP-11][file-11.c][function-10][ln:961]
[2019-04-05 09:15:24,096][INFO] any info message - [id:10][instance:2] - [COMP-3][file-9.c][function-12][ln:735]
[2019-04-05 09:15:25,597][INFO] any info message - [id:10][instance:1] - [COMP-13][file-12.c][function-13][ln:326]
[2019-04-05 09:15:26,913][DEBUG] any debug message - [id:10][instance:4] - [COMP-6][file-8.c][function-9][ln:315]
[2019-04-05 09:15:27,097][INFO] any info message - [id:10][instance:5] - [COMP-13][file-1.c][function-5][ln:476]
[2019-04-05 09:15:28,598][INFO] any info message - [id:10][instance:1] - [COMP-9][file-4.c][function-4][ln:547]
[2019-04-05 09:15:30,099][INFO] any info message - [id:10][instance:3] - [COMP-10][file-1.c][function-12][ln:606]
[2019-04-05 09:15:31,599][INFO] any info message - [id:10][instance:3] - [COMP-8][file-8.c][function-9][ln:708]
[2019-04-05 09:15:33,127][INFO] any info message - [id:10][instance:2] - [COMP-11][file-5.c][function-10][ln:119]
[2019-04-05 09:15:34,626][INFO] any info message - [id:10][instance:6] - [COMP-11][file-5.c][function-9][ln:257]
[2019-04-05 09:15:36,126][INFO] any info message - [id:10][instance:4] - [COMP-8][file-5.c][function-11][ln:870]
[2019-04-05 09:15:37,626][INFO] any info message - [id:10][instance:3] - [COMP-13][file-12.c][function-11][ln:175]
[2019-04-05 09:15:39,126][INFO] any info message - [id:10][instance:5] - [COMP-5][file-4.c][function-3][ln:615]
[2019-04-05 09:15:40,637][INFO] any info message - [id:10][instance:4] - [COMP-1][file-1.c][function-11][ln:667]
[2019-04-05 09:15:41,903][CRITICAL] ATTENTION: This is a critical issue! - [id:10][instance:6] - [COMP-3][file-5.c][function-4][ln:87]
[2019-04-05 09:15:41,911][ERROR] It is an error message - [id:10][instance:5] - [COMP-3][file-2.c][function-9][ln:561]
[2019-04-05 09:15:41,912][WARNING] Here is a warning message - [id:10][instance:1] - [COMP-12][file-2.c][function-3][ln:16]
[2019-04-05 09:15:41,918][DEBUG] any debug message - [id:10][instance:3] - [COMP-4][file-6.c][function-6][ln:119]
[2019-04-05 09:15:42,141][INFO] any info message - [id:10][instance:6] - [COMP-2][file-11.c][function-8][ln:884]
[2019-04-05 09:15:43,654][INFO] any info message - [id:10][instance:1] - [COMP-6][file-9.c][function-1][ln:137]
[2019-04-05 09:15:45,162][INFO] any info message - [id:10][instance:6] - [COMP-3][file-10.c][function-4][ln:146]
[2019-04-05 09:15:46,663][INFO] any info message - [id:10][instance:6] - [COMP-10][file-7.c][function-1][ln:705]
[2019-04-05 09:15:48,163][INFO] any info message - [id:10][instance:4] - [COMP-12][file-11.c][function-4][ln:653]
[2019-04-05 09:15:49,666][INFO] any info message - [id:10][instance:4] - [COMP-12][file-10.c][function-3][ln:28]
[2019-04-05 09:15:51,166][INFO] any info message - [id:10][instance:5] - [COMP-1][file-8.c][function-4][ln:25]
[2019-04-05 09:15:52,667][INFO] any info message - [id:10][instance:1] - [COMP-11][file-10.c][function-6][ln:593]
[2019-04-05 09:15:54,168][INFO] any info message - [id:10][instance:4] - [COMP-13][file-12.c][function-13][ln:363]
[2019-04-05 09:15:55,669][INFO] any info message - [id:10][instance:2] - [COMP-3][file-4.c][function-5][ln:925]
[2019-04-05 09:15:56,918][DEBUG] any debug message - [id:10][instance:4] - [COMP-2][file-4.c][function-8][ln:278]
[2019-04-05 09:15:57,169][INFO] any info message - [id:10][instance:3] - [COMP-11][file-11.c][function-2][ln:470]
[2019-04-05 09:15:58,669][INFO] any info message - [id:10][instance:7] - [COMP-12][file-4.c][function-8][ln:676]
[2019-04-05 09:16:00,178][INFO] any info message - [id:10][instance:6] - [COMP-9][file-7.c][function-3][ln:365]
[2019-04-05 09:16:01,685][INFO] any info message - [id:10][instance:1] - [COMP-2][file-10.c][function-11][ln:971]
[2019-04-05 09:16:03,186][INFO] any info message - [id:10][instance:2] - [COMP-9][file-3.c][function-7][ln:858]
[2019-04-05 09:16:04,686][INFO] any info message - [id:10][instance:7] - [COMP-12][file-8.c][function-4][ln:629]
[2019-04-05 09:16:06,187][INFO] any info message - [id:10][instance:6] - [COMP-6][file-4.c][function-5][ln:851]
[2019-04-05 09:16:07,687][INFO] any info message - [id:10][instance:6] - [COMP-4][file-7.c][function-10][ln:314]
[2019-04-05 09:16:09,189][INFO] any info message - [id:10][instance:1] - [COMP-12][file-12.c][function-2][ln:540]
[2019-04-05 09:16:10,688][INFO] any info message - [id:10][instance:1] - [COMP-2][file-3.c][function-2][ln:338]
[2019-04-05 09:16:11,915][WARNING] Here is a warning message - [id:10][instance:5] - [COMP-10][file-5.c][function-4][ln:898]
[2019-04-05 09:16:11,918][DEBUG] any debug message - [id:10][instance:5] - [COMP-12][file-12.c][function-10][ln:80]
[2019-04-05 09:16:12,188][INFO] any info message - [id:10][instance:4] - [COMP-1][file-9.c][function-2][ln:736]
[2019-04-05 09:16:13,689][INFO] any info message - [id:10][instance:7] - [COMP-3][file-3.c][function-10][ln:32]
[2019-04-05 09:16:15,189][INFO] any info message - [id:10][instance:3] - [COMP-10][file-5.c][function-4][ln:749]
[2019-04-05 09:16:16,689][INFO] any info message - [id:10][instance:5] - [COMP-13][file-8.c][function-1][ln:136]
[2019-04-05 09:16:18,190][INFO] any info message - [id:10][instance:1] - [COMP-11][file-7.c][function-4][ln:776]
[2019-04-05 09:16:19,692][INFO] any info message - [id:10][instance:6] - [COMP-6][file-11.c][function-5][ln:820]
[2019-04-05 09:16:21,191][INFO] any info message - [id:10][instance:4] - [COMP-5][file-8.c][function-9][ln:515]
[2019-04-05 09:16:22,692][INFO] any info message - [id:10][instance:1] - [COMP-13][file-11.c][function-2][ln:655]
[2019-04-05 09:16:24,193][INFO] any info message - [id:10][instance:1] - [COMP-9][file-3.c][function-9][ln:553]
[2019-04-05 09:16:25,694][INFO] any info message - [id:10][instance:7] - [COMP-13][file-7.c][function-11][ln:353]
[2019-04-05 09:16:26,918][DEBUG] any debug message - [id:10][instance:6] - [COMP-9][file-2.c][function-2][ln:996]
[2019-04-05 09:16:27,195][INFO] any info message - [id:10][instance:2] - [COMP-6][file-5.c][function-12][ln:483]
[2019-04-05 09:16:28,696][INFO] any info message - [id:10][instance:6] - [COMP-8][file-12.c][function-13][ln:175]
[2019-04-05 09:16:30,196][INFO] any info message - [id:10][instance:4] - [COMP-6][file-12.c][function-9][ln:981]
[2019-04-05 09:16:31,696][INFO] any info message - [id:10][instance:1] - [COMP-10][file-1.c][function-9][ln:393]
[2019-04-05 09:16:33,198][INFO] any info message - [id:10][instance:1] - [COMP-13][file-3.c][function-11][ln:152]
[2019-04-05 09:16:34,700][INFO] any info message - [id:10][instance:2] - [COMP-11][file-5.c][function-7][ln:148]
[2019-04-05 09:16:36,200][INFO] any info message - [id:10][instance:7] - [COMP-1][file-1.c][function-13][ln:523]
[2019-04-05 09:16:37,709][INFO] any info message - [id:10][instance:2] - [COMP-10][file-7.c][function-2][ln:81]
[2019-04-05 09:16:39,208][INFO] any info message - [id:10][instance:3] - [COMP-10][file-8.c][function-1][ln:187]
[2019-04-05 09:16:40,709][INFO] any info message - [id:10][instance:4] - [COMP-3][file-13.c][function-13][ln:64]
[2019-04-05 09:16:41,912][ERROR] It is an error message - [id:10][instance:4] - [COMP-8][file-12.c][function-7][ln:75]
[2019-04-05 09:16:41,916][WARNING] Here is a warning message - [id:10][instance:2] - [COMP-2][file-12.c][function-9][ln:39]
[2019-04-05 09:16:41,920][DEBUG] any debug message - [id:10][instance:3] - [COMP-4][file-9.c][function-6][ln:349]
[2019-04-05 09:16:42,209][INFO] any info message - [id:10][instance:7] - [COMP-13][file-4.c][function-5][ln:578]
[2019-04-05 09:16:43,709][INFO] any info message - [id:10][instance:1] - [COMP-2][file-4.c][function-10][ln:285]
[2019-04-05 09:16:45,209][INFO] any info message - [id:10][instance:1] - [COMP-7][file-12.c][function-6][ln:777]
[2019-04-05 09:16:46,709][INFO] any info message - [id:10][instance:4] - [COMP-1][file-1.c][function-13][ln:401]
[2019-04-05 09:16:48,210][INFO] any info message - [id:10][instance:3] - [COMP-11][file-12.c][function-4][ln:80]
[2019-04-05 09:16:49,710][INFO] any info message - [id:10][instance:4] - [COMP-4][file-6.c][function-2][ln:57]
[2019-04-05 09:16:51,210][INFO] any info message - [id:10][instance:3] - [COMP-5][file-11.c][function-6][ln:674]
[2019-04-05 09:16:52,714][INFO] any info message - [id:10][instance:6] - [COMP-13][file-13.c][function-5][ln:865]
[2019-04-05 09:16:54,214][INFO] any info message - [id:10][instance:5] - [COMP-7][file-10.c][function-2][ln:66]
[2019-04-05 09:16:55,714][INFO] any info message - [id:10][instance:7] - [COMP-2][file-1.c][function-4][ln:93]
[2019-04-05 09:16:56,920][DEBUG] any debug message - [id:10][instance:3] - [COMP-9][file-4.c][function-9][ln:322]
[2019-04-05 09:16:57,215][INFO] any info message - [id:10][instance:7] - [COMP-3][file-5.c][function-6][ln:309]
[2019-04-05 09:16:58,715][INFO] any info message - [id:10][instance:1] - [COMP-10][file-4.c][function-8][ln:577]
[2019-04-05 09:17:00,215][INFO] any info message - [id:10][instance:6] - [COMP-2][file-7.c][function-7][ln:977]
[2019-04-05 09:17:01,716][INFO] any info message - [id:10][instance:2] - [COMP-9][file-12.c][function-2][ln:228]
[2019-04-05 09:17:03,217][INFO] any info message - [id:10][instance:4] - [COMP-12][file-3.c][function-2][ln:516]
[2019-04-05 09:17:04,717][INFO] any info message - [id:10][instance:5] - [COMP-2][file-9.c][function-11][ln:414]
[2019-04-05 09:17:06,217][INFO] any info message - [id:10][instance:3] - [COMP-11][file-13.c][function-5][ln:672]
[2019-04-05 09:17:07,717][INFO] any info message - [id:10][instance:6] - [COMP-2][file-11.c][function-6][ln:406]
[2019-04-05 09:17:09,217][INFO] any info message - [id:10][instance:4] - [COMP-2][file-8.c][function-2][ln:903]
[2019-04-05 09:17:10,717][INFO] any info message - [id:10][instance:6] - [COMP-11][file-6.c][function-12][ln:254]
[2019-04-05 09:17:11,916][WARNING] Here is a warning message - [id:10][instance:7] - [COMP-13][file-9.c][function-11][ln:441]
[2019-04-05 09:17:11,921][DEBUG] any debug message - [id:10][instance:5] - [COMP-9][file-10.c][function-11][ln:650]
[2019-04-05 09:17:12,219][INFO] any info message - [id:10][instance:1] - [COMP-3][file-7.c][function-3][ln:671]
[2019-04-05 09:17:13,719][INFO] any info message - [id:10][instance:7] - [COMP-13][file-11.c][function-2][ln:411]
[2019-04-05 09:17:15,219][INFO] any info message - [id:10][instance:6] - [COMP-2][file-1.c][function-3][ln:101]
[2019-04-05 09:17:16,719][INFO] any info message - [id:10][instance:4] - [COMP-3][file-11.c][function-7][ln:484]
[2019-04-05 09:17:18,219][INFO] any info message - [id:10][instance:1] - [COMP-8][file-3.c][function-6][ln:581]
[2019-04-05 09:17:19,721][INFO] any info message - [id:10][instance:3] - [COMP-6][file-3.c][function-1][ln:523]
[2019-04-05 09:17:21,221][INFO] any info message - [id:10][instance:3] - [COMP-10][file-1.c][function-9][ln:791]
[2019-04-05 09:17:22,724][INFO] any info message - [id:10][instance:5] - [COMP-2][file-4.c][function-1][ln:792]
[2019-04-05 09:17:24,225][INFO] any info message - [id:10][instance:2] - [COMP-8][file-12.c][function-6][ln:938]
[2019-04-05 09:17:25,726][INFO] any info message - [id:10][instance:4] - [COMP-6][file-8.c][function-12][ln:976]
[2019-04-05 09:17:26,923][DEBUG] any debug message - [id:10][instance:2] - [COMP-13][file-9.c][function-12][ln:841]
[2019-04-05 09:17:27,227][INFO] any info message - [id:10][instance:1] - [COMP-4][file-9.c][function-12][ln:80]
[2019-04-05 09:17:28,727][INFO] any info message - [id:10][instance:4] - [COMP-2][file-1.c][function-7][ln:32]
[2019-04-05 09:17:30,229][INFO] any info message - [id:10][instance:5] - [COMP-7][file-4.c][function-13][ln:658]
[2019-04-05 09:17:31,729][INFO] any info message - [id:10][instance:2] - [COMP-13][file-6.c][function-11][ln:351]
[2019-04-05 09:17:33,229][INFO] any info message - [id:10][instance:1] - [COMP-1][file-9.c][function-2][ln:891]
[2019-04-05 09:17:34,730][INFO] any info message - [id:10][instance:5] - [COMP-3][file-8.c][function-2][ln:959]
[2019-04-05 09:17:36,230][INFO] any info message - [id:10][instance:3] - [COMP-8][file-12.c][function-11][ln:410]
[2019-04-05 09:17:37,731][INFO] any info message - [id:10][instance:1] - [COMP-5][file-1.c][function-4][ln:189]
[2019-04-05 09:17:39,234][INFO] any info message - [id:10][instance:3] - [COMP-11][file-6.c][function-1][ln:192]
[2019-04-05 09:17:40,735][INFO] any info message - [id:10][instance:5] - [COMP-9][file-9.c][function-7][ln:502]
[2019-04-05 09:17:41,903][CRITICAL] ATTENTION: This is a critical issue! - [id:10][instance:7] - [COMP-2][file-9.c][function-3][ln:862]
