[2019-04-04 22:58:48,756][INFO] any info message - [id:10][instance:6] - [COMP-5][file-5.c][function-9][ln:32]
[2019-04-04 22:58:50,257][INFO] any info message - [id:10][instance:6] - [COMP-2][file-3.c][function-11][ln:698]
[2019-04-04 22:58:51,758][INFO] any info message - [id:10][instance:4] - [COMP-2][file-12.c][function-1][ln:515]
[2019-04-04 22:58:51,835][CRITICAL] ATTENTION: This is a critical issue! - [id:10][instance:1] - [COMP-10][file-4.c][function-1][ln:320]
[2019-04-04 22:58:51,878][ERROR] It is an error message - [id:10][instance:2] - [COMP-8][file-3.c][function-1][ln:459]
[2019-04-04 22:58:52,083][WARNING] Here is a warning message - [id:10][instance:7] - [COMP-2][file-10.c][function-3][ln:317]
[2019-04-04 22:58:52,293][DEBUG] any debug message - [id:10][instance:1] - [COMP-9][file-4.c][function-4][ln:383]
[2019-04-04 22:58:53,259][INFO] any info message - [id:10][instance:5] - [COMP-5][file-11.c][function-2][ln:552]
[2019-04-04 22:58:54,759][INFO] any info message - [id:10][instance:5] - [COMP-7][file-8.c][function-9][ln:9]
[2019-04-04 22:58:56,260][INFO] any info message - [id:10][instance:4] - [COMP-6][file-13.c][function-3][ln:812]
[2019-04-04 22:58:57,760][INFO] any info message - [id:10][instance:3] - [COMP-2][file-5.c][function-1][ln:552]
[2019-04-04 22:58:59,261][INFO] any info message - [id:10][instance:4] - [COMP-5][file-1.c][function-5][ln:330]
[2019-04-04 22:59:00,761][INFO] any info message - [id:10][instance:7] - [COMP-6][file-9.c][function-5][ln:998]
[2019-04-04 22:59:02,261][INFO] any info message - [id:10][instance:7] - [COMP-8][file-5.c][function-12][ln:730]
[2019-04-04 22:59:03,761][INFO] any info message - [id:10][instance:1] - [COMP-7][file-12.c][function-8][ln:830]
[2019-04-04 22:59:05,263][INFO] any info message - [id:10][instance:6] - [COMP-3][file-12.c][function-4][ln:989]
[2019-04-04 22:59:06,764][INFO] any info message - [id:10][instance:3] - [COMP-4][file-1.c][function-11][ln:9]
[2019-04-04 22:59:07,293][DEBUG] any debug message - [id:10][instance:1] - [COMP-11][file-13.c][function-8][ln:157]
[2019-04-04 22:59:08,264][INFO] any info message - [id:10][instance:6] - [COMP-2][file-9.c][function-4][ln:571]
[2019-04-04 22:59:09,766][INFO] any info message - [id:10][instance:4] - [COMP-13][file-3.c][function-10][ln:316]
[2019-04-04 22:59:11,267][INFO] any info message - [id:10][instance:6] - [COMP-6][file-8.c][function-8][ln:511]
[2019-04-04 22:59:12,768][INFO] any info message - [id:10][instance:1] - [COMP-9][file-10.c][function-8][ln:290]
[2019-04-04 22:59:14,269][INFO] any info message - [id:10][instance:5] - [COMP-5][file-7.c][function-8][ln:33]
[2019-04-04 22:59:15,770][INFO] any info message - [id:10][instance:6] - [COMP-7][file-10.c][function-4][ln:731]
[2019-04-04 22:59:17,270][INFO] any info message - [id:10][instance:3] - [COMP-2][file-4.c][function-12][ln:65]
[2019-04-04 22:59:18,772][INFO] any info message - [id:10][instance:6] - [COMP-1][file-13.c][function-11][ln:322]
[2019-04-04 22:59:20,273][INFO] any info message - [id:10][instance:7] - [COMP-12][file-8.c][function-7][ln:503]
[2019-04-04 22:59:21,772][INFO] any info message - [id:10][instance:3] - [COMP-5][file-3.c][function-8][ln:664]
[2019-04-04 22:59:22,084][WARNING] Here is a warning message - [id:10][instance:6] - [COMP-3][file-10.c][function-12][ln:981]
[2019-04-04 22:59:22,294][DEBUG] any debug message - [id:10][instance:1] - [COMP-3][file-1.c][function-6][ln:686]
[2019-04-04 22:59:23,272][INFO] any info message - [id:10][instance:3] - [COMP-13][file-10.c][function-1][ln:527]
[2019-04-04 22:59:24,775][INFO] any info message - [id:10][instance:4] - [COMP-1][file-3.c][function-3][ln:263]
[2019-04-04 22:59:26,277][INFO] any info message - [id:10][instance:1] - [COMP-3][file-2.c][function-6][ln:408]
[2019-04-04 22:59:27,776][INFO] any info message - [id:10][instance:5] - [COMP-7][file-3.c][function-1][ln:98]
[2019-04-04 22:59:29,279][INFO] any info message - [id:10][instance:5] - [COMP-13][file-12.c][function-12][ln:972]
[2019-04-04 22:59:30,780][INFO] any info message - [id:10][instance:3] - [COMP-13][file-1.c][function-5][ln:421]
[2019-04-04 22:59:32,281][INFO] any info message - [id:10][instance:1] - [COMP-13][file-6.c][function-7][ln:752]
[2019-04-04 22:59:33,781][INFO] any info message - [id:10][instance:3] - [COMP-4][file-1.c][function-1][ln:126]
[2019-04-04 22:59:35,284][INFO] any info message - [id:10][instance:1] - [COMP-11][file-6.c][function-9][ln:566]
[2019-04-04 22:59:36,786][INFO] any info message - [id:10][instance:3] - [COMP-12][file-7.c][function-9][ln:48]
[2019-04-04 22:59:37,296][DEBUG] any debug message - [id:10][instance:1] - [COMP-2][file-6.c][function-9][ln:712]
[2019-04-04 22:59:38,299][INFO] any info message - [id:10][instance:7] - [COMP-5][file-2.c][function-6][ln:115]
[2019-04-04 22:59:39,800][INFO] any info message - [id:10][instance:5] - [COMP-13][file-4.c][function-3][ln:751]
[2019-04-04 22:59:41,303][INFO] any info message - [id:10][instance:2] - [COMP-11][file-3.c][function-5][ln:210]
[2019-04-04 22:59:42,804][INFO] any info message - [id:10][instance:6] - [COMP-4][file-10.c][function-12][ln:381]
[2019-04-04 22:59:44,304][INFO] any info message - [id:10][instance:2] - [COMP-8][file-11.c][function-3][ln:891]
[2019-04-04 22:59:45,805][INFO] any info message - [id:10][instance:5] - [COMP-6][file-4.c][function-10][ln:199]
[2019-04-04 22:59:47,306][INFO] any info message - [id:10][instance:5] - [COMP-7][file-10.c][function-6][ln:138]
[2019-04-04 22:59:48,810][INFO] any info message - [id:10][instance:7] - [COMP-3][file-9.c][function-13][ln:374]
[2019-04-04 22:59:50,311][INFO] any info message - [id:10][instance:4] - [COMP-4][file-7.c][function-3][ln:495]
[2019-04-04 22:59:51,812][INFO] any info message - [id:10][instance:6] - [COMP-13][file-6.c][function-1][ln:605]
[2019-04-04 22:59:51,878][ERROR] It is an error message - [id:10][instance:1] - [COMP-7][file-3.c][function-12][ln:21]
[2019-04-04 22:59:52,084][WARNING] Here is a warning message - [id:10][instance:2] - [COMP-9][file-3.c][function-2][ln:859]
[2019-04-04 22:59:52,297][DEBUG] any debug message - [id:10][instance:1] - [COMP-3][file-7.c][function-3][ln:945]
[2019-04-04 22:59:53,314][INFO] any info message - [id:10][instance:4] - [COMP-4][file-1.c][function-9][ln:106]
[2019-04-04 22:59:54,814][INFO] any info message - [id:10][instance:2] - [COMP-12][file-5.c][function-11][ln:566]
[2019-04-04 22:59:56,315][INFO] any info message - [id:10][instance:5] - [COMP-4][file-7.c][function-8][ln:243]
[2019-04-04 22:59:57,816][INFO] any info message - [id:10][instance:3] - [COMP-4][file-13.c][function-4][ln:328]
[2019-04-04 22:59:59,321][INFO] any info message - [id:10][instance:2] - [COMP-4][file-5.c][function-13][ln:154]
[2019-04-04 23:00:00,822][INFO] any info message - [id:10][instance:1] - [COMP-10][file-1.c][function-12][ln:589]
[2019-04-04 23:00:02,323][INFO] any info message - [id:10][instance:2] - [COMP-12][file-13.c][function-3][ln:66]
[2019-04-04 23:00:03,824][INFO] any info message - [id:10][instance:3] - [COMP-7][file-11.c][function-8][ln:734]
[2019-04-04 23:00:05,326][INFO] any info message - [id:10][instance:3] - [COMP-1][file-8.c][function-4][ln:822]
[2019-04-04 23:00:06,827][INFO] any info message - [id:10][instance:7] - [COMP-10][file-3.c][function-13][ln:179]
[2019-04-04 23:00:07,298][DEBUG] any debug message - [id:10][instance:5] - [COMP-9][file-8.c][function-8][ln:371]
[2019-04-04 23:00:08,328][INFO] any info message - [id:10][instance:6] - [COMP-4][file-10.c][function-2][ln:972]
[2019-04-04 23:00:09,828][INFO] any info message - [id:10][instance:7] - [COMP-9][file-7.c][function-5][ln:820]
[2019-04-04 23:00:11,330][INFO] any info message - [id:10][instance:2] - [COMP-12][file-9.c][function-3][ln:287]
[2019-04-04 23:00:12,832][INFO] any info message - [id:10][instance:3] - [COMP-8][file-13.c][function-4][ln:737]
[2019-04-04 23:00:14,332][INFO] any info message - [id:10][instance:3] - [COMP-7][file-7.c][function-11][ln:892]
[2019-04-04 23:00:15,833][INFO] any info message - [id:10][instance:2] - [COMP-6][file-9.c][function-13][ln:851]
[2019-04-04 23:00:17,333][INFO] any info message - [id:10][instance:4] - [COMP-9][file-8.c][function-4][ln:129]
[2019-04-04 23:00:18,834][INFO] any info message - [id:10][instance:5] - [COMP-5][file-13.c][function-7][ln:610]
[2019-04-04 23:00:20,334][INFO] any info message - [id:10][instance:5] - [COMP-9][file-7.c][function-1][ln:434]
[2019-04-04 23:00:21,836][INFO] any info message - [id:10][instance:5] - [COMP-1][file-3.c][function-9][ln:307]
[2019-04-04 23:00:22,086][WARNING] Here is a warning message - [id:10][instance:2] - [COMP-6][file-1.c][function-8][ln:153]
[2019-04-04 23:00:22,300][DEBUG] any debug message - [id:10][instance:2] - [COMP-10][file-1.c][function-8][ln:130]
[2019-04-04 23:00:23,337][INFO] any info message - [id:10][instance:3] - [COMP-10][file-12.c][function-9][ln:160]
[2019-04-04 23:00:24,839][INFO] any info message - [id:10][instance:5] - [COMP-12][file-1.c][function-11][ln:164]
[2019-04-04 23:00:26,339][INFO] any info message - [id:10][instance:6] - [COMP-13][file-1.c][function-8][ln:413]
[2019-04-04 23:00:27,841][INFO] any info message - [id:10][instance:5] - [COMP-2][file-11.c][function-7][ln:526]
[2019-04-04 23:00:29,342][INFO] any info message - [id:10][instance:3] - [COMP-1][file-6.c][function-12][ln:453]
[2019-04-04 23:00:30,842][INFO] any info message - [id:10][instance:7] - [COMP-4][file-5.c][function-8][ln:278]
[2019-04-04 23:00:32,343][INFO] any info message - [id:10][instance:5] - [COMP-1][file-4.c][function-1][ln:358]
[2019-04-04 23:00:33,846][INFO] any info message - [id:10][instance:1] - [COMP-11][file-9.c][function-5][ln:156]
[2019-04-04 23:00:35,346][INFO] any info message - [id:10][instance:5] - [COMP-8][file-12.c][function-12][ln:445]
[2019-04-04 23:00:36,849][INFO] any info message - [id:10][instance:3] - [COMP-3][file-13.c][function-2][ln:410]
[2019-04-04 23:00:37,301][DEBUG] any debug message - [id:10][instance:5] - [COMP-3][file-8.c][function-11][ln:82]
[2019-04-04 23:00:38,349][INFO] any info message - [id:10][instance:6] - [COMP-11][file-1.c][function-2][ln:518]
[2019-04-04 23:00:39,850][INFO] any info message - [id:10][instance:4] - [COMP-11][file-11.c][function-9][ln:184]
[2019-04-04 23:00:41,350][INFO] any info message - [id:10][instance:1] - [COMP-13][file-4.c][function-3][ln:585]
[2019-04-04 23:00:42,851][INFO] any info message - [id:10][instance:5] - [COMP-4][file-4.c][function-5][ln:989]
[2019-04-04 23:00:44,357][INFO] any info message - [id:10][instance:3] - [COMP-12][file-7.c][function-9][ln:928]
[2019-04-04 23:00:45,860][INFO] any info message - [id:10][instance:3] - [COMP-8][file-12.c][function-9][ln:909]
[2019-04-04 23:00:47,361][INFO] any info message - [id:10][instance:3] - [COMP-5][file-10.c][function-4][ln:899]
[2019-04-04 23:00:48,861][INFO] any info message - [id:10][instance:3] - [COMP-7][file-9.c][function-3][ln:226]
[2019-04-04 23:00:50,362][INFO] any info message - [id:10][instance:5] - [COMP-11][file-13.c][function-11][ln:471]
[2019-04-04 23:00:51,836][CRITICAL] ATTENTION: This is a critical issue! - [id:10][instance:3] - [COMP-6][file-1.c][function-8][ln:112]
[2019-04-04 23:00:51,863][INFO] any info message - [id:10][instance:4] - [COMP-12][file-1.c][function-9][ln:367]
[2019-04-04 23:00:51,879][ERROR] It is an error message - [id:10][instance:6] - [COMP-4][file-9.c][function-11][ln:95]
[2019-04-04 23:00:52,087][WARNING] Here is a warning message - [id:10][instance:6] - [COMP-11][file-3.c][function-6][ln:789]
[2019-04-04 23:00:52,302][DEBUG] any debug message - [id:10][instance:4] - [COMP-4][file-8.c][function-4][ln:306]
[2019-04-04 23:00:53,363][INFO] any info message - [id:10][instance:7] - [COMP-10][file-13.c][function-13][ln:18]
[2019-04-04 23:00:54,864][INFO] any info message - [id:10][instance:7] - [COMP-3][file-12.c][function-10][ln:771]
[2019-04-04 23:00:56,365][INFO] any info message - [id:10][instance:5] - [COMP-1][file-4.c][function-4][ln:953]
[2019-04-04 23:00:57,866][INFO] any info message - [id:10][instance:7] - [COMP-3][file-8.c][function-11][ln:250]
[2019-04-04 23:00:59,366][INFO] any info message - [id:10][instance:1] - [COMP-1][file-8.c][function-11][ln:997]
[2019-04-04 23:01:00,868][INFO] any info message - [id:10][instance:2] - [COMP-2][file-7.c][function-1][ln:907]
[2019-04-04 23:01:02,368][INFO] any info message - [id:10][instance:1] - [COMP-8][file-8.c][function-5][ln:840]
[2019-04-04 23:01:03,869][INFO] any info message - [id:10][instance:6] - [COMP-6][file-4.c][function-9][ln:890]
[2019-04-04 23:01:05,370][INFO] any info message - [id:10][instance:6] - [COMP-2][file-6.c][function-4][ln:258]
[2019-04-04 23:01:06,870][INFO] any info message - [id:10][instance:6] - [COMP-6][file-3.c][function-3][ln:322]
[2019-04-04 23:01:07,302][DEBUG] any debug message - [id:10][instance:7] - [COMP-11][file-11.c][function-3][ln:452]
[2019-04-04 23:01:08,370][INFO] any info message - [id:10][instance:3] - [COMP-9][file-10.c][function-8][ln:936]
[2019-04-04 23:01:09,872][INFO] any info message - [id:10][instance:6] - [COMP-9][file-7.c][function-8][ln:407]
[2019-04-04 23:01:11,372][INFO] any info message - [id:10][instance:3] - [COMP-12][file-9.c][function-1][ln:424]
[2019-04-04 23:01:12,872][INFO] any info message - [id:10][instance:4] - [COMP-13][file-11.c][function-7][ln:881]
[2019-04-04 23:01:14,373][INFO] any info message - [id:10][instance:4] - [COMP-13][file-8.c][function-13][ln:189]
[2019-04-04 23:01:15,874][INFO] any info message - [id:10][instance:3] - [COMP-8][file-8.c][function-9][ln:520]
[2019-04-04 23:01:17,375][INFO] any info message - [id:10][instance:7] - [COMP-13][file-12.c][function-3][ln:245]
[2019-04-04 23:01:18,876][INFO] any info message - [id:10][instance:7] - [COMP-12][file-4.c][function-8][ln:236]
[2019-04-04 23:01:20,377][INFO] any info message - [id:10][instance:4] - [COMP-1][file-2.c][function-5][ln:308]
[2019-04-04 23:01:21,878][INFO] any info message - [id:10][instance:3] - [COMP-2][file-10.c][function-11][ln:225]
[2019-04-04 23:01:22,089][WARNING] Here is a warning message - [id:10][instance:3] - [COMP-12][file-6.c][function-5][ln:855]
[2019-04-04 23:01:22,304][DEBUG] any debug message - [id:10][instance:5] - [COMP-2][file-7.c][function-12][ln:798]
[2019-04-04 23:01:23,378][INFO] any info message - [id:10][instance:3] - [COMP-6][file-6.c][function-12][ln:784]
[2019-04-04 23:01:24,880][INFO] any info message - [id:10][instance:7] - [COMP-5][file-5.c][function-7][ln:550]
[2019-04-04 23:01:26,381][INFO] any info message - [id:10][instance:5] - [COMP-6][file-12.c][function-13][ln:522]
[2019-04-04 23:01:27,881][INFO] any info message - [id:10][instance:5] - [COMP-2][file-3.c][function-5][ln:16]
[2019-04-04 23:01:29,382][INFO] any info message - [id:10][instance:3] - [COMP-2][file-9.c][function-12][ln:885]
[2019-04-04 23:01:30,884][INFO] any info message - [id:10][instance:3] - [COMP-5][file-9.c][function-3][ln:348]
[2019-04-04 23:01:32,385][INFO] any info message - [id:10][instance:5] - [COMP-10][file-5.c][function-5][ln:872]
[2019-04-04 23:01:33,887][INFO] any info message - [id:10][instance:4] - [COMP-12][file-8.c][function-1][ln:669]
[2019-04-04 23:01:35,388][INFO] any info message - [id:10][instance:3] - [COMP-8][file-13.c][function-7][ln:95]
[2019-04-04 23:01:36,889][INFO] any info message - [id:10][instance:5] - [COMP-10][file-11.c][function-2][ln:221]
[2019-04-04 23:01:37,305][DEBUG] any debug message - [id:10][instance:5] - [COMP-12][file-2.c][function-2][ln:489]
[2019-04-04 23:01:38,391][INFO] any info message - [id:10][instance:5] - [COMP-4][file-10.c][function-12][ln:287]
[2019-04-04 23:01:39,892][INFO] any info message - [id:10][instance:2] - [COMP-2][file-9.c][function-3][ln:2]
[2019-04-04 23:01:41,393][INFO] any info message - [id:10][instance:1] - [COMP-8][file-4.c][function-8][ln:524]
[2019-04-04 23:01:42,894][INFO] any info message - [id:10][instance:7] - [COMP-9][file-6.c][function-1][ln:235]
[2019-04-04 23:01:44,395][INFO] any info message - [id:10][instance:2] - [COMP-7][file-8.c][function-10][ln:649]
[2019-04-04 23:01:45,896][INFO] any info message - [id:10][instance:6] - [COMP-13][file-12.c][function-2][ln:836]
[2019-04-04 23:01:47,396][INFO] any info message - [id:10][instance:4] - [COMP-5][file-4.c][function-9][ln:606]
[2019-04-04 23:01:48,896][INFO] any info message - [id:10][instance:2] - [COMP-10][file-11.c][function-6][ln:15]
[2019-04-04 23:01:50,397][INFO] any info message - [id:10][instance:7] - [COMP-13][file-3.c][function-6][ln:944]
[2019-04-04 23:01:51,880][ERROR] It is an error message - [id:10][instance:5] - [COMP-3][file-2.c][function-13][ln:218]
[2019-04-04 23:01:51,897][INFO] any info message - [id:10][instance:6] - [COMP-4][file-4.c][function-11][ln:556]
[2019-04-04 23:01:52,090][WARNING] Here is a warning message - [id:10][instance:6] - [COMP-6][file-1.c][function-9][ln:716]
[2019-04-04 23:01:52,306][DEBUG] any debug message - [id:10][instance:5] - [COMP-10][file-7.c][function-8][ln:234]
[2019-04-04 23:01:53,397][INFO] any info message - [id:10][instance:3] - [COMP-4][file-6.c][function-9][ln:344]
[2019-04-04 23:01:54,898][INFO] any info message - [id:10][instance:5] - [COMP-12][file-2.c][function-3][ln:687]
[2019-04-04 23:01:56,399][INFO] any info message - [id:10][instance:5] - [COMP-12][file-4.c][function-12][ln:536]
[2019-04-04 23:01:57,899][INFO] any info message - [id:10][instance:2] - [COMP-5][file-2.c][function-9][ln:937]
[2019-04-04 23:01:59,400][INFO] any info message - [id:10][instance:6] - [COMP-10][file-5.c][function-2][ln:953]
[2019-04-04 23:02:00,900][INFO] any info message - [id:10][instance:4] - [COMP-9][file-1.c][function-12][ln:345]
[2019-04-04 23:02:02,400][INFO] any info message - [id:10][instance:3] - [COMP-12][file-7.c][function-4][ln:604]
[2019-04-04 23:02:03,901][INFO] any info message - [id:10][instance:6] - [COMP-3][file-12.c][function-9][ln:408]
[2019-04-04 23:02:05,401][INFO] any info message - [id:10][instance:7] - [COMP-12][file-12.c][function-1][ln:746]
[2019-04-04 23:02:06,902][INFO] any info message - [id:10][instance:7] - [COMP-10][file-6.c][function-7][ln:632]
[2019-04-04 23:02:07,308][DEBUG] any debug message - [id:10][instance:4] - [COMP-7][file-4.c][function-8][ln:825]
[2019-04-04 23:02:08,404][INFO] any info message - [id:10][instance:2] - [COMP-12][file-12.c][function-1][ln:779]
[2019-04-04 23:02:09,905][INFO] any info message - [id:10][instance:5] - [COMP-2][file-3.c][function-7][ln:320]
[2019-04-04 23:02:11,407][INFO] any info message - [id:10][instance:4] - [COMP-4][file-10.c][function-6][ln:493]
[2019-04-04 23:02:12,907][INFO] any info message - [id:10][instance:1] - [COMP-7][file-7.c][function-10][ln:49]
[2019-04-04 23:02:14,409][INFO] any info message - [id:10][instance:7] - [COMP-9][file-1.c][function-2][ln:988]
[2019-04-04 23:02:15,909][INFO] any info message - [id:10][instance:7] - [COMP-5][file-4.c][function-9][ln:186]
[2019-04-04 23:02:17,411][INFO] any info message - [id:10][instance:6] - [COMP-7][file-1.c][function-8][ln:57]
[2019-04-04 23:02:18,912][INFO] any info message - [id:10][instance:3] - [COMP-3][file-8.c][function-6][ln:84]
[2019-04-04 23:02:20,412][INFO] any info message - [id:10][instance:3] - [COMP-12][file-9.c][function-2][ln:510]
[2019-04-04 23:02:21,913][INFO] any info message - [id:10][instance:5] - [COMP-7][file-4.c][function-8][ln:684]
[2019-04-04 23:02:22,091][WARNING] Here is a warning message - [id:10][instance:4] - [COMP-5][file-9.c][function-8][ln:872]
[2019-04-04 23:02:22,308][DEBUG] any debug message - [id:10][instance:6] - [COMP-1][file-11.c][function-13][ln:193]
[2019-04-04 23:02:23,415][INFO] any info message - [id:10][instance:1] - [COMP-4][file-1.c][function-4][ln:372]
[2019-04-04 23:02:24,915][INFO] any info message - [id:10][instance:6] - [COMP-4][file-12.c][function-5][ln:464]
[2019-04-04 23:02:26,417][INFO] any info message - [id:10][instance:3] - [COMP-10][file-8.c][function-10][ln:727]
[2019-04-04 23:02:27,917][INFO] any info message - [id:10][instance:5] - [COMP-10][file-9.c][function-1][ln:821]
[2019-04-04 23:02:29,419][INFO] any info message - [id:10][instance:7] - [COMP-9][file-10.c][function-5][ln:887]
[2019-04-04 23:02:30,920][INFO] any info message - [id:10][instance:4] - [COMP-4][file-6.c][function-7][ln:648]
[2019-04-04 23:02:32,423][INFO] any info message - [id:10][instance:4] - [COMP-1][file-11.c][function-3][ln:619]
[2019-04-04 23:02:33,924][INFO] any info message - [id:10][instance:7] - [COMP-11][file-2.c][function-5][ln:750]
[2019-04-04 23:02:35,425][INFO] any info message - [id:10][instance:6] - [COMP-6][file-1.c][function-7][ln:884]
[2019-04-04 23:02:36,926][INFO] any info message - [id:10][instance:6] - [COMP-9][file-1.c][function-8][ln:215]
[2019-04-04 23:02:37,310][DEBUG] any debug message - [id:10][instance:2] - [COMP-13][file-11.c][function-3][ln:474]
[2019-04-04 23:02:38,427][INFO] any info message - [id:10][instance:2] - [COMP-13][file-7.c][function-11][ln:825]
[2019-04-04 23:02:39,928][INFO] any info message - [id:10][instance:5] - [COMP-7][file-13.c][function-10][ln:269]
[2019-04-04 23:02:41,429][INFO] any info message - [id:10][instance:1] - [COMP-4][file-12.c][function-7][ln:589]
[2019-04-04 23:02:42,931][INFO] any info message - [id:10][instance:5] - [COMP-12][file-8.c][function-7][ln:206]
[2019-04-04 23:02:44,432][INFO] any info message - [id:10][instance:6] - [COMP-10][file-13.c][function-5][ln:927]
[2019-04-04 23:02:45,933][INFO] any info message - [id:10][instance:2] - [COMP-5][file-7.c][function-9][ln:160]
[2019-04-04 23:02:47,434][INFO] any info message - [id:10][instance:5] - [COMP-6][file-6.c][function-4][ln:613]
[2019-04-04 23:02:48,939][INFO] any info message - [id:10][instance:6] - [COMP-7][file-12.c][function-5][ln:159]
[2019-04-04 23:02:50,440][INFO] any info message - [id:10][instance:3] - [COMP-13][file-1.c][function-12][ln:291]
[2019-04-04 23:02:51,837][CRITICAL] ATTENTION: This is a critical issue! - [id:10][instance:4] - [COMP-12][file-9.c][function-11][ln:236]
[2019-04-04 23:02:51,881][ERROR] It is an error message - [id:10][instance:2] - [COMP-6][file-8.c][function-10][ln:956]
[2019-04-04 23:02:51,940][INFO] any info message - [id:10][instance:3] - [COMP-12][file-10.c][function-5][ln:918]
[2019-04-04 23:02:52,091][WARNING] Here is a warning message - [id:10][instance:4] - [COMP-11][file-5.c][function-13][ln:700]
[2019-04-04 23:02:52,311][DEBUG] any debug message - [id:10][instance:7] - [COMP-11][file-4.c][function-6][ln:567]
[2019-04-04 23:02:53,440][INFO] any info message - [id:10][instance:4] - [COMP-13][file-4.c][function-12][ln:97]
[2019-04-04 23:02:54,942][INFO] any info message - [id:10][instance:6] - [COMP-3][file-1.c][function-2][ln:477]
[2019-04-04 23:02:56,442][INFO] any info message - [id:10][instance:4] - [COMP-9][file-10.c][function-8][ln:218]
[2019-04-04 23:02:57,943][INFO] any info message - [id:10][instance:1] - [COMP-9][file-8.c][function-10][ln:301]
[2019-04-04 23:02:59,443][INFO] any info message - [id:10][instance:3] - [COMP-13][file-11.c][function-12][ln:866]
[2019-04-04 23:03:00,944][INFO] any info message - [id:10][instance:4] - [COMP-1][file-4.c][function-5][ln:415]
[2019-04-04 23:03:02,475][INFO] any info message - [id:10][instance:3] - [COMP-1][file-8.c][function-3][ln:901]
[2019-04-04 23:03:03,977][INFO] any info message - [id:10][instance:3] - [COMP-6][file-1.c][function-13][ln:822]
[2019-04-04 23:03:05,478][INFO] any info message - [id:10][instance:7] - [COMP-1][file-11.c][function-13][ln:807]
[2019-04-04 23:03:06,979][INFO] any info message - [id:10][instance:5] - [COMP-2][file-7.c][function-13][ln:4]
[2019-04-04 23:03:07,312][DEBUG] any debug message - [id:10][instance:6] - [COMP-9][file-4.c][function-12][ln:865]
[2019-04-04 23:03:08,480][INFO] any info message - [id:10][instance:2] - [COMP-2][file-3.c][function-13][ln:41]
[2019-04-04 23:03:09,982][INFO] any info message - [id:10][instance:7] - [COMP-5][file-11.c][function-9][ln:228]
[2019-04-04 23:03:11,484][INFO] any info message - [id:10][instance:7] - [COMP-12][file-5.c][function-3][ln:715]
[2019-04-04 23:03:12,985][INFO] any info message - [id:10][instance:2] - [COMP-9][file-3.c][function-12][ln:636]
[2019-04-04 23:03:14,485][INFO] any info message - [id:10][instance:4] - [COMP-1][file-11.c][function-7][ln:607]
[2019-04-04 23:03:15,986][INFO] any info message - [id:10][instance:1] - [COMP-10][file-10.c][function-4][ln:144]
[2019-04-04 23:03:17,489][INFO] any info message - [id:10][instance:4] - [COMP-2][file-4.c][function-1][ln:939]
[2019-04-04 23:03:18,989][INFO] any info message - [id:10][instance:7] - [COMP-5][file-1.c][function-6][ln:992]
[2019-04-04 23:03:20,491][INFO] any info message - [id:10][instance:4] - [COMP-11][file-9.c][function-3][ln:281]
[2019-04-04 23:03:21,992][INFO] any info message - [id:10][instance:3] - [COMP-3][file-8.c][function-11][ln:965]
[2019-04-04 23:03:22,092][WARNING] Here is a warning message - [id:10][instance:1] - [COMP-8][file-8.c][function-2][ln:382]
[2019-04-04 23:03:22,313][DEBUG] any debug message - [id:10][instance:5] - [COMP-1][file-2.c][function-4][ln:857]
[2019-04-04 23:03:23,492][INFO] any info message - [id:10][instance:3] - [COMP-9][file-3.c][function-10][ln:18]
[2019-04-04 23:03:24,993][INFO] any info message - [id:10][instance:1] - [COMP-10][file-1.c][function-2][ln:867]
[2019-04-04 23:03:26,495][INFO] any info message - [id:10][instance:7] - [COMP-5][file-6.c][function-8][ln:619]
[2019-04-04 23:03:27,996][INFO] any info message - [id:10][instance:7] - [COMP-11][file-11.c][function-13][ln:334]
[2019-04-04 23:03:29,496][INFO] any info message - [id:10][instance:6] - [COMP-13][file-6.c][function-13][ln:683]
[2019-04-04 23:03:30,998][INFO] any info message - [id:10][instance:1] - [COMP-2][file-13.c][function-6][ln:812]
[2019-04-04 23:03:32,499][INFO] any info message - [id:10][instance:6] - [COMP-7][file-13.c][function-8][ln:57]
[2019-04-04 23:03:34,000][INFO] any info message - [id:10][instance:5] - [COMP-10][file-12.c][function-4][ln:422]
[2019-04-04 23:03:35,501][INFO] any info message - [id:10][instance:3] - [COMP-10][file-11.c][function-13][ln:958]
[2019-04-04 23:03:37,002][INFO] any info message - [id:10][instance:4] - [COMP-9][file-11.c][function-1][ln:986]
[2019-04-04 23:03:37,315][DEBUG] any debug message - [id:10][instance:6] - [COMP-10][file-7.c][function-3][ln:630]
[2019-04-04 23:03:38,503][INFO] any info message - [id:10][instance:7] - [COMP-13][file-10.c][function-12][ln:673]
[2019-04-04 23:03:40,005][INFO] any info message - [id:10][instance:7] - [COMP-8][file-11.c][function-3][ln:677]
[2019-04-04 23:03:41,506][INFO] any info message - [id:10][instance:1] - [COMP-6][file-8.c][function-7][ln:693]
[2019-04-04 23:03:43,006][INFO] any info message - [id:10][instance:6] - [COMP-13][file-4.c][function-13][ln:537]
[2019-04-04 23:03:44,508][INFO] any info message - [id:10][instance:3] - [COMP-12][file-12.c][function-11][ln:466]
[2019-04-04 23:03:46,010][INFO] any info message - [id:10][instance:2] - [COMP-2][file-7.c][function-5][ln:345]
[2019-04-04 23:03:47,510][INFO] any info message - [id:10][instance:1] - [COMP-1][file-13.c][function-1][ln:255]
[2019-04-04 23:03:49,011][INFO] any info message - [id:10][instance:6] - [COMP-2][file-12.c][function-5][ln:109]
[2019-04-04 23:03:50,512][INFO] any info message - [id:10][instance:5] - [COMP-4][file-4.c][function-10][ln:469]
[2019-04-04 23:03:51,882][ERROR] It is an error message - [id:10][instance:3] - [COMP-11][file-13.c][function-5][ln:425]
[2019-04-04 23:03:52,013][INFO] any info message - [id:10][instance:5] - [COMP-3][file-3.c][function-1][ln:128]
[2019-04-04 23:03:52,093][WARNING] Here is a warning message - [id:10][instance:5] - [COMP-13][file-13.c][function-12][ln:573]
[2019-04-04 23:03:52,316][DEBUG] any debug message - [id:10][instance:6] - [COMP-9][file-5.c][function-5][ln:462]
[2019-04-04 23:03:53,515][INFO] any info message - [id:10][instance:2] - [COMP-9][file-10.c][function-9][ln:128]
[2019-04-04 23:03:55,016][INFO] any info message - [id:10][instance:2] - [COMP-5][file-11.c][function-1][ln:526]
[2019-04-04 23:03:56,517][INFO] any info message - [id:10][instance:3] - [COMP-8][file-9.c][function-3][ln:950]
[2019-04-04 23:03:58,019][INFO] any info message - [id:10][instance:3] - [COMP-5][file-13.c][function-1][ln:908]
[2019-04-04 23:03:59,520][INFO] any info message - [id:10][instance:6] - [COMP-1][file-12.c][function-7][ln:936]
[2019-04-04 23:04:01,021][INFO] any info message - [id:10][instance:5] - [COMP-1][file-12.c][function-5][ln:713]
[2019-04-04 23:04:02,522][INFO] any info message - [id:10][instance:4] - [COMP-2][file-2.c][function-5][ln:110]
[2019-04-04 23:04:04,022][INFO] any info message - [id:10][instance:1] - [COMP-9][file-4.c][function-12][ln:255]
[2019-04-04 23:04:05,523][INFO] any info message - [id:10][instance:2] - [COMP-2][file-10.c][function-6][ln:818]
[2019-04-04 23:04:07,023][INFO] any info message - [id:10][instance:2] - [COMP-7][file-13.c][function-7][ln:870]
[2019-04-04 23:04:07,317][DEBUG] any debug message - [id:10][instance:3] - [COMP-10][file-6.c][function-12][ln:535]
[2019-04-04 23:04:08,524][INFO] any info message - [id:10][instance:5] - [COMP-8][file-4.c][function-10][ln:394]
[2019-04-04 23:04:10,025][INFO] any info message - [id:10][instance:2] - [COMP-6][file-6.c][function-1][ln:981]
[2019-04-04 23:04:11,525][INFO] any info message - [id:10][instance:5] - [COMP-2][file-6.c][function-9][ln:153]
[2019-04-04 23:04:13,027][INFO] any info message - [id:10][instance:2] - [COMP-12][file-5.c][function-10][ln:425]
[2019-04-04 23:04:14,528][INFO] any info message - [id:10][instance:6] - [COMP-8][file-4.c][function-7][ln:215]
[2019-04-04 23:04:16,028][INFO] any info message - [id:10][instance:1] - [COMP-8][file-5.c][function-1][ln:473]
[2019-04-04 23:04:17,529][INFO] any info message - [id:10][instance:2] - [COMP-8][file-8.c][function-12][ln:748]
[2019-04-04 23:04:19,030][INFO] any info message - [id:10][instance:5] - [COMP-2][file-13.c][function-12][ln:866]
[2019-04-04 23:04:20,530][INFO] any info message - [id:10][instance:5] - [COMP-7][file-2.c][function-5][ln:184]
[2019-04-04 23:04:22,032][INFO] any info message - [id:10][instance:4] - [COMP-2][file-4.c][function-5][ln:769]
[2019-04-04 23:04:22,094][WARNING] Here is a warning message - [id:10][instance:1] - [COMP-11][file-10.c][function-8][ln:657]
[2019-04-04 23:04:22,317][DEBUG] any debug message - [id:10][instance:5] - [COMP-10][file-12.c][function-11][ln:591]
[2019-04-04 23:04:23,534][INFO] any info message - [id:10][instance:6] - [COMP-8][file-8.c][function-2][ln:489]
[2019-04-04 23:04:25,033][INFO] any info message - [id:10][instance:2] - [COMP-8][file-4.c][function-9][ln:382]
[2019-04-04 23:04:26,533][INFO] any info message - [id:10][instance:2] - [COMP-9][file-1.c][function-8][ln:84]
[2019-04-04 23:04:28,034][INFO] any info message - [id:10][instance:2] - [COMP-9][file-10.c][function-6][ln:989]
[2019-04-04 23:04:29,534][INFO] any info message - [id:10][instance:4] - [COMP-12][file-9.c][function-5][ln:665]
[2019-04-04 23:04:31,034][INFO] any info message - [id:10][instance:2] - [COMP-13][file-11.c][function-9][ln:745]
[2019-04-04 23:04:32,535][INFO] any info message - [id:10][instance:7] - [COMP-6][file-7.c][function-8][ln:100]
[2019-04-04 23:04:34,035][INFO] any info message - [id:10][instance:6] - [COMP-11][file-5.c][function-3][ln:188]
[2019-04-04 23:04:35,536][INFO] any info message - [id:10][instance:2] - [COMP-8][file-7.c][function-1][ln:296]
[2019-04-04 23:04:37,036][INFO] any info message - [id:10][instance:2] - [COMP-10][file-6.c][function-12][ln:270]
[2019-04-04 23:04:37,322][DEBUG] any debug message - [id:10][instance:2] - [COMP-4][file-6.c][function-7][ln:18]
[2019-04-04 23:04:38,537][INFO] any info message - [id:10][instance:2] - [COMP-13][file-6.c][function-7][ln:440]
[2019-04-04 23:04:40,038][INFO] any info message - [id:10][instance:5] - [COMP-9][file-13.c][function-3][ln:881]
[2019-04-04 23:04:41,538][INFO] any info message - [id:10][instance:3] - [COMP-11][file-13.c][function-9][ln:312]
[2019-04-04 23:04:43,039][INFO] any info message - [id:10][instance:2] - [COMP-4][file-9.c][function-12][ln:734]
[2019-04-04 23:04:44,539][INFO] any info message - [id:10][instance:6] - [COMP-10][file-8.c][function-10][ln:296]
[2019-04-04 23:04:46,040][INFO] any info message - [id:10][instance:6] - [COMP-6][file-1.c][function-4][ln:969]
[2019-04-04 23:04:47,540][INFO] any info message - [id:10][instance:3] - [COMP-4][file-3.c][function-11][ln:526]
[2019-04-04 23:04:49,040][INFO] any info message - [id:10][instance:4] - [COMP-10][file-9.c][function-13][ln:302]
[2019-04-04 23:04:50,540][INFO] any info message - [id:10][instance:4] - [COMP-12][file-11.c][function-2][ln:295]
[2019-04-04 23:04:51,838][CRITICAL] ATTENTION: This is a critical issue! - [id:10][instance:2] - [COMP-11][file-5.c][function-5][ln:550]
[2019-04-04 23:04:51,882][ERROR] It is an error message - [id:10][instance:6] - [COMP-11][file-3.c][function-13][ln:440]
[2019-04-04 23:04:52,041][INFO] any info message - [id:10][instance:3] - [COMP-10][file-10.c][function-5][ln:222]
[2019-04-04 23:04:52,095][WARNING] Here is a warning message - [id:10][instance:2] - [COMP-5][file-4.c][function-5][ln:735]
[2019-04-04 23:04:52,324][DEBUG] any debug message - [id:10][instance:6] - [COMP-5][file-11.c][function-6][ln:499]
[2019-04-04 23:04:53,541][INFO] any info message - [id:10][instance:5] - [COMP-4][file-10.c][function-11][ln:545]
[2019-04-04 23:04:55,041][INFO] any info message - [id:10][instance:1] - [COMP-12][file-6.c][function-8][ln:967]
[2019-04-04 23:04:56,542][INFO] any info message - [id:10][instance:1] - [COMP-7][file-5.c][function-13][ln:531]
[2019-04-04 23:04:58,042][INFO] any info message - [id:10][instance:6] - [COMP-12][file-11.c][function-1][ln:185]
[2019-04-04 23:04:59,542][INFO] any info message - [id:10][instance:6] - [COMP-11][file-2.c][function-10][ln:389]
[2019-04-04 23:05:01,042][INFO] any info message - [id:10][instance:3] - [COMP-3][file-2.c][function-13][ln:366]
[2019-04-04 23:05:02,542][INFO] any info message - [id:10][instance:7] - [COMP-3][file-7.c][function-6][ln:555]
[2019-04-04 23:05:04,042][INFO] any info message - [id:10][instance:6] - [COMP-4][file-8.c][function-2][ln:368]
[2019-04-04 23:05:05,542][INFO] any info message - [id:10][instance:6] - [COMP-4][file-3.c][function-7][ln:838]
[2019-04-04 23:05:07,043][INFO] any info message - [id:10][instance:6] - [COMP-9][file-2.c][function-2][ln:860]
[2019-04-04 23:05:07,325][DEBUG] any debug message - [id:10][instance:1] - [COMP-3][file-2.c][function-5][ln:24]
[2019-04-04 23:05:08,543][INFO] any info message - [id:10][instance:6] - [COMP-10][file-2.c][function-8][ln:436]
[2019-04-04 23:05:10,043][INFO] any info message - [id:10][instance:7] - [COMP-11][file-12.c][function-8][ln:572]
[2019-04-04 23:05:11,543][INFO] any info message - [id:10][instance:7] - [COMP-7][file-10.c][function-3][ln:453]
[2019-04-04 23:05:13,044][INFO] any info message - [id:10][instance:3] - [COMP-12][file-4.c][function-10][ln:998]
[2019-04-04 23:05:14,544][INFO] any info message - [id:10][instance:1] - [COMP-12][file-5.c][function-13][ln:779]
[2019-04-04 23:05:16,044][INFO] any info message - [id:10][instance:4] - [COMP-6][file-5.c][function-11][ln:241]
[2019-04-04 23:05:17,545][INFO] any info message - [id:10][instance:3] - [COMP-9][file-9.c][function-5][ln:100]
[2019-04-04 23:05:19,045][INFO] any info message - [id:10][instance:6] - [COMP-8][file-10.c][function-8][ln:820]
[2019-04-04 23:05:20,547][INFO] any info message - [id:10][instance:5] - [COMP-3][file-1.c][function-10][ln:982]
[2019-04-04 23:05:22,047][INFO] any info message - [id:10][instance:1] - [COMP-4][file-5.c][function-2][ln:849]
[2019-04-04 23:05:22,095][WARNING] Here is a warning message - [id:10][instance:1] - [COMP-8][file-12.c][function-2][ln:142]
[2019-04-04 23:05:22,325][DEBUG] any debug message - [id:10][instance:3] - [COMP-3][file-12.c][function-1][ln:2]
[2019-04-04 23:05:23,547][INFO] any info message - [id:10][instance:5] - [COMP-8][file-1.c][function-6][ln:482]
[2019-04-04 23:05:25,047][INFO] any info message - [id:10][instance:3] - [COMP-2][file-10.c][function-5][ln:123]
[2019-04-04 23:05:26,548][INFO] any info message - [id:10][instance:4] - [COMP-12][file-1.c][function-8][ln:837]
[2019-04-04 23:05:28,048][INFO] any info message - [id:10][instance:3] - [COMP-10][file-7.c][function-12][ln:566]
[2019-04-04 23:05:29,548][INFO] any info message - [id:10][instance:6] - [COMP-13][file-7.c][function-5][ln:817]
[2019-04-04 23:05:31,048][INFO] any info message - [id:10][instance:2] - [COMP-7][file-5.c][function-2][ln:73]
[2019-04-04 23:05:32,549][INFO] any info message - [id:10][instance:7] - [COMP-3][file-2.c][function-6][ln:430]
[2019-04-04 23:05:34,049][INFO] any info message - [id:10][instance:3] - [COMP-10][file-4.c][function-6][ln:734]
[2019-04-04 23:05:35,549][INFO] any info message - [id:10][instance:3] - [COMP-2][file-6.c][function-8][ln:526]
[2019-04-04 23:05:37,049][INFO] any info message - [id:10][instance:4] - [COMP-7][file-13.c][function-9][ln:954]
[2019-04-04 23:05:37,326][DEBUG] any debug message - [id:10][instance:7] - [COMP-9][file-13.c][function-5][ln:138]
[2019-04-04 23:05:38,550][INFO] any info message - [id:10][instance:5] - [COMP-3][file-9.c][function-13][ln:537]
[2019-04-04 23:05:40,051][INFO] any info message - [id:10][instance:6] - [COMP-3][file-4.c][function-9][ln:439]
[2019-04-04 23:05:41,551][INFO] any info message - [id:10][instance:4] - [COMP-10][file-5.c][function-4][ln:486]
[2019-04-04 23:05:43,051][INFO] any info message - [id:10][instance:6] - [COMP-1][file-2.c][function-2][ln:431]
[2019-04-04 23:05:44,551][INFO] any info message - [id:10][instance:3] - [COMP-12][file-4.c][function-3][ln:332]
[2019-04-04 23:05:46,052][INFO] any info message - [id:10][instance:5] - [COMP-1][file-3.c][function-7][ln:71]
[2019-04-04 23:05:47,552][INFO] any info message - [id:10][instance:4] - [COMP-11][file-11.c][function-2][ln:32]
[2019-04-04 23:05:49,053][INFO] any info message - [id:10][instance:6] - [COMP-1][file-12.c][function-13][ln:230]
[2019-04-04 23:05:50,553][INFO] any info message - [id:10][instance:1] - [COMP-7][file-2.c][function-5][ln:414]
[2019-04-04 23:05:51,883][ERROR] It is an error message - [id:10][instance:1] - [COMP-2][file-2.c][function-12][ln:440]
[2019-04-04 23:05:52,054][INFO] any info message - [id:10][instance:7] - [COMP-3][file-4.c][function-13][ln:683]
[2019-04-04 23:05:52,096][WARNING] Here is a warning message - [id:10][instance:4] - [COMP-12][file-3.c][function-8][ln:420]
[2019-04-04 23:05:52,327][DEBUG] any debug message - [id:10][instance:1] - [COMP-1][file-9.c][function-13][ln:597]
[2019-04-04 23:05:53,554][INFO] any info message - [id:10][instance:4] - [COMP-5][file-5.c][function-9][ln:40]
[2019-04-04 23:05:55,054][INFO] any info message - [id:10][instance:4] - [COMP-2][file-10.c][function-1][ln:987]
[2019-04-04 23:05:56,555][INFO] any info message - [id:10][instance:3] - [COMP-4][file-11.c][function-6][ln:546]
[2019-04-04 23:05:58,056][INFO] any info message - [id:10][instance:4] - [COMP-10][file-10.c][function-1][ln:333]
[2019-04-04 23:05:59,556][INFO] any info message - [id:10][instance:4] - [COMP-7][file-10.c][function-12][ln:260]
[2019-04-04 23:06:01,057][INFO] any info message - [id:10][instance:2] - [COMP-1][file-2.c][function-4][ln:21]
[2019-04-04 23:06:02,557][INFO] any info message - [id:10][instance:4] - [COMP-1][file-10.c][function-13][ln:874]
[2019-04-04 23:06:04,058][INFO] any info message - [id:10][instance:6] - [COMP-1][file-10.c][function-13][ln:196]
[2019-04-04 23:06:05,558][INFO] any info message - [id:10][instance:3] - [COMP-10][file-10.c][function-5][ln:692]
[2019-04-04 23:06:07,059][INFO] any info message - [id:10][instance:6] - [COMP-13][file-4.c][function-4][ln:234]
[2019-04-04 23:06:07,327][DEBUG] any debug message - [id:10][instance:3] - [COMP-1][file-5.c][function-13][ln:680]
[2019-04-04 23:06:08,559][INFO] any info message - [id:10][instance:7] - [COMP-3][file-5.c][function-9][ln:25]
[2019-04-04 23:06:10,059][INFO] any info message - [id:10][instance:6] - [COMP-8][file-8.c][function-4][ln:938]
[2019-04-04 23:06:11,560][INFO] any info message - [id:10][instance:6] - [COMP-11][file-10.c][function-12][ln:661]
[2019-04-04 23:06:13,060][INFO] any info message - [id:10][instance:3] - [COMP-7][file-4.c][function-2][ln:155]
[2019-04-04 23:06:14,560][INFO] any info message - [id:10][instance:2] - [COMP-5][file-11.c][function-12][ln:814]
[2019-04-04 23:06:16,060][INFO] any info message - [id:10][instance:7] - [COMP-1][file-8.c][function-7][ln:468]
[2019-04-04 23:06:17,561][INFO] any info message - [id:10][instance:7] - [COMP-10][file-7.c][function-13][ln:430]
[2019-04-04 23:06:19,061][INFO] any info message - [id:10][instance:1] - [COMP-11][file-4.c][function-5][ln:415]
[2019-04-04 23:06:20,562][INFO] any info message - [id:10][instance:2] - [COMP-13][file-8.c][function-6][ln:586]
[2019-04-04 23:06:22,063][INFO] any info message - [id:10][instance:1] - [COMP-4][file-7.c][function-12][ln:411]
[2019-04-04 23:06:22,096][WARNING] Here is a warning message - [id:10][instance:1] - [COMP-7][file-2.c][function-13][ln:656]
[2019-04-04 23:06:22,328][DEBUG] any debug message - [id:10][instance:2] - [COMP-4][file-13.c][function-6][ln:372]
[2019-04-04 23:06:23,568][INFO] any info message - [id:10][instance:4] - [COMP-5][file-6.c][function-4][ln:42]
[2019-04-04 23:06:25,068][INFO] any info message - [id:10][instance:3] - [COMP-1][file-12.c][function-6][ln:139]
[2019-04-04 23:06:26,569][INFO] any info message - [id:10][instance:1] - [COMP-7][file-4.c][function-6][ln:139]
[2019-04-04 23:06:28,069][INFO] any info message - [id:10][instance:5] - [COMP-9][file-12.c][function-1][ln:820]
[2019-04-04 23:06:29,569][INFO] any info message - [id:10][instance:1] - [COMP-13][file-5.c][function-4][ln:381]
[2019-04-04 23:06:31,069][INFO] any info message - [id:10][instance:4] - [COMP-5][file-7.c][function-8][ln:973]
[2019-04-04 23:06:32,570][INFO] any info message - [id:10][instance:5] - [COMP-2][file-6.c][function-4][ln:599]
[2019-04-04 23:06:34,070][INFO] any info message - [id:10][instance:3] - [COMP-4][file-8.c][function-11][ln:870]
[2019-04-04 23:06:35,570][INFO] any info message - [id:10][instance:1] - [COMP-7][file-2.c][function-6][ln:585]
[2019-04-04 23:06:37,071][INFO] any info message - [id:10][instance:7] - [COMP-6][file-2.c][function-3][ln:827]
[2019-04-04 23:06:37,328][DEBUG] any debug message - [id:10][instance:4] - [COMP-1][file-8.c][function-13][ln:100]
[2019-04-04 23:06:38,573][INFO] any info message - [id:10][instance:3] - [COMP-6][file-3.c][function-10][ln:289]
[2019-04-04 23:06:40,074][INFO] any info message - [id:10][instance:2] - [COMP-11][file-9.c][function-1][ln:142]
[2019-04-04 23:06:41,574][INFO] any info message - [id:10][instance:6] - [COMP-10][file-6.c][function-8][ln:586]
[2019-04-04 23:06:43,074][INFO] any info message - [id:10][instance:1] - [COMP-7][file-8.c][function-4][ln:310]
[2019-04-04 23:06:44,574][INFO] any info message - [id:10][instance:6] - [COMP-5][file-12.c][function-7][ln:827]
[2019-04-04 23:06:46,074][INFO] any info message - [id:10][instance:1] - [COMP-5][file-10.c][function-13][ln:315]
[2019-04-04 23:06:47,575][INFO] any info message - [id:10][instance:4] - [COMP-6][file-10.c][function-10][ln:443]
[2019-04-04 23:06:49,076][INFO] any info message - [id:10][instance:1] - [COMP-7][file-2.c][function-5][ln:285]
[2019-04-04 23:06:50,577][INFO] any info message - [id:10][instance:3] - [COMP-7][file-3.c][function-12][ln:463]
[2019-04-04 23:06:51,838][CRITICAL] ATTENTION: This is a critical issue! - [id:10][instance:1] - [COMP-2][file-5.c][function-8][ln:199]
[2019-04-04 23:06:51,883][ERROR] It is an error message - [id:10][instance:5] - [COMP-11][file-4.c][function-2][ln:594]
[2019-04-04 23:06:52,077][INFO] any info message - [id:10][instance:4] - [COMP-9][file-2.c][function-4][ln:985]
[2019-04-04 23:06:52,097][WARNING] Here is a warning message - [id:10][instance:4] - [COMP-1][file-1.c][function-11][ln:430]
[2019-04-04 23:06:52,329][DEBUG] any debug message - [id:10][instance:1] - [COMP-8][file-11.c][function-7][ln:923]
[2019-04-04 23:06:53,577][INFO] any info message - [id:10][instance:1] - [COMP-6][file-6.c][function-8][ln:773]
[2019-04-04 23:06:55,077][INFO] any info message - [id:10][instance:7] - [COMP-1][file-4.c][function-10][ln:427]
[2019-04-04 23:06:56,578][INFO] any info message - [id:10][instance:5] - [COMP-6][file-1.c][function-11][ln:211]
[2019-04-04 23:06:58,083][INFO] any info message - [id:10][instance:2] - [COMP-9][file-7.c][function-11][ln:151]
[2019-04-04 23:06:59,598][INFO] any info message - [id:10][instance:6] - [COMP-12][file-2.c][function-10][ln:568]
[2019-04-04 23:07:01,098][INFO] any info message - [id:10][instance:7] - [COMP-13][file-7.c][function-8][ln:219]
[2019-04-04 23:07:02,599][INFO] any info message - [id:10][instance:3] - [COMP-8][file-11.c][function-12][ln:380]
[2019-04-04 23:07:04,099][INFO] any info message - [id:10][instance:4] - [COMP-3][file-3.c][function-4][ln:444]
[2019-04-04 23:07:05,599][INFO] any info message - [id:10][instance:3] - [COMP-8][file-5.c][function-8][ln:880]
[2019-04-04 23:07:07,099][INFO] any info message - [id:10][instance:3] - [COMP-8][file-7.c][function-6][ln:728]
[2019-04-04 23:07:07,330][DEBUG] any debug message - [id:10][instance:6] - [COMP-8][file-5.c][function-13][ln:5]
[2019-04-04 23:07:08,600][INFO] any info message - [id:10][instance:2] - [COMP-11][file-9.c][function-1][ln:402]
[2019-04-04 23:07:10,100][INFO] any info message - [id:10][instance:1] - [COMP-9][file-2.c][function-1][ln:445]
[2019-04-04 23:07:11,601][INFO] any info message - [id:10][instance:2] - [COMP-8][file-1.c][function-2][ln:46]
[2019-04-04 23:07:13,103][INFO] any info message - [id:10][instance:3] - [COMP-11][file-9.c][function-3][ln:210]
[2019-04-04 23:07:14,604][INFO] any info message - [id:10][instance:3] - [COMP-3][file-6.c][function-9][ln:805]
[2019-04-04 23:07:16,105][INFO] any info message - [id:10][instance:4] - [COMP-7][file-8.c][function-12][ln:421]
[2019-04-04 23:07:17,606][INFO] any info message - [id:10][instance:5] - [COMP-12][file-5.c][function-10][ln:955]
[2019-04-04 23:07:19,106][INFO] any info message - [id:10][instance:7] - [COMP-5][file-13.c][function-5][ln:98]
[2019-04-04 23:07:20,609][INFO] any info message - [id:10][instance:4] - [COMP-13][file-5.c][function-3][ln:962]
[2019-04-04 23:07:22,097][WARNING] Here is a warning message - [id:10][instance:4] - [COMP-10][file-8.c][function-12][ln:876]
[2019-04-04 23:07:22,110][INFO] any info message - [id:10][instance:7] - [COMP-5][file-12.c][function-9][ln:336]
[2019-04-04 23:07:22,331][DEBUG] any debug message - [id:10][instance:5] - [COMP-4][file-1.c][function-12][ln:606]
[2019-04-04 23:07:23,611][INFO] any info message - [id:10][instance:1] - [COMP-11][file-3.c][function-1][ln:248]
[2019-04-04 23:07:25,111][INFO] any info message - [id:10][instance:1] - [COMP-6][file-3.c][function-12][ln:661]
[2019-04-04 23:07:26,611][INFO] any info message - [id:10][instance:2] - [COMP-13][file-6.c][function-12][ln:498]
[2019-04-04 23:07:28,112][INFO] any info message - [id:10][instance:1] - [COMP-11][file-12.c][function-5][ln:155]
[2019-04-04 23:07:29,612][INFO] any info message - [id:10][instance:6] - [COMP-2][file-2.c][function-12][ln:807]
[2019-04-04 23:07:31,113][INFO] any info message - [id:10][instance:3] - [COMP-13][file-6.c][function-2][ln:591]
[2019-04-04 23:07:32,613][INFO] any info message - [id:10][instance:3] - [COMP-12][file-1.c][function-10][ln:449]
[2019-04-04 23:07:34,113][INFO] any info message - [id:10][instance:4] - [COMP-6][file-10.c][function-12][ln:605]
[2019-04-04 23:07:35,613][INFO] any info message - [id:10][instance:6] - [COMP-8][file-10.c][function-12][ln:415]
[2019-04-04 23:07:37,114][INFO] any info message - [id:10][instance:3] - [COMP-10][file-1.c][function-1][ln:416]
[2019-04-04 23:07:37,332][DEBUG] any debug message - [id:10][instance:7] - [COMP-4][file-10.c][function-1][ln:694]
[2019-04-04 23:07:38,614][INFO] any info message - [id:10][instance:1] - [COMP-10][file-10.c][function-8][ln:935]
[2019-04-04 23:07:40,115][INFO] any info message - [id:10][instance:4] - [COMP-6][file-11.c][function-13][ln:725]
[2019-04-04 23:07:41,615][INFO] any info message - [id:10][instance:1] - [COMP-10][file-3.c][function-13][ln:463]
[2019-04-04 23:07:43,116][INFO] any info message - [id:10][instance:5] - [COMP-11][file-2.c][function-9][ln:52]
[2019-04-04 23:07:44,616][INFO] any info message - [id:10][instance:7] - [COMP-8][file-11.c][function-5][ln:449]
[2019-04-04 23:07:46,116][INFO] any info message - [id:10][instance:4] - [COMP-10][file-7.c][function-7][ln:175]
[2019-04-04 23:07:47,617][INFO] any info message - [id:10][instance:3] - [COMP-3][file-13.c][function-5][ln:636]
[2019-04-04 23:07:49,118][INFO] any info message - [id:10][instance:1] - [COMP-13][file-8.c][function-12][ln:377]
[2019-04-04 23:07:50,618][INFO] any info message - [id:10][instance:7] - [COMP-10][file-7.c][function-11][ln:362]
[2019-04-04 23:07:51,884][ERROR] It is an error message - [id:10][instance:1] - [COMP-7][file-13.c][function-5][ln:196]
[2019-04-04 23:07:52,101][WARNING] Here is a warning message - [id:10][instance:3] - [COMP-4][file-9.c][function-1][ln:765]
[2019-04-04 23:07:52,124][INFO] any info message - [id:10][instance:6] - [COMP-7][file-11.c][function-12][ln:796]
[2019-04-04 23:07:52,334][DEBUG] any debug message - [id:10][instance:7] - [COMP-8][file-3.c][function-4][ln:565]
[2019-04-04 23:07:53,625][INFO] any info message - [id:10][instance:6] - [COMP-11][file-6.c][function-5][ln:535]
[2019-04-04 23:07:55,127][INFO] any info message - [id:10][instance:1] - [COMP-12][file-12.c][function-7][ln:731]
[2019-04-04 23:07:56,627][INFO] any info message - [id:10][instance:3] - [COMP-2][file-10.c][function-6][ln:41]
[2019-04-04 23:07:58,127][INFO] any info message - [id:10][instance:6] - [COMP-2][file-1.c][function-9][ln:875]
[2019-04-04 23:07:59,628][INFO] any info message - [id:10][instance:2] - [COMP-10][file-4.c][function-4][ln:457]
[2019-04-04 23:08:01,129][INFO] any info message - [id:10][instance:6] - [COMP-13][file-6.c][function-10][ln:279]
[2019-04-04 23:08:02,633][INFO] any info message - [id:10][instance:7] - [COMP-7][file-8.c][function-9][ln:202]
[2019-04-04 23:08:04,133][INFO] any info message - [id:10][instance:5] - [COMP-11][file-13.c][function-13][ln:970]
[2019-04-04 23:08:05,634][INFO] any info message - [id:10][instance:4] - [COMP-12][file-4.c][function-4][ln:603]
[2019-04-04 23:08:07,134][INFO] any info message - [id:10][instance:1] - [COMP-10][file-3.c][function-11][ln:464]
[2019-04-04 23:08:07,334][DEBUG] any debug message - [id:10][instance:2] - [COMP-1][file-5.c][function-8][ln:984]
[2019-04-04 23:08:08,635][INFO] any info message - [id:10][instance:4] - [COMP-5][file-4.c][function-11][ln:78]
[2019-04-04 23:08:10,136][INFO] any info message - [id:10][instance:3] - [COMP-12][file-4.c][function-9][ln:19]
[2019-04-04 23:08:11,636][INFO] any info message - [id:10][instance:3] - [COMP-13][file-3.c][function-5][ln:25]
[2019-04-04 23:08:13,137][INFO] any info message - [id:10][instance:3] - [COMP-9][file-10.c][function-11][ln:4]
[2019-04-04 23:08:14,637][INFO] any info message - [id:10][instance:3] - [COMP-11][file-13.c][function-8][ln:922]
[2019-04-04 23:08:16,138][INFO] any info message - [id:10][instance:4] - [COMP-8][file-10.c][function-3][ln:936]
[2019-04-04 23:08:17,638][INFO] any info message - [id:10][instance:1] - [COMP-7][file-8.c][function-2][ln:853]
[2019-04-04 23:08:19,138][INFO] any info message - [id:10][instance:3] - [COMP-12][file-12.c][function-6][ln:374]
[2019-04-04 23:08:20,639][INFO] any info message - [id:10][instance:1] - [COMP-13][file-13.c][function-7][ln:311]
[2019-04-04 23:08:22,103][WARNING] Here is a warning message - [id:10][instance:2] - [COMP-13][file-3.c][function-12][ln:312]
[2019-04-04 23:08:22,140][INFO] any info message - [id:10][instance:6] - [COMP-2][file-4.c][function-7][ln:812]
[2019-04-04 23:08:22,334][DEBUG] any debug message - [id:10][instance:5] - [COMP-11][file-3.c][function-5][ln:409]
[2019-04-04 23:08:23,641][INFO] any info message - [id:10][instance:2] - [COMP-11][file-8.c][function-4][ln:375]
[2019-04-04 23:08:25,141][INFO] any info message - [id:10][instance:3] - [COMP-9][file-8.c][function-13][ln:615]
[2019-04-04 23:08:26,642][INFO] any info message - [id:10][instance:2] - [COMP-4][file-13.c][function-10][ln:607]
[2019-04-04 23:08:28,143][INFO] any info message - [id:10][instance:7] - [COMP-2][file-12.c][function-12][ln:401]
[2019-04-04 23:08:29,643][INFO] any info message - [id:10][instance:7] - [COMP-11][file-3.c][function-6][ln:427]
[2019-04-04 23:08:31,144][INFO] any info message - [id:10][instance:5] - [COMP-7][file-6.c][function-12][ln:161]
[2019-04-04 23:08:32,645][INFO] any info message - [id:10][instance:1] - [COMP-3][file-7.c][function-5][ln:708]
[2019-04-04 23:08:34,149][INFO] any info message - [id:10][instance:5] - [COMP-5][file-9.c][function-10][ln:913]
[2019-04-04 23:08:35,649][INFO] any info message - [id:10][instance:3] - [COMP-7][file-11.c][function-11][ln:528]
[2019-04-04 23:08:37,149][INFO] any info message - [id:10][instance:2] - [COMP-6][file-3.c][function-1][ln:23]
[2019-04-04 23:08:37,334][DEBUG] any debug message - [id:10][instance:4] - [COMP-7][file-10.c][function-9][ln:72]
[2019-04-04 23:08:38,650][INFO] any info message - [id:10][instance:6] - [COMP-4][file-10.c][function-2][ln:262]
[2019-04-04 23:08:40,150][INFO] any info message - [id:10][instance:3] - [COMP-7][file-8.c][function-9][ln:53]
[2019-04-04 23:08:41,651][INFO] any info message - [id:10][instance:6] - [COMP-6][file-10.c][function-10][ln:926]
[2019-04-04 23:08:43,155][INFO] any info message - [id:10][instance:4] - [COMP-5][file-3.c][function-5][ln:41]
[2019-04-04 23:08:44,656][INFO] any info message - [id:10][instance:4] - [COMP-4][file-1.c][function-4][ln:250]
[2019-04-04 23:08:46,156][INFO] any info message - [id:10][instance:5] - [COMP-5][file-6.c][function-10][ln:374]
[2019-04-04 23:08:47,657][INFO] any info message - [id:10][instance:1] - [COMP-8][file-4.c][function-12][ln:579]
[2019-04-04 23:08:49,157][INFO] any info message - [id:10][instance:2] - [COMP-5][file-5.c][function-1][ln:588]
[2019-04-04 23:08:50,658][INFO] any info message - [id:10][instance:1] - [COMP-7][file-13.c][function-13][ln:250]
[2019-04-04 23:08:51,839][CRITICAL] ATTENTION: This is a critical issue! - [id:10][instance:1] - [COMP-3][file-9.c][function-1][ln:809]
[2019-04-04 23:08:51,891][ERROR] It is an error message - [id:10][instance:1] - [COMP-1][file-2.c][function-2][ln:557]
[2019-04-04 23:08:52,103][WARNING] Here is a warning message - [id:10][instance:4] - [COMP-12][file-7.c][function-6][ln:893]
[2019-04-04 23:08:52,158][INFO] any info message - [id:10][instance:4] - [COMP-1][file-9.c][function-11][ln:290]
[2019-04-04 23:08:52,335][DEBUG] any debug message - [id:10][instance:7] - [COMP-11][file-6.c][function-12][ln:284]
[2019-04-04 23:08:53,658][INFO] any info message - [id:10][instance:5] - [COMP-1][file-5.c][function-1][ln:881]
[2019-04-04 23:08:55,158][INFO] any info message - [id:10][instance:3] - [COMP-6][file-3.c][function-6][ln:981]
[2019-04-04 23:08:56,658][INFO] any info message - [id:10][instance:5] - [COMP-2][file-3.c][function-1][ln:324]
[2019-04-04 23:08:58,159][INFO] any info message - [id:10][instance:5] - [COMP-1][file-2.c][function-6][ln:939]
[2019-04-04 23:08:59,659][INFO] any info message - [id:10][instance:6] - [COMP-10][file-6.c][function-12][ln:374]
[2019-04-04 23:09:01,160][INFO] any info message - [id:10][instance:4] - [COMP-2][file-2.c][function-5][ln:543]
[2019-04-04 23:09:02,660][INFO] any info message - [id:10][instance:2] - [COMP-11][file-3.c][function-9][ln:842]
[2019-04-04 23:09:04,163][INFO] any info message - [id:10][instance:3] - [COMP-3][file-11.c][function-3][ln:64]
[2019-04-04 23:09:05,663][INFO] any info message - [id:10][instance:4] - [COMP-7][file-5.c][function-2][ln:880]
[2019-04-04 23:09:07,164][INFO] any info message - [id:10][instance:6] - [COMP-11][file-9.c][function-3][ln:664]
[2019-04-04 23:09:07,335][DEBUG] any debug message - [id:10][instance:7] - [COMP-12][file-8.c][function-6][ln:64]
[2019-04-04 23:09:08,664][INFO] any info message - [id:10][instance:6] - [COMP-3][file-5.c][function-12][ln:655]
[2019-04-04 23:09:10,164][INFO] any info message - [id:10][instance:7] - [COMP-10][file-10.c][function-6][ln:877]
[2019-04-04 23:09:11,664][INFO] any info message - [id:10][instance:4] - [COMP-10][file-11.c][function-3][ln:966]
[2019-04-04 23:09:13,165][INFO] any info message - [id:10][instance:3] - [COMP-8][file-10.c][function-12][ln:685]
[2019-04-04 23:09:14,665][INFO] any info message - [id:10][instance:5] - [COMP-13][file-2.c][function-6][ln:284]
[2019-04-04 23:09:16,166][INFO] any info message - [id:10][instance:7] - [COMP-9][file-1.c][function-9][ln:65]
[2019-04-04 23:09:17,666][INFO] any info message - [id:10][instance:4] - [COMP-10][file-3.c][function-2][ln:575]
[2019-04-04 23:09:19,166][INFO] any info message - [id:10][instance:2] - [COMP-8][file-7.c][function-8][ln:585]
[2019-04-04 23:09:20,667][INFO] any info message - [id:10][instance:3] - [COMP-12][file-9.c][function-4][ln:237]
[2019-04-04 23:09:22,104][WARNING] Here is a warning message - [id:10][instance:3] - [COMP-4][file-7.c][function-3][ln:895]
[2019-04-04 23:09:22,167][INFO] any info message - [id:10][instance:7] - [COMP-8][file-6.c][function-6][ln:272]
[2019-04-04 23:09:22,336][DEBUG] any debug message - [id:10][instance:1] - [COMP-5][file-13.c][function-1][ln:835]
[2019-04-04 23:09:23,667][INFO] any info message - [id:10][instance:1] - [COMP-12][file-8.c][function-4][ln:565]
[2019-04-04 23:09:25,168][INFO] any info message - [id:10][instance:7] - [COMP-8][file-5.c][function-6][ln:690]
[2019-04-04 23:09:26,668][INFO] any info message - [id:10][instance:3] - [COMP-10][file-6.c][function-9][ln:454]
[2019-04-04 23:09:28,169][INFO] any info message - [id:10][instance:5] - [COMP-8][file-2.c][function-12][ln:919]
[2019-04-04 23:09:29,669][INFO] any info message - [id:10][instance:2] - [COMP-8][file-9.c][function-6][ln:987]
[2019-04-04 23:09:31,170][INFO] any info message - [id:10][instance:6] - [COMP-13][file-13.c][function-8][ln:650]
[2019-04-04 23:09:32,670][INFO] any info message - [id:10][instance:2] - [COMP-1][file-4.c][function-11][ln:878]
[2019-04-04 23:09:34,170][INFO] any info message - [id:10][instance:1] - [COMP-10][file-2.c][function-2][ln:2]
[2019-04-04 23:09:35,671][INFO] any info message - [id:10][instance:4] - [COMP-1][file-11.c][function-7][ln:483]
[2019-04-04 23:09:37,171][INFO] any info message - [id:10][instance:6] - [COMP-1][file-1.c][function-13][ln:765]
[2019-04-04 23:09:37,344][DEBUG] any debug message - [id:10][instance:6] - [COMP-1][file-7.c][function-9][ln:751]
[2019-04-04 23:09:38,672][INFO] any info message - [id:10][instance:1] - [COMP-7][file-9.c][function-9][ln:922]
[2019-04-04 23:09:40,174][INFO] any info message - [id:10][instance:5] - [COMP-3][file-2.c][function-11][ln:931]
[2019-04-04 23:09:41,674][INFO] any info message - [id:10][instance:4] - [COMP-3][file-5.c][function-1][ln:327]
[2019-04-04 23:09:43,174][INFO] any info message - [id:10][instance:7] - [COMP-12][file-4.c][function-9][ln:340]
[2019-04-04 23:09:44,675][INFO] any info message - [id:10][instance:7] - [COMP-4][file-1.c][function-6][ln:640]
[2019-04-04 23:09:46,175][INFO] any info message - [id:10][instance:5] - [COMP-13][file-8.c][function-8][ln:347]
[2019-04-04 23:09:47,676][INFO] any info message - [id:10][instance:2] - [COMP-10][file-8.c][function-1][ln:716]
[2019-04-04 23:09:49,177][INFO] any info message - [id:10][instance:1] - [COMP-1][file-6.c][function-7][ln:972]
[2019-04-04 23:09:50,678][INFO] any info message - [id:10][instance:7] - [COMP-10][file-5.c][function-8][ln:576]
[2019-04-04 23:09:51,891][ERROR] It is an error message - [id:10][instance:1] - [COMP-13][file-4.c][function-10][ln:500]
[2019-04-04 23:09:52,104][WARNING] Here is a warning message - [id:10][instance:2] - [COMP-13][file-3.c][function-12][ln:101]
[2019-04-04 23:09:52,178][INFO] any info message - [id:10][instance:5] - [COMP-12][file-8.c][function-7][ln:28]
[2019-04-04 23:09:52,344][DEBUG] any debug message - [id:10][instance:3] - [COMP-4][file-1.c][function-1][ln:343]
[2019-04-04 23:09:53,679][INFO] any info message - [id:10][instance:6] - [COMP-10][file-13.c][function-7][ln:264]
[2019-04-04 23:09:55,180][INFO] any info message - [id:10][instance:2] - [COMP-8][file-4.c][function-13][ln:489]
[2019-04-04 23:09:56,680][INFO] any info message - [id:10][instance:6] - [COMP-11][file-3.c][function-4][ln:841]
[2019-04-04 23:09:58,180][INFO] any info message - [id:10][instance:6] - [COMP-5][file-8.c][function-13][ln:1]
[2019-04-04 23:09:59,680][INFO] any info message - [id:10][instance:5] - [COMP-2][file-10.c][function-3][ln:719]
[2019-04-04 23:10:01,181][INFO] any info message - [id:10][instance:3] - [COMP-13][file-1.c][function-9][ln:826]
[2019-04-04 23:10:02,681][INFO] any info message - [id:10][instance:5] - [COMP-11][file-11.c][function-5][ln:440]
[2019-04-04 23:10:04,182][INFO] any info message - [id:10][instance:4] - [COMP-1][file-10.c][function-12][ln:116]
[2019-04-04 23:10:05,682][INFO] any info message - [id:10][instance:3] - [COMP-3][file-3.c][function-13][ln:915]
[2019-04-04 23:10:07,182][INFO] any info message - [id:10][instance:7] - [COMP-8][file-11.c][function-2][ln:989]
[2019-04-04 23:10:07,344][DEBUG] any debug message - [id:10][instance:5] - [COMP-9][file-5.c][function-2][ln:686]
[2019-04-04 23:10:08,683][INFO] any info message - [id:10][instance:6] - [COMP-4][file-11.c][function-2][ln:884]
[2019-04-04 23:10:10,183][INFO] any info message - [id:10][instance:2] - [COMP-10][file-1.c][function-1][ln:518]
[2019-04-04 23:10:11,684][INFO] any info message - [id:10][instance:2] - [COMP-7][file-7.c][function-3][ln:156]
[2019-04-04 23:10:13,184][INFO] any info message - [id:10][instance:5] - [COMP-5][file-7.c][function-13][ln:664]
[2019-04-04 23:10:14,684][INFO] any info message - [id:10][instance:1] - [COMP-4][file-11.c][function-10][ln:387]
[2019-04-04 23:10:16,184][INFO] any info message - [id:10][instance:5] - [COMP-4][file-10.c][function-6][ln:796]
[2019-04-04 23:10:17,685][INFO] any info message - [id:10][instance:4] - [COMP-12][file-9.c][function-7][ln:669]
[2019-04-04 23:10:19,185][INFO] any info message - [id:10][instance:4] - [COMP-12][file-7.c][function-1][ln:356]
[2019-04-04 23:10:20,686][INFO] any info message - [id:10][instance:4] - [COMP-1][file-11.c][function-13][ln:730]
[2019-04-04 23:10:22,104][WARNING] Here is a warning message - [id:10][instance:5] - [COMP-8][file-4.c][function-8][ln:810]
[2019-04-04 23:10:22,187][INFO] any info message - [id:10][instance:7] - [COMP-5][file-12.c][function-5][ln:432]
[2019-04-04 23:10:22,345][DEBUG] any debug message - [id:10][instance:7] - [COMP-8][file-8.c][function-5][ln:803]
[2019-04-04 23:10:23,688][INFO] any info message - [id:10][instance:3] - [COMP-12][file-5.c][function-4][ln:688]
[2019-04-04 23:10:25,188][INFO] any info message - [id:10][instance:1] - [COMP-8][file-9.c][function-6][ln:612]
[2019-04-04 23:10:26,690][INFO] any info message - [id:10][instance:7] - [COMP-3][file-8.c][function-3][ln:698]
[2019-04-04 23:10:28,191][INFO] any info message - [id:10][instance:6] - [COMP-9][file-3.c][function-7][ln:734]
[2019-04-04 23:10:29,692][INFO] any info message - [id:10][instance:4] - [COMP-5][file-4.c][function-13][ln:371]
[2019-04-04 23:10:31,192][INFO] any info message - [id:10][instance:1] - [COMP-4][file-3.c][function-1][ln:357]
[2019-04-04 23:10:32,692][INFO] any info message - [id:10][instance:7] - [COMP-12][file-10.c][function-13][ln:263]
[2019-04-04 23:10:34,192][INFO] any info message - [id:10][instance:2] - [COMP-13][file-7.c][function-2][ln:362]
[2019-04-04 23:10:35,693][INFO] any info message - [id:10][instance:1] - [COMP-8][file-1.c][function-7][ln:587]
[2019-04-04 23:10:37,195][INFO] any info message - [id:10][instance:7] - [COMP-7][file-8.c][function-9][ln:787]
[2019-04-04 23:10:37,345][DEBUG] any debug message - [id:10][instance:7] - [COMP-6][file-7.c][function-8][ln:850]
[2019-04-04 23:10:38,695][INFO] any info message - [id:10][instance:1] - [COMP-12][file-11.c][function-11][ln:823]
[2019-04-04 23:10:40,196][INFO] any info message - [id:10][instance:3] - [COMP-4][file-2.c][function-6][ln:140]
[2019-04-04 23:10:41,701][INFO] any info message - [id:10][instance:2] - [COMP-8][file-5.c][function-12][ln:813]
[2019-04-04 23:10:43,201][INFO] any info message - [id:10][instance:2] - [COMP-10][file-11.c][function-6][ln:159]
[2019-04-04 23:10:44,702][INFO] any info message - [id:10][instance:7] - [COMP-9][file-8.c][function-2][ln:446]
[2019-04-04 23:10:46,202][INFO] any info message - [id:10][instance:4] - [COMP-4][file-12.c][function-3][ln:584]
[2019-04-04 23:10:47,703][INFO] any info message - [id:10][instance:3] - [COMP-12][file-11.c][function-11][ln:702]
[2019-04-04 23:10:49,204][INFO] any info message - [id:10][instance:6] - [COMP-3][file-8.c][function-13][ln:857]
[2019-04-04 23:10:50,704][INFO] any info message - [id:10][instance:6] - [COMP-3][file-13.c][function-10][ln:526]
[2019-04-04 23:10:51,840][CRITICAL] ATTENTION: This is a critical issue! - [id:10][instance:2] - [COMP-3][file-12.c][function-11][ln:514]
[2019-04-04 23:10:51,892][ERROR] It is an error message - [id:10][instance:3] - [COMP-1][file-3.c][function-13][ln:928]
[2019-04-04 23:10:52,105][WARNING] Here is a warning message - [id:10][instance:1] - [COMP-4][file-2.c][function-8][ln:910]
[2019-04-04 23:10:52,205][INFO] any info message - [id:10][instance:2] - [COMP-6][file-11.c][function-10][ln:295]
[2019-04-04 23:10:52,345][DEBUG] any debug message - [id:10][instance:6] - [COMP-8][file-3.c][function-11][ln:510]
[2019-04-04 23:10:53,706][INFO] any info message - [id:10][instance:2] - [COMP-11][file-10.c][function-10][ln:974]
[2019-04-04 23:10:55,206][INFO] any info message - [id:10][instance:2] - [COMP-3][file-12.c][function-8][ln:379]
[2019-04-04 23:10:56,707][INFO] any info message - [id:10][instance:3] - [COMP-1][file-7.c][function-7][ln:43]
[2019-04-04 23:10:58,207][INFO] any info message - [id:10][instance:4] - [COMP-3][file-11.c][function-8][ln:220]
[2019-04-04 23:10:59,707][INFO] any info message - [id:10][instance:1] - [COMP-4][file-2.c][function-5][ln:287]
[2019-04-04 23:11:01,208][INFO] any info message - [id:10][instance:4] - [COMP-13][file-4.c][function-12][ln:714]
[2019-04-04 23:11:02,708][INFO] any info message - [id:10][instance:1] - [COMP-3][file-5.c][function-5][ln:676]
[2019-04-04 23:11:04,209][INFO] any info message - [id:10][instance:4] - [COMP-8][file-12.c][function-10][ln:950]
[2019-04-04 23:11:05,709][INFO] any info message - [id:10][instance:1] - [COMP-13][file-11.c][function-3][ln:619]
[2019-04-04 23:11:07,210][INFO] any info message - [id:10][instance:1] - [COMP-7][file-1.c][function-11][ln:227]
[2019-04-04 23:11:07,348][DEBUG] any debug message - [id:10][instance:3] - [COMP-2][file-13.c][function-2][ln:441]
[2019-04-04 23:11:08,710][INFO] any info message - [id:10][instance:7] - [COMP-6][file-7.c][function-3][ln:946]
[2019-04-04 23:11:10,211][INFO] any info message - [id:10][instance:2] - [COMP-12][file-6.c][function-3][ln:830]
[2019-04-04 23:11:11,712][INFO] any info message - [id:10][instance:7] - [COMP-6][file-3.c][function-8][ln:484]
[2019-04-04 23:11:13,212][INFO] any info message - [id:10][instance:1] - [COMP-3][file-12.c][function-7][ln:329]
[2019-04-04 23:11:14,712][INFO] any info message - [id:10][instance:7] - [COMP-8][file-2.c][function-2][ln:338]
[2019-04-04 23:11:16,212][INFO] any info message - [id:10][instance:1] - [COMP-5][file-10.c][function-7][ln:950]
[2019-04-04 23:11:17,713][INFO] any info message - [id:10][instance:3] - [COMP-13][file-3.c][function-4][ln:933]
[2019-04-04 23:11:19,213][INFO] any info message - [id:10][instance:3] - [COMP-13][file-4.c][function-7][ln:784]
[2019-04-04 23:11:20,713][INFO] any info message - [id:10][instance:5] - [COMP-1][file-9.c][function-11][ln:502]
[2019-04-04 23:11:22,106][WARNING] Here is a warning message - [id:10][instance:1] - [COMP-11][file-7.c][function-12][ln:348]
[2019-04-04 23:11:22,214][INFO] any info message - [id:10][instance:5] - [COMP-6][file-11.c][function-9][ln:867]
[2019-04-04 23:11:22,348][DEBUG] any debug message - [id:10][instance:4] - [COMP-5][file-8.c][function-12][ln:717]
[2019-04-04 23:11:23,715][INFO] any info message - [id:10][instance:3] - [COMP-12][file-9.c][function-12][ln:472]
[2019-04-04 23:11:25,215][INFO] any info message - [id:10][instance:3] - [COMP-13][file-6.c][function-5][ln:2]
[2019-04-04 23:11:26,716][INFO] any info message - [id:10][instance:2] - [COMP-10][file-1.c][function-3][ln:343]
[2019-04-04 23:11:28,216][INFO] any info message - [id:10][instance:6] - [COMP-6][file-3.c][function-8][ln:838]
[2019-04-04 23:11:29,717][INFO] any info message - [id:10][instance:5] - [COMP-6][file-7.c][function-10][ln:542]
[2019-04-04 23:11:31,218][INFO] any info message - [id:10][instance:1] - [COMP-10][file-3.c][function-1][ln:343]
[2019-04-04 23:11:32,718][INFO] any info message - [id:10][instance:5] - [COMP-4][file-13.c][function-4][ln:876]
[2019-04-04 23:11:34,219][INFO] any info message - [id:10][instance:4] - [COMP-7][file-4.c][function-11][ln:404]
[2019-04-04 23:11:35,720][INFO] any info message - [id:10][instance:1] - [COMP-11][file-3.c][function-6][ln:693]
[2019-04-04 23:11:37,221][INFO] any info message - [id:10][instance:3] - [COMP-4][file-6.c][function-11][ln:632]
[2019-04-04 23:11:37,351][DEBUG] any debug message - [id:10][instance:6] - [COMP-4][file-6.c][function-2][ln:862]
[2019-04-04 23:11:38,721][INFO] any info message - [id:10][instance:7] - [COMP-12][file-9.c][function-6][ln:372]
[2019-04-04 23:11:40,222][INFO] any info message - [id:10][instance:4] - [COMP-12][file-12.c][function-8][ln:731]
[2019-04-04 23:11:41,722][INFO] any info message - [id:10][instance:5] - [COMP-11][file-9.c][function-5][ln:642]
[2019-04-04 23:11:43,228][INFO] any info message - [id:10][instance:7] - [COMP-8][file-3.c][function-6][ln:915]
[2019-04-04 23:11:44,728][INFO] any info message - [id:10][instance:5] - [COMP-5][file-8.c][function-12][ln:54]
[2019-04-04 23:11:46,229][INFO] any info message - [id:10][instance:3] - [COMP-1][file-10.c][function-1][ln:528]
[2019-04-04 23:11:47,729][INFO] any info message - [id:10][instance:4] - [COMP-12][file-4.c][function-4][ln:529]
[2019-04-04 23:11:49,246][INFO] any info message - [id:10][instance:4] - [COMP-5][file-3.c][function-12][ln:712]
[2019-04-04 23:11:50,745][INFO] any info message - [id:10][instance:4] - [COMP-10][file-4.c][function-5][ln:926]
[2019-04-04 23:11:51,893][ERROR] It is an error message - [id:10][instance:3] - [COMP-10][file-7.c][function-7][ln:23]
[2019-04-04 23:11:52,107][WARNING] Here is a warning message - [id:10][instance:5] - [COMP-12][file-8.c][function-8][ln:82]
[2019-04-04 23:11:52,245][INFO] any info message - [id:10][instance:2] - [COMP-1][file-2.c][function-1][ln:361]
[2019-04-04 23:11:52,350][DEBUG] any debug message - [id:10][instance:5] - [COMP-12][file-12.c][function-8][ln:987]
[2019-04-04 23:11:53,746][INFO] any info message - [id:10][instance:2] - [COMP-5][file-12.c][function-5][ln:457]
[2019-04-04 23:11:55,246][INFO] any info message - [id:10][instance:1] - [COMP-2][file-12.c][function-7][ln:23]
[2019-04-04 23:11:56,747][INFO] any info message - [id:10][instance:2] - [COMP-11][file-13.c][function-13][ln:927]
[2019-04-04 23:11:58,247][INFO] any info message - [id:10][instance:6] - [COMP-11][file-13.c][function-1][ln:278]
[2019-04-04 23:11:59,752][INFO] any info message - [id:10][instance:5] - [COMP-3][file-7.c][function-4][ln:383]
[2019-04-04 23:12:01,253][INFO] any info message - [id:10][instance:3] - [COMP-6][file-10.c][function-11][ln:493]
[2019-04-04 23:12:02,754][INFO] any info message - [id:10][instance:3] - [COMP-13][file-11.c][function-2][ln:777]
[2019-04-04 23:12:04,253][INFO] any info message - [id:10][instance:3] - [COMP-8][file-8.c][function-12][ln:212]
[2019-04-04 23:12:05,753][INFO] any info message - [id:10][instance:4] - [COMP-1][file-7.c][function-8][ln:263]
[2019-04-04 23:12:07,253][INFO] any info message - [id:10][instance:6] - [COMP-3][file-4.c][function-10][ln:773]
[2019-04-04 23:12:07,351][DEBUG] any debug message - [id:10][instance:1] - [COMP-12][file-8.c][function-4][ln:217]
[2019-04-04 23:12:08,754][INFO] any info message - [id:10][instance:2] - [COMP-5][file-13.c][function-4][ln:577]
[2019-04-04 23:12:10,255][INFO] any info message - [id:10][instance:2] - [COMP-10][file-2.c][function-12][ln:215]
[2019-04-04 23:12:11,755][INFO] any info message - [id:10][instance:3] - [COMP-3][file-9.c][function-12][ln:189]
[2019-04-04 23:12:13,256][INFO] any info message - [id:10][instance:3] - [COMP-11][file-8.c][function-2][ln:622]
[2019-04-04 23:12:14,756][INFO] any info message - [id:10][instance:4] - [COMP-9][file-7.c][function-5][ln:593]
[2019-04-04 23:12:16,256][INFO] any info message - [id:10][instance:1] - [COMP-2][file-6.c][function-9][ln:25]
[2019-04-04 23:12:17,756][INFO] any info message - [id:10][instance:1] - [COMP-13][file-13.c][function-13][ln:324]
[2019-04-04 23:12:19,256][INFO] any info message - [id:10][instance:6] - [COMP-5][file-1.c][function-12][ln:224]
[2019-04-04 23:12:20,758][INFO] any info message - [id:10][instance:2] - [COMP-6][file-5.c][function-10][ln:646]
[2019-04-04 23:12:22,108][WARNING] Here is a warning message - [id:10][instance:5] - [COMP-4][file-13.c][function-1][ln:911]
[2019-04-04 23:12:22,259][INFO] any info message - [id:10][instance:3] - [COMP-6][file-5.c][function-9][ln:524]
[2019-04-04 23:12:22,351][DEBUG] any debug message - [id:10][instance:5] - [COMP-12][file-4.c][function-2][ln:77]
[2019-04-04 23:12:23,760][INFO] any info message - [id:10][instance:3] - [COMP-6][file-5.c][function-11][ln:972]
[2019-04-04 23:12:25,261][INFO] any info message - [id:10][instance:7] - [COMP-6][file-2.c][function-7][ln:147]
[2019-04-04 23:12:26,761][INFO] any info message - [id:10][instance:3] - [COMP-11][file-1.c][function-6][ln:561]
[2019-04-04 23:12:28,262][INFO] any info message - [id:10][instance:5] - [COMP-2][file-13.c][function-5][ln:297]
[2019-04-04 23:12:29,763][INFO] any info message - [id:10][instance:1] - [COMP-13][file-10.c][function-12][ln:953]
[2019-04-04 23:12:31,266][INFO] any info message - [id:10][instance:1] - [COMP-6][file-8.c][function-6][ln:57]
[2019-04-04 23:12:32,766][INFO] any info message - [id:10][instance:1] - [COMP-2][file-1.c][function-5][ln:911]
[2019-04-04 23:12:34,266][INFO] any info message - [id:10][instance:5] - [COMP-9][file-10.c][function-6][ln:183]
[2019-04-04 23:12:35,767][INFO] any info message - [id:10][instance:4] - [COMP-7][file-7.c][function-5][ln:808]
[2019-04-04 23:12:37,268][INFO] any info message - [id:10][instance:1] - [COMP-6][file-6.c][function-4][ln:992]
[2019-04-04 23:12:37,351][DEBUG] any debug message - [id:10][instance:1] - [COMP-12][file-10.c][function-10][ln:494]
[2019-04-04 23:12:38,768][INFO] any info message - [id:10][instance:4] - [COMP-5][file-5.c][function-8][ln:516]
[2019-04-04 23:12:40,268][INFO] any info message - [id:10][instance:5] - [COMP-11][file-7.c][function-9][ln:997]
[2019-04-04 23:12:41,775][INFO] any info message - [id:10][instance:3] - [COMP-9][file-11.c][function-5][ln:247]
[2019-04-04 23:12:43,276][INFO] any info message - [id:10][instance:7] - [COMP-4][file-4.c][function-13][ln:794]
[2019-04-04 23:12:44,776][INFO] any info message - [id:10][instance:4] - [COMP-8][file-13.c][function-7][ln:713]
[2019-04-04 23:12:46,277][INFO] any info message - [id:10][instance:3] - [COMP-8][file-8.c][function-11][ln:547]
[2019-04-04 23:12:47,778][INFO] any info message - [id:10][instance:7] - [COMP-13][file-3.c][function-3][ln:895]
[2019-04-04 23:12:49,278][INFO] any info message - [id:10][instance:3] - [COMP-6][file-10.c][function-13][ln:175]
[2019-04-04 23:12:50,779][INFO] any info message - [id:10][instance:2] - [COMP-11][file-13.c][function-10][ln:756]
[2019-04-04 23:12:51,840][CRITICAL] ATTENTION: This is a critical issue! - [id:10][instance:6] - [COMP-8][file-4.c][function-11][ln:378]
[2019-04-04 23:12:51,893][ERROR] It is an error message - [id:10][instance:7] - [COMP-4][file-5.c][function-13][ln:109]
[2019-04-04 23:12:52,108][WARNING] Here is a warning message - [id:10][instance:3] - [COMP-9][file-9.c][function-2][ln:649]
[2019-04-04 23:12:52,281][INFO] any info message - [id:10][instance:4] - [COMP-12][file-4.c][function-2][ln:415]
[2019-04-04 23:12:52,352][DEBUG] any debug message - [id:10][instance:2] - [COMP-6][file-12.c][function-9][ln:876]
[2019-04-04 23:12:53,782][INFO] any info message - [id:10][instance:2] - [COMP-6][file-11.c][function-13][ln:281]
[2019-04-04 23:12:55,284][INFO] any info message - [id:10][instance:2] - [COMP-8][file-7.c][function-10][ln:815]
[2019-04-04 23:12:56,785][INFO] any info message - [id:10][instance:7] - [COMP-2][file-4.c][function-4][ln:378]
[2019-04-04 23:12:58,286][INFO] any info message - [id:10][instance:6] - [COMP-2][file-10.c][function-5][ln:977]
[2019-04-04 23:12:59,786][INFO] any info message - [id:10][instance:3] - [COMP-12][file-3.c][function-7][ln:891]
[2019-04-04 23:13:01,287][INFO] any info message - [id:10][instance:2] - [COMP-13][file-10.c][function-9][ln:17]
[2019-04-04 23:13:02,791][INFO] any info message - [id:10][instance:6] - [COMP-7][file-3.c][function-13][ln:250]
[2019-04-04 23:13:04,291][INFO] any info message - [id:10][instance:6] - [COMP-7][file-13.c][function-12][ln:276]
[2019-04-04 23:13:05,792][INFO] any info message - [id:10][instance:6] - [COMP-5][file-2.c][function-1][ln:424]
[2019-04-04 23:13:07,293][INFO] any info message - [id:10][instance:2] - [COMP-2][file-10.c][function-6][ln:73]
[2019-04-04 23:13:07,353][DEBUG] any debug message - [id:10][instance:5] - [COMP-7][file-9.c][function-2][ln:17]
[2019-04-04 23:13:08,794][INFO] any info message - [id:10][instance:6] - [COMP-1][file-1.c][function-5][ln:347]
[2019-04-04 23:13:10,295][INFO] any info message - [id:10][instance:3] - [COMP-12][file-5.c][function-13][ln:556]
[2019-04-04 23:13:11,796][INFO] any info message - [id:10][instance:1] - [COMP-7][file-6.c][function-1][ln:986]
[2019-04-04 23:13:13,301][INFO] any info message - [id:10][instance:5] - [COMP-11][file-1.c][function-1][ln:78]
[2019-04-04 23:13:14,803][INFO] any info message - [id:10][instance:5] - [COMP-12][file-2.c][function-12][ln:242]
[2019-04-04 23:13:16,303][INFO] any info message - [id:10][instance:5] - [COMP-12][file-8.c][function-9][ln:779]
[2019-04-04 23:13:17,804][INFO] any info message - [id:10][instance:7] - [COMP-3][file-3.c][function-4][ln:224]
[2019-04-04 23:13:19,305][INFO] any info message - [id:10][instance:5] - [COMP-8][file-4.c][function-6][ln:438]
[2019-04-04 23:13:20,805][INFO] any info message - [id:10][instance:7] - [COMP-6][file-6.c][function-3][ln:475]
[2019-04-04 23:13:22,109][WARNING] Here is a warning message - [id:10][instance:7] - [COMP-6][file-13.c][function-9][ln:734]
[2019-04-04 23:13:22,305][INFO] any info message - [id:10][instance:6] - [COMP-6][file-13.c][function-10][ln:893]
[2019-04-04 23:13:22,354][DEBUG] any debug message - [id:10][instance:3] - [COMP-1][file-3.c][function-4][ln:847]
[2019-04-04 23:13:23,806][INFO] any info message - [id:10][instance:4] - [COMP-7][file-2.c][function-1][ln:943]
[2019-04-04 23:13:25,307][INFO] any info message - [id:10][instance:4] - [COMP-13][file-9.c][function-2][ln:39]
[2019-04-04 23:13:26,807][INFO] any info message - [id:10][instance:3] - [COMP-9][file-1.c][function-7][ln:356]
[2019-04-04 23:13:28,308][INFO] any info message - [id:10][instance:1] - [COMP-9][file-4.c][function-4][ln:283]
[2019-04-04 23:13:29,808][INFO] any info message - [id:10][instance:2] - [COMP-8][file-2.c][function-4][ln:616]
[2019-04-04 23:13:31,308][INFO] any info message - [id:10][instance:5] - [COMP-1][file-12.c][function-3][ln:561]
[2019-04-04 23:13:32,809][INFO] any info message - [id:10][instance:4] - [COMP-1][file-3.c][function-9][ln:539]
[2019-04-04 23:13:34,316][INFO] any info message - [id:10][instance:7] - [COMP-2][file-5.c][function-6][ln:402]
[2019-04-04 23:13:35,817][INFO] any info message - [id:10][instance:4] - [COMP-12][file-5.c][function-12][ln:675]
[2019-04-04 23:13:37,318][INFO] any info message - [id:10][instance:6] - [COMP-5][file-11.c][function-12][ln:229]
[2019-04-04 23:13:37,355][DEBUG] any debug message - [id:10][instance:7] - [COMP-13][file-6.c][function-9][ln:964]
[2019-04-04 23:13:38,821][INFO] any info message - [id:10][instance:2] - [COMP-6][file-8.c][function-2][ln:549]
[2019-04-04 23:13:40,322][INFO] any info message - [id:10][instance:3] - [COMP-3][file-9.c][function-4][ln:273]
[2019-04-04 23:13:41,821][INFO] any info message - [id:10][instance:2] - [COMP-8][file-7.c][function-5][ln:539]
[2019-04-04 23:13:43,322][INFO] any info message - [id:10][instance:4] - [COMP-5][file-7.c][function-4][ln:532]
[2019-04-04 23:13:44,829][INFO] any info message - [id:10][instance:1] - [COMP-7][file-12.c][function-1][ln:543]
[2019-04-04 23:13:46,329][INFO] any info message - [id:10][instance:7] - [COMP-6][file-1.c][function-1][ln:442]
[2019-04-04 23:13:47,829][INFO] any info message - [id:10][instance:3] - [COMP-7][file-10.c][function-2][ln:966]
[2019-04-04 23:13:49,330][INFO] any info message - [id:10][instance:1] - [COMP-7][file-5.c][function-3][ln:217]
[2019-04-04 23:13:50,830][INFO] any info message - [id:10][instance:5] - [COMP-12][file-5.c][function-1][ln:589]
[2019-04-04 23:13:51,894][ERROR] It is an error message - [id:10][instance:2] - [COMP-3][file-13.c][function-1][ln:477]
[2019-04-04 23:13:52,109][WARNING] Here is a warning message - [id:10][instance:6] - [COMP-12][file-7.c][function-8][ln:861]
[2019-04-04 23:13:52,330][INFO] any info message - [id:10][instance:7] - [COMP-13][file-5.c][function-1][ln:459]
[2019-04-04 23:13:52,355][DEBUG] any debug message - [id:10][instance:2] - [COMP-1][file-5.c][function-1][ln:222]
[2019-04-04 23:13:53,830][INFO] any info message - [id:10][instance:7] - [COMP-13][file-2.c][function-2][ln:867]
[2019-04-04 23:13:55,335][INFO] any info message - [id:10][instance:4] - [COMP-3][file-8.c][function-3][ln:42]
[2019-04-04 23:13:56,836][INFO] any info message - [id:10][instance:7] - [COMP-5][file-3.c][function-11][ln:16]
[2019-04-04 23:13:58,338][INFO] any info message - [id:10][instance:7] - [COMP-6][file-6.c][function-8][ln:417]
[2019-04-04 23:13:59,838][INFO] any info message - [id:10][instance:6] - [COMP-6][file-2.c][function-11][ln:846]
[2019-04-04 23:14:01,338][INFO] any info message - [id:10][instance:7] - [COMP-9][file-9.c][function-10][ln:554]
[2019-04-04 23:14:02,839][INFO] any info message - [id:10][instance:3] - [COMP-9][file-2.c][function-5][ln:831]
[2019-04-04 23:14:04,339][INFO] any info message - [id:10][instance:2] - [COMP-2][file-6.c][function-2][ln:679]
[2019-04-04 23:14:05,840][INFO] any info message - [id:10][instance:5] - [COMP-4][file-3.c][function-10][ln:53]
[2019-04-04 23:14:07,341][INFO] any info message - [id:10][instance:4] - [COMP-7][file-12.c][function-2][ln:550]
[2019-04-04 23:14:07,358][DEBUG] any debug message - [id:10][instance:6] - [COMP-9][file-10.c][function-2][ln:85]
[2019-04-04 23:14:08,842][INFO] any info message - [id:10][instance:2] - [COMP-12][file-13.c][function-1][ln:980]
[2019-04-04 23:14:10,343][INFO] any info message - [id:10][instance:4] - [COMP-8][file-9.c][function-12][ln:815]
[2019-04-04 23:14:11,844][INFO] any info message - [id:10][instance:6] - [COMP-6][file-10.c][function-12][ln:119]
[2019-04-04 23:14:13,344][INFO] any info message - [id:10][instance:2] - [COMP-6][file-8.c][function-7][ln:631]
[2019-04-04 23:14:14,845][INFO] any info message - [id:10][instance:6] - [COMP-2][file-13.c][function-9][ln:923]
[2019-04-04 23:14:16,346][INFO] any info message - [id:10][instance:1] - [COMP-8][file-11.c][function-5][ln:480]
[2019-04-04 23:14:17,850][INFO] any info message - [id:10][instance:2] - [COMP-3][file-7.c][function-7][ln:557]
[2019-04-04 23:14:19,351][INFO] any info message - [id:10][instance:3] - [COMP-13][file-1.c][function-12][ln:499]
[2019-04-04 23:14:20,852][INFO] any info message - [id:10][instance:4] - [COMP-9][file-6.c][function-12][ln:33]
[2019-04-04 23:14:22,110][WARNING] Here is a warning message - [id:10][instance:5] - [COMP-8][file-1.c][function-5][ln:596]
[2019-04-04 23:14:22,352][INFO] any info message - [id:10][instance:4] - [COMP-12][file-10.c][function-11][ln:259]
[2019-04-04 23:14:22,360][DEBUG] any debug message - [id:10][instance:7] - [COMP-3][file-7.c][function-10][ln:985]
[2019-04-04 23:14:23,852][INFO] any info message - [id:10][instance:7] - [COMP-13][file-1.c][function-2][ln:313]
[2019-04-04 23:14:25,358][INFO] any info message - [id:10][instance:2] - [COMP-5][file-3.c][function-1][ln:970]
[2019-04-04 23:14:26,859][INFO] any info message - [id:10][instance:2] - [COMP-11][file-9.c][function-12][ln:622]
[2019-04-04 23:14:28,360][INFO] any info message - [id:10][instance:3] - [COMP-3][file-7.c][function-12][ln:39]
[2019-04-04 23:14:29,860][INFO] any info message - [id:10][instance:4] - [COMP-13][file-3.c][function-1][ln:940]
[2019-04-04 23:14:31,360][INFO] any info message - [id:10][instance:2] - [COMP-4][file-2.c][function-12][ln:679]
[2019-04-04 23:14:32,861][INFO] any info message - [id:10][instance:4] - [COMP-2][file-12.c][function-5][ln:642]
[2019-04-04 23:14:34,363][INFO] any info message - [id:10][instance:3] - [COMP-8][file-12.c][function-5][ln:99]
[2019-04-04 23:14:35,862][INFO] any info message - [id:10][instance:6] - [COMP-5][file-7.c][function-6][ln:324]
[2019-04-04 23:14:37,363][DEBUG] any debug message - [id:10][instance:7] - [COMP-3][file-10.c][function-2][ln:137]
[2019-04-04 23:14:37,364][INFO] any info message - [id:10][instance:5] - [COMP-11][file-1.c][function-11][ln:764]
[2019-04-04 23:14:38,865][INFO] any info message - [id:10][instance:7] - [COMP-12][file-12.c][function-6][ln:833]
[2019-04-04 23:14:40,367][INFO] any info message - [id:10][instance:4] - [COMP-7][file-5.c][function-5][ln:487]
[2019-04-04 23:14:41,866][INFO] any info message - [id:10][instance:4] - [COMP-4][file-8.c][function-6][ln:832]
[2019-04-04 23:14:43,367][INFO] any info message - [id:10][instance:4] - [COMP-2][file-10.c][function-2][ln:240]
[2019-04-04 23:14:44,876][INFO] any info message - [id:10][instance:4] - [COMP-6][file-1.c][function-11][ln:287]
[2019-04-04 23:14:46,376][INFO] any info message - [id:10][instance:1] - [COMP-9][file-11.c][function-2][ln:11]
[2019-04-04 23:14:47,877][INFO] any info message - [id:10][instance:3] - [COMP-10][file-12.c][function-11][ln:361]
[2019-04-04 23:14:49,377][INFO] any info message - [id:10][instance:1] - [COMP-1][file-3.c][function-8][ln:868]
[2019-04-04 23:14:50,878][INFO] any info message - [id:10][instance:6] - [COMP-11][file-7.c][function-7][ln:86]
[2019-04-04 23:14:51,840][CRITICAL] ATTENTION: This is a critical issue! - [id:10][instance:3] - [COMP-3][file-5.c][function-8][ln:302]
[2019-04-04 23:14:51,894][ERROR] It is an error message - [id:10][instance:2] - [COMP-13][file-5.c][function-2][ln:105]
[2019-04-04 23:14:52,110][WARNING] Here is a warning message - [id:10][instance:6] - [COMP-2][file-6.c][function-3][ln:87]
[2019-04-04 23:14:52,362][DEBUG] any debug message - [id:10][instance:5] - [COMP-8][file-13.c][function-9][ln:634]
[2019-04-04 23:14:52,379][INFO] any info message - [id:10][instance:6] - [COMP-11][file-1.c][function-6][ln:455]
[2019-04-04 23:14:53,883][INFO] any info message - [id:10][instance:2] - [COMP-6][file-1.c][function-13][ln:621]
[2019-04-04 23:14:55,385][INFO] any info message - [id:10][instance:4] - [COMP-7][file-10.c][function-13][ln:40]
[2019-04-04 23:14:56,885][INFO] any info message - [id:10][instance:4] - [COMP-4][file-12.c][function-6][ln:748]
[2019-04-04 23:14:58,386][INFO] any info message - [id:10][instance:4] - [COMP-7][file-10.c][function-13][ln:196]
[2019-04-04 23:14:59,888][INFO] any info message - [id:10][instance:4] - [COMP-13][file-11.c][function-11][ln:107]
[2019-04-04 23:15:01,389][INFO] any info message - [id:10][instance:6] - [COMP-9][file-2.c][function-2][ln:180]
[2019-04-04 23:15:02,890][INFO] any info message - [id:10][instance:7] - [COMP-7][file-7.c][function-12][ln:344]
[2019-04-04 23:15:04,391][INFO] any info message - [id:10][instance:3] - [COMP-5][file-1.c][function-3][ln:35]
[2019-04-04 23:15:05,891][INFO] any info message - [id:10][instance:2] - [COMP-12][file-12.c][function-1][ln:566]
[2019-04-04 23:15:07,363][DEBUG] any debug message - [id:10][instance:5] - [COMP-12][file-10.c][function-5][ln:214]
[2019-04-04 23:15:07,391][INFO] any info message - [id:10][instance:4] - [COMP-2][file-9.c][function-5][ln:495]
[2019-04-04 23:15:08,891][INFO] any info message - [id:10][instance:2] - [COMP-9][file-6.c][function-2][ln:783]
[2019-04-04 23:15:10,392][INFO] any info message - [id:10][instance:6] - [COMP-2][file-7.c][function-9][ln:113]
[2019-04-04 23:15:11,892][INFO] any info message - [id:10][instance:5] - [COMP-6][file-7.c][function-9][ln:818]
[2019-04-04 23:15:13,393][INFO] any info message - [id:10][instance:2] - [COMP-1][file-10.c][function-2][ln:750]
[2019-04-04 23:15:14,894][INFO] any info message - [id:10][instance:3] - [COMP-4][file-3.c][function-13][ln:709]
[2019-04-04 23:15:16,394][INFO] any info message - [id:10][instance:1] - [COMP-1][file-12.c][function-6][ln:989]
[2019-04-04 23:15:17,895][INFO] any info message - [id:10][instance:7] - [COMP-3][file-6.c][function-5][ln:507]
[2019-04-04 23:15:19,395][INFO] any info message - [id:10][instance:6] - [COMP-7][file-12.c][function-9][ln:822]
[2019-04-04 23:15:20,895][INFO] any info message - [id:10][instance:5] - [COMP-4][file-11.c][function-11][ln:613]
[2019-04-04 23:15:22,111][WARNING] Here is a warning message - [id:10][instance:1] - [COMP-2][file-2.c][function-6][ln:874]
[2019-04-04 23:15:22,364][DEBUG] any debug message - [id:10][instance:2] - [COMP-7][file-9.c][function-2][ln:315]
[2019-04-04 23:15:22,395][INFO] any info message - [id:10][instance:2] - [COMP-9][file-7.c][function-5][ln:880]
[2019-04-04 23:15:23,895][INFO] any info message - [id:10][instance:6] - [COMP-2][file-11.c][function-10][ln:351]
[2019-04-04 23:15:25,396][INFO] any info message - [id:10][instance:5] - [COMP-7][file-2.c][function-6][ln:369]
[2019-04-04 23:15:26,898][INFO] any info message - [id:10][instance:4] - [COMP-7][file-10.c][function-6][ln:809]
[2019-04-04 23:15:28,398][INFO] any info message - [id:10][instance:2] - [COMP-11][file-5.c][function-7][ln:271]
[2019-04-04 23:15:29,899][INFO] any info message - [id:10][instance:6] - [COMP-9][file-2.c][function-5][ln:160]
[2019-04-04 23:15:31,400][INFO] any info message - [id:10][instance:7] - [COMP-6][file-13.c][function-3][ln:66]
[2019-04-04 23:15:32,900][INFO] any info message - [id:10][instance:7] - [COMP-7][file-13.c][function-8][ln:255]
[2019-04-04 23:15:34,401][INFO] any info message - [id:10][instance:1] - [COMP-2][file-2.c][function-2][ln:76]
[2019-04-04 23:15:35,902][INFO] any info message - [id:10][instance:5] - [COMP-9][file-2.c][function-3][ln:296]
[2019-04-04 23:15:37,364][DEBUG] any debug message - [id:10][instance:6] - [COMP-11][file-8.c][function-9][ln:745]
[2019-04-04 23:15:37,403][INFO] any info message - [id:10][instance:4] - [COMP-5][file-8.c][function-11][ln:917]
[2019-04-04 23:15:38,903][INFO] any info message - [id:10][instance:6] - [COMP-5][file-11.c][function-12][ln:533]
[2019-04-04 23:15:40,403][INFO] any info message - [id:10][instance:7] - [COMP-11][file-2.c][function-11][ln:355]
[2019-04-04 23:15:41,903][INFO] any info message - [id:10][instance:4] - [COMP-7][file-2.c][function-10][ln:345]
[2019-04-04 23:15:43,404][INFO] any info message - [id:10][instance:4] - [COMP-5][file-4.c][function-13][ln:916]
[2019-04-04 23:15:44,904][INFO] any info message - [id:10][instance:5] - [COMP-2][file-3.c][function-10][ln:371]
[2019-04-04 23:15:46,406][INFO] any info message - [id:10][instance:2] - [COMP-12][file-12.c][function-2][ln:266]
[2019-04-04 23:15:47,907][INFO] any info message - [id:10][instance:7] - [COMP-3][file-9.c][function-7][ln:628]
[2019-04-04 23:15:49,407][INFO] any info message - [id:10][instance:4] - [COMP-10][file-11.c][function-5][ln:467]
[2019-04-04 23:15:50,914][INFO] any info message - [id:10][instance:3] - [COMP-6][file-3.c][function-1][ln:652]
[2019-04-04 23:15:51,895][ERROR] It is an error message - [id:10][instance:3] - [COMP-8][file-3.c][function-3][ln:968]
[2019-04-04 23:15:52,111][WARNING] Here is a warning message - [id:10][instance:2] - [COMP-2][file-7.c][function-12][ln:880]
[2019-04-04 23:15:52,364][DEBUG] any debug message - [id:10][instance:3] - [COMP-11][file-9.c][function-2][ln:579]
[2019-04-04 23:15:52,414][INFO] any info message - [id:10][instance:3] - [COMP-13][file-10.c][function-11][ln:676]
[2019-04-04 23:15:53,915][INFO] any info message - [id:10][instance:4] - [COMP-11][file-12.c][function-7][ln:949]
[2019-04-04 23:15:55,415][INFO] any info message - [id:10][instance:3] - [COMP-4][file-5.c][function-7][ln:586]
[2019-04-04 23:15:56,917][INFO] any info message - [id:10][instance:5] - [COMP-4][file-6.c][function-5][ln:498]
[2019-04-04 23:15:58,418][INFO] any info message - [id:10][instance:2] - [COMP-3][file-5.c][function-12][ln:216]
[2019-04-04 23:15:59,918][INFO] any info message - [id:10][instance:4] - [COMP-7][file-9.c][function-7][ln:57]
[2019-04-04 23:16:01,419][INFO] any info message - [id:10][instance:4] - [COMP-12][file-2.c][function-2][ln:372]
[2019-04-04 23:16:02,919][INFO] any info message - [id:10][instance:2] - [COMP-7][file-1.c][function-9][ln:753]
[2019-04-04 23:16:04,419][INFO] any info message - [id:10][instance:7] - [COMP-4][file-2.c][function-11][ln:116]
[2019-04-04 23:16:05,920][INFO] any info message - [id:10][instance:1] - [COMP-3][file-7.c][function-1][ln:203]
[2019-04-04 23:16:07,367][DEBUG] any debug message - [id:10][instance:1] - [COMP-7][file-4.c][function-4][ln:282]
[2019-04-04 23:16:07,433][INFO] any info message - [id:10][instance:5] - [COMP-12][file-10.c][function-6][ln:863]
[2019-04-04 23:16:08,934][INFO] any info message - [id:10][instance:5] - [COMP-2][file-2.c][function-12][ln:826]
[2019-04-04 23:16:10,434][INFO] any info message - [id:10][instance:4] - [COMP-10][file-13.c][function-3][ln:755]
[2019-04-04 23:16:11,935][INFO] any info message - [id:10][instance:6] - [COMP-5][file-11.c][function-7][ln:185]
[2019-04-04 23:16:13,435][INFO] any info message - [id:10][instance:6] - [COMP-8][file-7.c][function-3][ln:394]
[2019-04-04 23:16:14,935][INFO] any info message - [id:10][instance:3] - [COMP-2][file-2.c][function-11][ln:575]
[2019-04-04 23:16:16,435][INFO] any info message - [id:10][instance:2] - [COMP-13][file-11.c][function-5][ln:213]
[2019-04-04 23:16:17,936][INFO] any info message - [id:10][instance:7] - [COMP-5][file-12.c][function-11][ln:836]
[2019-04-04 23:16:19,437][INFO] any info message - [id:10][instance:5] - [COMP-1][file-9.c][function-13][ln:846]
[2019-04-04 23:16:20,937][INFO] any info message - [id:10][instance:5] - [COMP-3][file-9.c][function-3][ln:897]
[2019-04-04 23:16:22,112][WARNING] Here is a warning message - [id:10][instance:4] - [COMP-9][file-8.c][function-13][ln:930]
[2019-04-04 23:16:22,367][DEBUG] any debug message - [id:10][instance:6] - [COMP-2][file-8.c][function-5][ln:819]
[2019-04-04 23:16:22,437][INFO] any info message - [id:10][instance:1] - [COMP-2][file-9.c][function-6][ln:454]
[2019-04-04 23:16:23,938][INFO] any info message - [id:10][instance:4] - [COMP-11][file-12.c][function-5][ln:492]
[2019-04-04 23:16:25,438][INFO] any info message - [id:10][instance:6] - [COMP-1][file-8.c][function-12][ln:875]
[2019-04-04 23:16:26,939][INFO] any info message - [id:10][instance:7] - [COMP-11][file-13.c][function-9][ln:272]
[2019-04-04 23:16:28,439][INFO] any info message - [id:10][instance:2] - [COMP-5][file-12.c][function-3][ln:842]
[2019-04-04 23:16:29,939][INFO] any info message - [id:10][instance:5] - [COMP-9][file-13.c][function-11][ln:493]
[2019-04-04 23:16:31,439][INFO] any info message - [id:10][instance:5] - [COMP-7][file-11.c][function-7][ln:214]
[2019-04-04 23:16:32,939][INFO] any info message - [id:10][instance:7] - [COMP-8][file-6.c][function-6][ln:797]
[2019-04-04 23:16:34,440][INFO] any info message - [id:10][instance:3] - [COMP-10][file-7.c][function-2][ln:639]
[2019-04-04 23:16:35,940][INFO] any info message - [id:10][instance:4] - [COMP-6][file-1.c][function-4][ln:57]
[2019-04-04 23:16:37,368][DEBUG] any debug message - [id:10][instance:3] - [COMP-11][file-3.c][function-2][ln:175]
[2019-04-04 23:16:37,441][INFO] any info message - [id:10][instance:1] - [COMP-6][file-9.c][function-4][ln:100]
[2019-04-04 23:16:38,941][INFO] any info message - [id:10][instance:4] - [COMP-8][file-9.c][function-9][ln:558]
[2019-04-04 23:16:40,442][INFO] any info message - [id:10][instance:6] - [COMP-3][file-2.c][function-1][ln:15]
[2019-04-04 23:16:41,942][INFO] any info message - [id:10][instance:6] - [COMP-8][file-11.c][function-5][ln:422]
[2019-04-04 23:16:43,442][INFO] any info message - [id:10][instance:4] - [COMP-4][file-8.c][function-2][ln:917]
[2019-04-04 23:16:44,943][INFO] any info message - [id:10][instance:2] - [COMP-5][file-4.c][function-8][ln:400]
[2019-04-04 23:16:46,443][INFO] any info message - [id:10][instance:2] - [COMP-9][file-12.c][function-6][ln:504]
[2019-04-04 23:16:47,944][INFO] any info message - [id:10][instance:4] - [COMP-2][file-2.c][function-5][ln:72]
[2019-04-04 23:16:49,445][INFO] any info message - [id:10][instance:4] - [COMP-9][file-4.c][function-10][ln:209]
[2019-04-04 23:16:50,945][INFO] any info message - [id:10][instance:5] - [COMP-2][file-9.c][function-13][ln:885]
[2019-04-04 23:16:51,841][CRITICAL] ATTENTION: This is a critical issue! - [id:10][instance:7] - [COMP-8][file-7.c][function-9][ln:911]
[2019-04-04 23:16:51,895][ERROR] It is an error message - [id:10][instance:1] - [COMP-5][file-6.c][function-13][ln:183]
[2019-04-04 23:16:52,113][WARNING] Here is a warning message - [id:10][instance:3] - [COMP-3][file-7.c][function-3][ln:296]
[2019-04-04 23:16:52,368][DEBUG] any debug message - [id:10][instance:4] - [COMP-9][file-9.c][function-6][ln:236]
[2019-04-04 23:16:52,445][INFO] any info message - [id:10][instance:1] - [COMP-1][file-13.c][function-8][ln:861]
[2019-04-04 23:16:53,945][INFO] any info message - [id:10][instance:5] - [COMP-12][file-10.c][function-2][ln:321]
[2019-04-04 23:16:55,446][INFO] any info message - [id:10][instance:6] - [COMP-10][file-3.c][function-5][ln:451]
[2019-04-04 23:16:56,947][INFO] any info message - [id:10][instance:2] - [COMP-11][file-10.c][function-1][ln:839]
[2019-04-04 23:16:58,447][INFO] any info message - [id:10][instance:1] - [COMP-5][file-5.c][function-5][ln:361]
[2019-04-04 23:16:59,948][INFO] any info message - [id:10][instance:1] - [COMP-6][file-6.c][function-10][ln:896]
[2019-04-04 23:17:01,450][INFO] any info message - [id:10][instance:2] - [COMP-6][file-3.c][function-5][ln:287]
[2019-04-04 23:17:02,949][INFO] any info message - [id:10][instance:6] - [COMP-1][file-2.c][function-11][ln:267]
[2019-04-04 23:17:04,449][INFO] any info message - [id:10][instance:3] - [COMP-3][file-10.c][function-7][ln:308]
