[2019-04-05 09:17:41,913][ERROR] It is an error message - [id:10][instance:6] - [COMP-10][file-13.c][function-2][ln:952]
[2019-04-05 09:17:41,937][WARNING] Here is a warning message - [id:10][instance:4] - [COMP-7][file-2.c][function-5][ln:90]
[2019-04-05 09:17:41,937][DEBUG] any debug message - [id:10][instance:7] - [COMP-2][file-8.c][function-11][ln:689]
[2019-04-05 09:17:42,236][INFO] any info message - [id:10][instance:1] - [COMP-6][file-4.c][function-4][ln:230]
[2019-04-05 09:17:43,736][INFO] any info message - [id:10][instance:3] - [COMP-6][file-7.c][function-9][ln:568]
[2019-04-05 09:17:45,238][INFO] any info message - [id:10][instance:7] - [COMP-13][file-2.c][function-9][ln:363]
[2019-04-05 09:17:46,738][INFO] any info message - [id:10][instance:3] - [COMP-10][file-9.c][function-13][ln:976]
[2019-04-05 09:17:48,239][INFO] any info message - [id:10][instance:4] - [COMP-1][file-12.c][function-8][ln:859]
[2019-04-05 09:17:49,741][INFO] any info message - [id:10][instance:6] - [COMP-12][file-9.c][function-1][ln:798]
[2019-04-05 09:17:51,241][INFO] any info message - [id:10][instance:4] - [COMP-8][file-9.c][function-8][ln:350]
[2019-04-05 09:17:52,741][INFO] any info message - [id:10][instance:5] - [COMP-12][file-12.c][function-9][ln:550]
[2019-04-05 09:17:54,242][INFO] any info message - [id:10][instance:1] - [COMP-11][file-4.c][function-10][ln:814]
[2019-04-05 09:17:55,743][INFO] any info message - [id:10][instance:1] - [COMP-2][file-7.c][function-2][ln:685]
[2019-04-05 09:17:56,938][DEBUG] any debug message - [id:10][instance:2] - [COMP-9][file-8.c][function-8][ln:329]
[2019-04-05 09:17:57,258][INFO] any info message - [id:10][instance:5] - [COMP-7][file-13.c][function-12][ln:86]
[2019-04-05 09:17:58,759][INFO] any info message - [id:10][instance:2] - [COMP-5][file-10.c][function-11][ln:542]
[2019-04-05 09:18:00,259][INFO] any info message - [id:10][instance:4] - [COMP-5][file-1.c][function-13][ln:829]
[2019-04-05 09:18:01,760][INFO] any info message - [id:10][instance:4] - [COMP-9][file-4.c][function-12][ln:213]
[2019-04-05 09:18:03,271][INFO] any info message - [id:10][instance:3] - [COMP-4][file-9.c][function-10][ln:340]
[2019-04-05 09:18:04,772][INFO] any info message - [id:10][instance:3] - [COMP-13][file-11.c][function-13][ln:913]
[2019-04-05 09:18:06,271][INFO] any info message - [id:10][instance:6] - [COMP-3][file-5.c][function-11][ln:948]
[2019-04-05 09:18:07,772][INFO] any info message - [id:10][instance:1] - [COMP-8][file-2.c][function-3][ln:788]
[2019-04-05 09:18:09,273][INFO] any info message - [id:10][instance:2] - [COMP-3][file-2.c][function-12][ln:458]
[2019-04-05 09:18:10,774][INFO] any info message - [id:10][instance:4] - [COMP-9][file-9.c][function-11][ln:825]
[2019-04-05 09:18:11,938][WARNING] Here is a warning message - [id:10][instance:3] - [COMP-12][file-1.c][function-7][ln:116]
[2019-04-05 09:18:11,938][DEBUG] any debug message - [id:10][instance:3] - [COMP-3][file-13.c][function-6][ln:290]
[2019-04-05 09:18:12,275][INFO] any info message - [id:10][instance:5] - [COMP-2][file-13.c][function-13][ln:180]
[2019-04-05 09:18:13,806][INFO] any info message - [id:10][instance:7] - [COMP-1][file-3.c][function-9][ln:359]
[2019-04-05 09:18:15,306][INFO] any info message - [id:10][instance:5] - [COMP-3][file-1.c][function-3][ln:79]
[2019-04-05 09:18:16,806][INFO] any info message - [id:10][instance:6] - [COMP-2][file-5.c][function-7][ln:576]
[2019-04-05 09:18:18,308][INFO] any info message - [id:10][instance:6] - [COMP-9][file-12.c][function-5][ln:893]
[2019-04-05 09:18:19,808][INFO] any info message - [id:10][instance:4] - [COMP-12][file-6.c][function-9][ln:759]
[2019-04-05 09:18:21,309][INFO] any info message - [id:10][instance:3] - [COMP-11][file-11.c][function-3][ln:497]
[2019-04-05 09:18:22,810][INFO] any info message - [id:10][instance:7] - [COMP-2][file-9.c][function-1][ln:974]
[2019-04-05 09:18:24,326][INFO] any info message - [id:10][instance:6] - [COMP-1][file-9.c][function-8][ln:24]
[2019-04-05 09:18:25,827][INFO] any info message - [id:10][instance:6] - [COMP-13][file-1.c][function-3][ln:929]
[2019-04-05 09:18:26,940][DEBUG] any debug message - [id:10][instance:6] - [COMP-7][file-5.c][function-3][ln:329]
[2019-04-05 09:18:27,327][INFO] any info message - [id:10][instance:7] - [COMP-2][file-5.c][function-8][ln:589]
[2019-04-05 09:18:28,827][INFO] any info message - [id:10][instance:5] - [COMP-4][file-10.c][function-5][ln:328]
[2019-04-05 09:18:30,329][INFO] any info message - [id:10][instance:6] - [COMP-13][file-5.c][function-1][ln:300]
[2019-04-05 09:18:31,830][INFO] any info message - [id:10][instance:2] - [COMP-3][file-8.c][function-4][ln:799]
[2019-04-05 09:18:33,331][INFO] any info message - [id:10][instance:3] - [COMP-11][file-2.c][function-1][ln:782]
[2019-04-05 09:18:34,831][INFO] any info message - [id:10][instance:5] - [COMP-8][file-1.c][function-6][ln:349]
[2019-04-05 09:18:36,334][INFO] any info message - [id:10][instance:5] - [COMP-4][file-10.c][function-8][ln:778]
[2019-04-05 09:18:37,833][INFO] any info message - [id:10][instance:1] - [COMP-8][file-2.c][function-6][ln:979]
[2019-04-05 09:18:39,335][INFO] any info message - [id:10][instance:5] - [COMP-11][file-2.c][function-1][ln:133]
[2019-04-05 09:18:40,838][INFO] any info message - [id:10][instance:2] - [COMP-1][file-10.c][function-3][ln:585]
[2019-04-05 09:18:41,915][ERROR] It is an error message - [id:10][instance:4] - [COMP-8][file-11.c][function-2][ln:61]
[2019-04-05 09:18:41,938][WARNING] Here is a warning message - [id:10][instance:1] - [COMP-5][file-5.c][function-9][ln:669]
[2019-04-05 09:18:41,940][DEBUG] any debug message - [id:10][instance:4] - [COMP-7][file-4.c][function-2][ln:41]
[2019-04-05 09:18:42,338][INFO] any info message - [id:10][instance:5] - [COMP-1][file-10.c][function-12][ln:653]
[2019-04-05 09:18:43,839][INFO] any info message - [id:10][instance:5] - [COMP-5][file-4.c][function-1][ln:507]
[2019-04-05 09:18:45,340][INFO] any info message - [id:10][instance:4] - [COMP-6][file-6.c][function-3][ln:275]
[2019-04-05 09:18:46,845][INFO] any info message - [id:10][instance:2] - [COMP-7][file-11.c][function-8][ln:69]
[2019-04-05 09:18:48,346][INFO] any info message - [id:10][instance:1] - [COMP-1][file-7.c][function-10][ln:622]
[2019-04-05 09:18:49,847][INFO] any info message - [id:10][instance:2] - [COMP-13][file-5.c][function-11][ln:634]
[2019-04-05 09:18:51,347][INFO] any info message - [id:10][instance:3] - [COMP-1][file-12.c][function-6][ln:81]
[2019-04-05 09:18:52,848][INFO] any info message - [id:10][instance:1] - [COMP-2][file-6.c][function-2][ln:1]
[2019-04-05 09:18:54,348][INFO] any info message - [id:10][instance:7] - [COMP-12][file-5.c][function-8][ln:893]
[2019-04-05 09:18:55,849][INFO] any info message - [id:10][instance:2] - [COMP-9][file-7.c][function-8][ln:227]
[2019-04-05 09:18:56,941][DEBUG] any debug message - [id:10][instance:7] - [COMP-11][file-2.c][function-12][ln:135]
[2019-04-05 09:18:57,349][INFO] any info message - [id:10][instance:1] - [COMP-3][file-5.c][function-3][ln:510]
[2019-04-05 09:18:58,849][INFO] any info message - [id:10][instance:5] - [COMP-13][file-8.c][function-9][ln:256]
[2019-04-05 09:19:00,350][INFO] any info message - [id:10][instance:7] - [COMP-4][file-8.c][function-8][ln:94]
[2019-04-05 09:19:01,851][INFO] any info message - [id:10][instance:7] - [COMP-2][file-5.c][function-2][ln:968]
[2019-04-05 09:19:03,355][INFO] any info message - [id:10][instance:3] - [COMP-4][file-10.c][function-10][ln:116]
[2019-04-05 09:19:04,856][INFO] any info message - [id:10][instance:4] - [COMP-7][file-8.c][function-11][ln:49]
[2019-04-05 09:19:06,357][INFO] any info message - [id:10][instance:6] - [COMP-12][file-12.c][function-11][ln:242]
[2019-04-05 09:19:07,858][INFO] any info message - [id:10][instance:6] - [COMP-9][file-3.c][function-10][ln:920]
[2019-04-05 09:19:09,358][INFO] any info message - [id:10][instance:7] - [COMP-4][file-11.c][function-9][ln:647]
[2019-04-05 09:19:10,865][INFO] any info message - [id:10][instance:6] - [COMP-8][file-12.c][function-9][ln:823]
[2019-04-05 09:19:11,939][WARNING] Here is a warning message - [id:10][instance:4] - [COMP-8][file-8.c][function-13][ln:669]
[2019-04-05 09:19:11,941][DEBUG] any debug message - [id:10][instance:5] - [COMP-1][file-11.c][function-3][ln:964]
[2019-04-05 09:19:12,366][INFO] any info message - [id:10][instance:1] - [COMP-3][file-1.c][function-7][ln:380]
[2019-04-05 09:19:13,868][INFO] any info message - [id:10][instance:3] - [COMP-4][file-4.c][function-3][ln:356]
[2019-04-05 09:19:15,369][INFO] any info message - [id:10][instance:4] - [COMP-12][file-7.c][function-3][ln:293]
[2019-04-05 09:19:16,869][INFO] any info message - [id:10][instance:4] - [COMP-7][file-8.c][function-2][ln:301]
[2019-04-05 09:19:18,370][INFO] any info message - [id:10][instance:5] - [COMP-5][file-3.c][function-7][ln:429]
[2019-04-05 09:19:19,870][INFO] any info message - [id:10][instance:7] - [COMP-7][file-5.c][function-10][ln:207]
[2019-04-05 09:19:21,371][INFO] any info message - [id:10][instance:3] - [COMP-12][file-3.c][function-13][ln:61]
[2019-04-05 09:19:22,892][INFO] any info message - [id:10][instance:3] - [COMP-3][file-4.c][function-2][ln:529]
[2019-04-05 09:19:24,396][INFO] any info message - [id:10][instance:3] - [COMP-10][file-9.c][function-13][ln:444]
[2019-04-05 09:19:25,898][INFO] any info message - [id:10][instance:1] - [COMP-8][file-4.c][function-13][ln:752]
[2019-04-05 09:19:27,006][DEBUG] any debug message - [id:10][instance:7] - [COMP-5][file-2.c][function-8][ln:98]
[2019-04-05 09:19:27,404][INFO] any info message - [id:10][instance:6] - [COMP-12][file-3.c][function-9][ln:200]
[2019-04-05 09:19:28,906][INFO] any info message - [id:10][instance:2] - [COMP-4][file-4.c][function-7][ln:810]
[2019-04-05 09:19:30,406][INFO] any info message - [id:10][instance:2] - [COMP-2][file-6.c][function-3][ln:900]
[2019-04-05 09:19:31,907][INFO] any info message - [id:10][instance:5] - [COMP-11][file-13.c][function-6][ln:372]
[2019-04-05 09:19:33,408][INFO] any info message - [id:10][instance:2] - [COMP-2][file-10.c][function-6][ln:111]
[2019-04-05 09:19:34,908][INFO] any info message - [id:10][instance:1] - [COMP-7][file-11.c][function-4][ln:944]
[2019-04-05 09:19:36,408][INFO] any info message - [id:10][instance:6] - [COMP-1][file-13.c][function-1][ln:887]
[2019-04-05 09:19:37,908][INFO] any info message - [id:10][instance:6] - [COMP-12][file-13.c][function-7][ln:476]
[2019-04-05 09:19:39,409][INFO] any info message - [id:10][instance:5] - [COMP-10][file-7.c][function-5][ln:170]
[2019-04-05 09:19:40,919][INFO] any info message - [id:10][instance:2] - [COMP-8][file-2.c][function-11][ln:986]
[2019-04-05 09:19:41,904][CRITICAL] ATTENTION: This is a critical issue! - [id:10][instance:3] - [COMP-5][file-13.c][function-10][ln:735]
[2019-04-05 09:19:41,915][ERROR] It is an error message - [id:10][instance:3] - [COMP-12][file-11.c][function-8][ln:786]
[2019-04-05 09:19:41,940][WARNING] Here is a warning message - [id:10][instance:5] - [COMP-4][file-7.c][function-2][ln:164]
[2019-04-05 09:19:42,006][DEBUG] any debug message - [id:10][instance:1] - [COMP-5][file-9.c][function-5][ln:573]
[2019-04-05 09:19:42,420][INFO] any info message - [id:10][instance:7] - [COMP-1][file-11.c][function-1][ln:216]
[2019-04-05 09:19:43,921][INFO] any info message - [id:10][instance:3] - [COMP-6][file-8.c][function-11][ln:519]
[2019-04-05 09:19:45,446][INFO] any info message - [id:10][instance:2] - [COMP-8][file-9.c][function-13][ln:366]
[2019-04-05 09:19:46,948][INFO] any info message - [id:10][instance:2] - [COMP-6][file-3.c][function-10][ln:171]
[2019-04-05 09:19:48,458][INFO] any info message - [id:10][instance:6] - [COMP-5][file-12.c][function-6][ln:735]
[2019-04-05 09:19:49,959][INFO] any info message - [id:10][instance:2] - [COMP-1][file-13.c][function-8][ln:761]
[2019-04-05 09:19:51,460][INFO] any info message - [id:10][instance:2] - [COMP-1][file-11.c][function-9][ln:400]
[2019-04-05 09:19:52,960][INFO] any info message - [id:10][instance:6] - [COMP-12][file-12.c][function-1][ln:159]
[2019-04-05 09:19:54,461][INFO] any info message - [id:10][instance:6] - [COMP-2][file-10.c][function-10][ln:424]
[2019-04-05 09:19:55,964][INFO] any info message - [id:10][instance:4] - [COMP-5][file-2.c][function-13][ln:992]
[2019-04-05 09:19:57,006][DEBUG] any debug message - [id:10][instance:1] - [COMP-11][file-9.c][function-13][ln:91]
[2019-04-05 09:19:57,464][INFO] any info message - [id:10][instance:4] - [COMP-4][file-5.c][function-9][ln:949]
[2019-04-05 09:19:58,965][INFO] any info message - [id:10][instance:4] - [COMP-6][file-2.c][function-2][ln:443]
[2019-04-05 09:20:00,465][INFO] any info message - [id:10][instance:3] - [COMP-11][file-5.c][function-13][ln:406]
[2019-04-05 09:20:01,974][INFO] any info message - [id:10][instance:3] - [COMP-2][file-6.c][function-3][ln:810]
[2019-04-05 09:20:03,475][INFO] any info message - [id:10][instance:5] - [COMP-10][file-2.c][function-1][ln:823]
[2019-04-05 09:20:04,977][INFO] any info message - [id:10][instance:1] - [COMP-13][file-8.c][function-12][ln:295]
[2019-04-05 09:20:06,478][INFO] any info message - [id:10][instance:1] - [COMP-11][file-12.c][function-4][ln:124]
[2019-04-05 09:20:07,978][INFO] any info message - [id:10][instance:3] - [COMP-8][file-6.c][function-9][ln:561]
[2019-04-05 09:20:09,479][INFO] any info message - [id:10][instance:5] - [COMP-9][file-13.c][function-6][ln:53]
[2019-04-05 09:20:10,979][INFO] any info message - [id:10][instance:2] - [COMP-1][file-6.c][function-5][ln:220]
[2019-04-05 09:20:11,941][WARNING] Here is a warning message - [id:10][instance:5] - [COMP-6][file-8.c][function-5][ln:669]
[2019-04-05 09:20:12,007][DEBUG] any debug message - [id:10][instance:6] - [COMP-1][file-7.c][function-8][ln:285]
[2019-04-05 09:20:12,480][INFO] any info message - [id:10][instance:6] - [COMP-8][file-4.c][function-7][ln:301]
[2019-04-05 09:20:13,989][INFO] any info message - [id:10][instance:4] - [COMP-12][file-5.c][function-12][ln:574]
[2019-04-05 09:20:15,490][INFO] any info message - [id:10][instance:1] - [COMP-2][file-12.c][function-2][ln:547]
[2019-04-05 09:20:16,994][INFO] any info message - [id:10][instance:5] - [COMP-3][file-10.c][function-4][ln:668]
[2019-04-05 09:20:18,496][INFO] any info message - [id:10][instance:1] - [COMP-13][file-12.c][function-12][ln:381]
[2019-04-05 09:20:19,996][INFO] any info message - [id:10][instance:4] - [COMP-12][file-9.c][function-6][ln:971]
[2019-04-05 09:20:21,497][INFO] any info message - [id:10][instance:1] - [COMP-9][file-13.c][function-3][ln:351]
[2019-04-05 09:20:22,998][INFO] any info message - [id:10][instance:3] - [COMP-13][file-2.c][function-11][ln:707]
[2019-04-05 09:20:24,498][INFO] any info message - [id:10][instance:3] - [COMP-5][file-7.c][function-3][ln:293]
[2019-04-05 09:20:25,998][INFO] any info message - [id:10][instance:4] - [COMP-13][file-6.c][function-3][ln:979]
[2019-04-05 09:20:27,007][DEBUG] any debug message - [id:10][instance:3] - [COMP-6][file-5.c][function-10][ln:932]
[2019-04-05 09:20:27,500][INFO] any info message - [id:10][instance:7] - [COMP-12][file-1.c][function-9][ln:440]
[2019-04-05 09:20:29,006][INFO] any info message - [id:10][instance:6] - [COMP-3][file-2.c][function-5][ln:305]
[2019-04-05 09:20:30,507][INFO] any info message - [id:10][instance:2] - [COMP-3][file-9.c][function-8][ln:247]
[2019-04-05 09:20:32,007][INFO] any info message - [id:10][instance:6] - [COMP-2][file-12.c][function-13][ln:317]
[2019-04-05 09:20:33,508][INFO] any info message - [id:10][instance:3] - [COMP-8][file-8.c][function-5][ln:844]
[2019-04-05 09:20:35,029][INFO] any info message - [id:10][instance:5] - [COMP-5][file-13.c][function-10][ln:597]
[2019-04-05 09:20:36,531][INFO] any info message - [id:10][instance:5] - [COMP-2][file-3.c][function-4][ln:458]
[2019-04-05 09:20:38,034][INFO] any info message - [id:10][instance:2] - [COMP-9][file-11.c][function-5][ln:581]
[2019-04-05 09:20:39,534][INFO] any info message - [id:10][instance:6] - [COMP-12][file-9.c][function-9][ln:721]
[2019-04-05 09:20:41,035][INFO] any info message - [id:10][instance:1] - [COMP-10][file-9.c][function-6][ln:889]
[2019-04-05 09:20:41,916][ERROR] It is an error message - [id:10][instance:7] - [COMP-12][file-7.c][function-9][ln:607]
[2019-04-05 09:20:41,941][WARNING] Here is a warning message - [id:10][instance:7] - [COMP-10][file-9.c][function-7][ln:506]
[2019-04-05 09:20:42,008][DEBUG] any debug message - [id:10][instance:5] - [COMP-11][file-9.c][function-6][ln:83]
[2019-04-05 09:20:42,535][INFO] any info message - [id:10][instance:2] - [COMP-13][file-12.c][function-5][ln:21]
[2019-04-05 09:20:44,036][INFO] any info message - [id:10][instance:1] - [COMP-7][file-7.c][function-3][ln:858]
[2019-04-05 09:20:45,550][INFO] any info message - [id:10][instance:5] - [COMP-3][file-5.c][function-13][ln:30]
[2019-04-05 09:20:47,054][INFO] any info message - [id:10][instance:1] - [COMP-3][file-13.c][function-1][ln:827]
[2019-04-05 09:20:48,555][INFO] any info message - [id:10][instance:2] - [COMP-5][file-10.c][function-13][ln:945]
[2019-04-05 09:20:50,057][INFO] any info message - [id:10][instance:2] - [COMP-11][file-1.c][function-8][ln:587]
[2019-04-05 09:20:51,558][INFO] any info message - [id:10][instance:1] - [COMP-4][file-2.c][function-3][ln:475]
[2019-04-05 09:20:53,058][INFO] any info message - [id:10][instance:4] - [COMP-13][file-5.c][function-4][ln:845]
[2019-04-05 09:20:54,558][INFO] any info message - [id:10][instance:5] - [COMP-5][file-11.c][function-4][ln:361]
[2019-04-05 09:20:56,062][INFO] any info message - [id:10][instance:7] - [COMP-5][file-11.c][function-6][ln:713]
[2019-04-05 09:20:57,009][DEBUG] any debug message - [id:10][instance:6] - [COMP-1][file-11.c][function-13][ln:385]
[2019-04-05 09:20:57,563][INFO] any info message - [id:10][instance:1] - [COMP-8][file-7.c][function-12][ln:974]
[2019-04-05 09:20:59,064][INFO] any info message - [id:10][instance:1] - [COMP-7][file-12.c][function-13][ln:849]
[2019-04-05 09:21:00,564][INFO] any info message - [id:10][instance:2] - [COMP-1][file-11.c][function-13][ln:255]
[2019-04-05 09:21:02,065][INFO] any info message - [id:10][instance:3] - [COMP-9][file-11.c][function-4][ln:513]
[2019-04-05 09:21:03,566][INFO] any info message - [id:10][instance:5] - [COMP-7][file-13.c][function-4][ln:930]
[2019-04-05 09:21:05,067][INFO] any info message - [id:10][instance:2] - [COMP-7][file-10.c][function-6][ln:136]
[2019-04-05 09:21:06,593][INFO] any info message - [id:10][instance:2] - [COMP-5][file-7.c][function-9][ln:110]
[2019-04-05 09:21:08,094][INFO] any info message - [id:10][instance:2] - [COMP-6][file-1.c][function-1][ln:762]
[2019-04-05 09:21:09,595][INFO] any info message - [id:10][instance:5] - [COMP-6][file-2.c][function-5][ln:217]
[2019-04-05 09:21:11,096][INFO] any info message - [id:10][instance:3] - [COMP-13][file-3.c][function-2][ln:541]
[2019-04-05 09:21:11,941][WARNING] Here is a warning message - [id:10][instance:1] - [COMP-12][file-12.c][function-4][ln:783]
[2019-04-05 09:21:12,010][DEBUG] any debug message - [id:10][instance:5] - [COMP-9][file-13.c][function-7][ln:755]
[2019-04-05 09:21:12,596][INFO] any info message - [id:10][instance:1] - [COMP-12][file-2.c][function-7][ln:566]
[2019-04-05 09:21:14,096][INFO] any info message - [id:10][instance:6] - [COMP-9][file-10.c][function-8][ln:675]
[2019-04-05 09:21:15,596][INFO] any info message - [id:10][instance:3] - [COMP-13][file-2.c][function-12][ln:736]
[2019-04-05 09:21:17,099][INFO] any info message - [id:10][instance:3] - [COMP-12][file-5.c][function-8][ln:597]
[2019-04-05 09:21:18,600][INFO] any info message - [id:10][instance:4] - [COMP-10][file-11.c][function-13][ln:426]
[2019-04-05 09:21:20,102][INFO] any info message - [id:10][instance:2] - [COMP-1][file-9.c][function-12][ln:369]
[2019-04-05 09:21:21,601][INFO] any info message - [id:10][instance:5] - [COMP-9][file-2.c][function-12][ln:713]
[2019-04-05 09:21:23,106][INFO] any info message - [id:10][instance:2] - [COMP-5][file-5.c][function-11][ln:933]
[2019-04-05 09:21:24,606][INFO] any info message - [id:10][instance:2] - [COMP-3][file-2.c][function-9][ln:256]
[2019-04-05 09:21:26,112][INFO] any info message - [id:10][instance:4] - [COMP-13][file-7.c][function-11][ln:172]
[2019-04-05 09:21:27,011][DEBUG] any debug message - [id:10][instance:7] - [COMP-10][file-3.c][function-4][ln:34]
[2019-04-05 09:21:27,613][INFO] any info message - [id:10][instance:7] - [COMP-7][file-11.c][function-6][ln:169]
[2019-04-05 09:21:29,114][INFO] any info message - [id:10][instance:3] - [COMP-6][file-12.c][function-3][ln:820]
[2019-04-05 09:21:30,615][INFO] any info message - [id:10][instance:3] - [COMP-7][file-13.c][function-12][ln:300]
[2019-04-05 09:21:32,116][INFO] any info message - [id:10][instance:6] - [COMP-6][file-4.c][function-6][ln:709]
[2019-04-05 09:21:33,616][INFO] any info message - [id:10][instance:2] - [COMP-2][file-9.c][function-5][ln:230]
[2019-04-05 09:21:35,116][INFO] any info message - [id:10][instance:3] - [COMP-9][file-8.c][function-2][ln:540]
[2019-04-05 09:21:36,617][INFO] any info message - [id:10][instance:7] - [COMP-9][file-7.c][function-2][ln:640]
[2019-04-05 09:21:38,118][INFO] any info message - [id:10][instance:5] - [COMP-8][file-3.c][function-4][ln:181]
[2019-04-05 09:21:39,620][INFO] any info message - [id:10][instance:2] - [COMP-7][file-8.c][function-7][ln:242]
[2019-04-05 09:21:41,120][INFO] any info message - [id:10][instance:2] - [COMP-12][file-11.c][function-2][ln:320]
[2019-04-05 09:21:41,904][CRITICAL] ATTENTION: This is a critical issue! - [id:10][instance:2] - [COMP-6][file-4.c][function-6][ln:653]
[2019-04-05 09:21:41,921][ERROR] It is an error message - [id:10][instance:5] - [COMP-12][file-10.c][function-13][ln:346]
[2019-04-05 09:21:41,943][WARNING] Here is a warning message - [id:10][instance:5] - [COMP-7][file-11.c][function-12][ln:659]
[2019-04-05 09:21:42,012][DEBUG] any debug message - [id:10][instance:6] - [COMP-11][file-13.c][function-7][ln:172]
[2019-04-05 09:21:42,620][INFO] any info message - [id:10][instance:4] - [COMP-5][file-2.c][function-3][ln:89]
[2019-04-05 09:21:44,120][INFO] any info message - [id:10][instance:7] - [COMP-5][file-2.c][function-8][ln:805]
[2019-04-05 09:21:45,621][INFO] any info message - [id:10][instance:7] - [COMP-7][file-10.c][function-5][ln:206]
[2019-04-05 09:21:47,122][INFO] any info message - [id:10][instance:7] - [COMP-3][file-8.c][function-9][ln:714]
[2019-04-05 09:21:48,622][INFO] any info message - [id:10][instance:3] - [COMP-4][file-9.c][function-8][ln:159]
[2019-04-05 09:21:50,122][INFO] any info message - [id:10][instance:4] - [COMP-6][file-2.c][function-8][ln:293]
[2019-04-05 09:21:51,624][INFO] any info message - [id:10][instance:2] - [COMP-7][file-2.c][function-2][ln:144]
[2019-04-05 09:21:53,124][INFO] any info message - [id:10][instance:7] - [COMP-7][file-6.c][function-7][ln:445]
[2019-04-05 09:21:54,624][INFO] any info message - [id:10][instance:3] - [COMP-3][file-8.c][function-13][ln:501]
[2019-04-05 09:21:56,124][INFO] any info message - [id:10][instance:5] - [COMP-8][file-5.c][function-6][ln:177]
[2019-04-05 09:21:57,013][DEBUG] any debug message - [id:10][instance:3] - [COMP-2][file-1.c][function-10][ln:24]
[2019-04-05 09:21:57,626][INFO] any info message - [id:10][instance:4] - [COMP-4][file-7.c][function-5][ln:766]
[2019-04-05 09:21:59,126][INFO] any info message - [id:10][instance:3] - [COMP-6][file-3.c][function-9][ln:201]
[2019-04-05 09:22:00,629][INFO] any info message - [id:10][instance:6] - [COMP-6][file-10.c][function-11][ln:1]
[2019-04-05 09:22:02,129][INFO] any info message - [id:10][instance:2] - [COMP-10][file-1.c][function-5][ln:746]
[2019-04-05 09:22:03,629][INFO] any info message - [id:10][instance:7] - [COMP-3][file-8.c][function-2][ln:426]
[2019-04-05 09:22:05,130][INFO] any info message - [id:10][instance:7] - [COMP-7][file-8.c][function-5][ln:290]
[2019-04-05 09:22:06,630][INFO] any info message - [id:10][instance:6] - [COMP-2][file-13.c][function-7][ln:680]
[2019-04-05 09:22:08,131][INFO] any info message - [id:10][instance:3] - [COMP-3][file-7.c][function-9][ln:8]
[2019-04-05 09:22:09,632][INFO] any info message - [id:10][instance:7] - [COMP-9][file-4.c][function-4][ln:208]
[2019-04-05 09:22:11,140][INFO] any info message - [id:10][instance:3] - [COMP-12][file-5.c][function-4][ln:288]
[2019-04-05 09:22:11,943][WARNING] Here is a warning message - [id:10][instance:3] - [COMP-2][file-7.c][function-8][ln:954]
[2019-04-05 09:22:12,013][DEBUG] any debug message - [id:10][instance:5] - [COMP-2][file-3.c][function-3][ln:873]
[2019-04-05 09:22:12,640][INFO] any info message - [id:10][instance:5] - [COMP-9][file-2.c][function-1][ln:481]
[2019-04-05 09:22:14,140][INFO] any info message - [id:10][instance:4] - [COMP-4][file-1.c][function-13][ln:433]
[2019-04-05 09:22:15,640][INFO] any info message - [id:10][instance:2] - [COMP-1][file-1.c][function-10][ln:506]
[2019-04-05 09:22:17,141][INFO] any info message - [id:10][instance:3] - [COMP-7][file-5.c][function-3][ln:765]
[2019-04-05 09:22:18,642][INFO] any info message - [id:10][instance:1] - [COMP-5][file-10.c][function-12][ln:81]
[2019-04-05 09:22:20,142][INFO] any info message - [id:10][instance:5] - [COMP-13][file-9.c][function-7][ln:185]
[2019-04-05 09:22:21,643][INFO] any info message - [id:10][instance:2] - [COMP-1][file-13.c][function-4][ln:937]
[2019-04-05 09:22:23,143][INFO] any info message - [id:10][instance:1] - [COMP-7][file-12.c][function-6][ln:450]
[2019-04-05 09:22:24,645][INFO] any info message - [id:10][instance:4] - [COMP-9][file-6.c][function-1][ln:611]
[2019-04-05 09:22:26,147][INFO] any info message - [id:10][instance:7] - [COMP-6][file-9.c][function-11][ln:246]
[2019-04-05 09:22:27,019][DEBUG] any debug message - [id:10][instance:2] - [COMP-6][file-6.c][function-12][ln:289]
[2019-04-05 09:22:27,648][INFO] any info message - [id:10][instance:2] - [COMP-2][file-7.c][function-8][ln:416]
[2019-04-05 09:22:29,148][INFO] any info message - [id:10][instance:5] - [COMP-9][file-11.c][function-12][ln:290]
[2019-04-05 09:22:30,648][INFO] any info message - [id:10][instance:1] - [COMP-13][file-2.c][function-11][ln:169]
[2019-04-05 09:22:32,149][INFO] any info message - [id:10][instance:3] - [COMP-10][file-3.c][function-3][ln:58]
[2019-04-05 09:22:33,650][INFO] any info message - [id:10][instance:7] - [COMP-7][file-9.c][function-4][ln:846]
[2019-04-05 09:22:35,150][INFO] any info message - [id:10][instance:5] - [COMP-4][file-10.c][function-2][ln:359]
[2019-04-05 09:22:36,650][INFO] any info message - [id:10][instance:7] - [COMP-12][file-10.c][function-4][ln:882]
[2019-04-05 09:22:38,151][INFO] any info message - [id:10][instance:1] - [COMP-6][file-10.c][function-2][ln:951]
[2019-04-05 09:22:39,670][INFO] any info message - [id:10][instance:3] - [COMP-7][file-1.c][function-12][ln:737]
[2019-04-05 09:22:41,171][INFO] any info message - [id:10][instance:4] - [COMP-7][file-8.c][function-10][ln:795]
[2019-04-05 09:22:41,923][ERROR] It is an error message - [id:10][instance:3] - [COMP-5][file-6.c][function-2][ln:851]
[2019-04-05 09:22:41,944][WARNING] Here is a warning message - [id:10][instance:2] - [COMP-5][file-5.c][function-6][ln:757]
[2019-04-05 09:22:42,019][DEBUG] any debug message - [id:10][instance:1] - [COMP-7][file-1.c][function-13][ln:265]
[2019-04-05 09:22:42,672][INFO] any info message - [id:10][instance:4] - [COMP-1][file-10.c][function-2][ln:828]
[2019-04-05 09:22:44,173][INFO] any info message - [id:10][instance:5] - [COMP-4][file-10.c][function-7][ln:80]
[2019-04-05 09:22:45,678][INFO] any info message - [id:10][instance:3] - [COMP-5][file-8.c][function-13][ln:438]
[2019-04-05 09:22:47,179][INFO] any info message - [id:10][instance:1] - [COMP-3][file-3.c][function-6][ln:79]
[2019-04-05 09:22:48,681][INFO] any info message - [id:10][instance:1] - [COMP-11][file-10.c][function-3][ln:745]
[2019-04-05 09:22:50,181][INFO] any info message - [id:10][instance:2] - [COMP-10][file-12.c][function-10][ln:245]
[2019-04-05 09:22:51,683][INFO] any info message - [id:10][instance:7] - [COMP-13][file-10.c][function-11][ln:615]
[2019-04-05 09:22:53,183][INFO] any info message - [id:10][instance:1] - [COMP-2][file-11.c][function-2][ln:95]
[2019-04-05 09:22:54,683][INFO] any info message - [id:10][instance:2] - [COMP-10][file-9.c][function-5][ln:711]
[2019-04-05 09:22:56,185][INFO] any info message - [id:10][instance:3] - [COMP-9][file-1.c][function-2][ln:74]
[2019-04-05 09:22:57,021][DEBUG] any debug message - [id:10][instance:6] - [COMP-5][file-12.c][function-3][ln:298]
[2019-04-05 09:22:57,684][INFO] any info message - [id:10][instance:7] - [COMP-12][file-2.c][function-7][ln:307]
[2019-04-05 09:22:59,185][INFO] any info message - [id:10][instance:6] - [COMP-1][file-8.c][function-4][ln:340]
[2019-04-05 09:23:00,685][INFO] any info message - [id:10][instance:6] - [COMP-9][file-8.c][function-8][ln:805]
[2019-04-05 09:23:02,185][INFO] any info message - [id:10][instance:3] - [COMP-7][file-6.c][function-3][ln:22]
[2019-04-05 09:23:03,686][INFO] any info message - [id:10][instance:7] - [COMP-8][file-4.c][function-7][ln:686]
[2019-04-05 09:23:05,187][INFO] any info message - [id:10][instance:4] - [COMP-10][file-13.c][function-11][ln:768]
[2019-04-05 09:23:06,688][INFO] any info message - [id:10][instance:3] - [COMP-10][file-12.c][function-2][ln:529]
[2019-04-05 09:23:08,190][INFO] any info message - [id:10][instance:6] - [COMP-7][file-13.c][function-5][ln:109]
[2019-04-05 09:23:09,690][INFO] any info message - [id:10][instance:5] - [COMP-3][file-12.c][function-13][ln:218]
[2019-04-05 09:23:11,194][INFO] any info message - [id:10][instance:6] - [COMP-13][file-9.c][function-13][ln:401]
[2019-04-05 09:23:11,944][WARNING] Here is a warning message - [id:10][instance:2] - [COMP-4][file-6.c][function-12][ln:325]
[2019-04-05 09:23:12,022][DEBUG] any debug message - [id:10][instance:7] - [COMP-1][file-2.c][function-6][ln:577]
[2019-04-05 09:23:12,695][INFO] any info message - [id:10][instance:1] - [COMP-12][file-3.c][function-7][ln:157]
[2019-04-05 09:23:14,197][INFO] any info message - [id:10][instance:7] - [COMP-8][file-9.c][function-5][ln:15]
[2019-04-05 09:23:15,700][INFO] any info message - [id:10][instance:7] - [COMP-7][file-5.c][function-2][ln:72]
[2019-04-05 09:23:17,201][INFO] any info message - [id:10][instance:4] - [COMP-4][file-11.c][function-12][ln:91]
[2019-04-05 09:23:18,701][INFO] any info message - [id:10][instance:3] - [COMP-2][file-13.c][function-11][ln:720]
[2019-04-05 09:23:20,212][INFO] any info message - [id:10][instance:7] - [COMP-5][file-4.c][function-12][ln:243]
[2019-04-05 09:23:21,711][INFO] any info message - [id:10][instance:2] - [COMP-1][file-7.c][function-12][ln:126]
[2019-04-05 09:23:23,213][INFO] any info message - [id:10][instance:3] - [COMP-13][file-10.c][function-1][ln:580]
[2019-04-05 09:23:24,713][INFO] any info message - [id:10][instance:1] - [COMP-3][file-3.c][function-8][ln:8]
[2019-04-05 09:23:26,214][INFO] any info message - [id:10][instance:2] - [COMP-11][file-12.c][function-12][ln:544]
[2019-04-05 09:23:27,023][DEBUG] any debug message - [id:10][instance:5] - [COMP-7][file-3.c][function-8][ln:402]
[2019-04-05 09:23:27,715][INFO] any info message - [id:10][instance:6] - [COMP-11][file-2.c][function-3][ln:814]
[2019-04-05 09:23:29,216][INFO] any info message - [id:10][instance:7] - [COMP-7][file-9.c][function-13][ln:987]
[2019-04-05 09:23:30,716][INFO] any info message - [id:10][instance:3] - [COMP-9][file-10.c][function-10][ln:404]
[2019-04-05 09:23:32,216][INFO] any info message - [id:10][instance:1] - [COMP-1][file-11.c][function-5][ln:629]
[2019-04-05 09:23:33,718][INFO] any info message - [id:10][instance:2] - [COMP-12][file-4.c][function-4][ln:298]
[2019-04-05 09:23:35,218][INFO] any info message - [id:10][instance:5] - [COMP-9][file-5.c][function-3][ln:970]
[2019-04-05 09:23:36,718][INFO] any info message - [id:10][instance:6] - [COMP-8][file-9.c][function-11][ln:965]
[2019-04-05 09:23:38,219][INFO] any info message - [id:10][instance:3] - [COMP-6][file-4.c][function-3][ln:955]
[2019-04-05 09:23:39,720][INFO] any info message - [id:10][instance:4] - [COMP-10][file-3.c][function-5][ln:75]
[2019-04-05 09:23:41,221][INFO] any info message - [id:10][instance:1] - [COMP-8][file-2.c][function-10][ln:119]
[2019-04-05 09:23:41,905][CRITICAL] ATTENTION: This is a critical issue! - [id:10][instance:4] - [COMP-3][file-7.c][function-6][ln:674]
[2019-04-05 09:23:41,924][ERROR] It is an error message - [id:10][instance:1] - [COMP-4][file-5.c][function-5][ln:365]
[2019-04-05 09:23:41,945][WARNING] Here is a warning message - [id:10][instance:2] - [COMP-1][file-2.c][function-10][ln:158]
[2019-04-05 09:23:42,024][DEBUG] any debug message - [id:10][instance:3] - [COMP-8][file-8.c][function-5][ln:58]
[2019-04-05 09:23:42,722][INFO] any info message - [id:10][instance:4] - [COMP-4][file-3.c][function-13][ln:556]
[2019-04-05 09:23:44,222][INFO] any info message - [id:10][instance:2] - [COMP-2][file-8.c][function-3][ln:404]
[2019-04-05 09:23:45,724][INFO] any info message - [id:10][instance:1] - [COMP-1][file-1.c][function-9][ln:424]
[2019-04-05 09:23:47,224][INFO] any info message - [id:10][instance:3] - [COMP-10][file-9.c][function-4][ln:888]
[2019-04-05 09:23:48,724][INFO] any info message - [id:10][instance:2] - [COMP-10][file-7.c][function-9][ln:579]
[2019-04-05 09:23:50,224][INFO] any info message - [id:10][instance:4] - [COMP-3][file-13.c][function-1][ln:413]
[2019-04-05 09:23:51,725][INFO] any info message - [id:10][instance:4] - [COMP-10][file-1.c][function-10][ln:556]
[2019-04-05 09:23:53,225][INFO] any info message - [id:10][instance:7] - [COMP-12][file-6.c][function-6][ln:568]
[2019-04-05 09:23:54,726][INFO] any info message - [id:10][instance:6] - [COMP-11][file-13.c][function-13][ln:130]
[2019-04-05 09:23:56,228][INFO] any info message - [id:10][instance:7] - [COMP-2][file-12.c][function-12][ln:702]
[2019-04-05 09:23:57,025][DEBUG] any debug message - [id:10][instance:1] - [COMP-8][file-3.c][function-2][ln:209]
[2019-04-05 09:23:57,740][INFO] any info message - [id:10][instance:3] - [COMP-10][file-3.c][function-4][ln:117]
[2019-04-05 09:23:59,240][INFO] any info message - [id:10][instance:5] - [COMP-3][file-4.c][function-4][ln:840]
[2019-04-05 09:24:00,740][INFO] any info message - [id:10][instance:1] - [COMP-12][file-12.c][function-6][ln:792]
[2019-04-05 09:24:02,241][INFO] any info message - [id:10][instance:6] - [COMP-3][file-7.c][function-4][ln:349]
[2019-04-05 09:24:03,741][INFO] any info message - [id:10][instance:5] - [COMP-11][file-1.c][function-11][ln:955]
[2019-04-05 09:24:05,241][INFO] any info message - [id:10][instance:2] - [COMP-6][file-13.c][function-11][ln:702]
[2019-04-05 09:24:06,742][INFO] any info message - [id:10][instance:1] - [COMP-12][file-6.c][function-1][ln:707]
[2019-04-05 09:24:08,243][INFO] any info message - [id:10][instance:1] - [COMP-12][file-1.c][function-9][ln:463]
[2019-04-05 09:24:09,743][INFO] any info message - [id:10][instance:3] - [COMP-9][file-11.c][function-7][ln:529]
[2019-04-05 09:24:11,247][INFO] any info message - [id:10][instance:1] - [COMP-10][file-10.c][function-12][ln:193]
[2019-04-05 09:24:11,945][WARNING] Here is a warning message - [id:10][instance:1] - [COMP-11][file-8.c][function-1][ln:228]
[2019-04-05 09:24:12,026][DEBUG] any debug message - [id:10][instance:6] - [COMP-8][file-1.c][function-9][ln:857]
[2019-04-05 09:24:12,751][INFO] any info message - [id:10][instance:1] - [COMP-11][file-9.c][function-12][ln:489]
[2019-04-05 09:24:14,252][INFO] any info message - [id:10][instance:4] - [COMP-9][file-1.c][function-4][ln:195]
[2019-04-05 09:24:15,752][INFO] any info message - [id:10][instance:4] - [COMP-1][file-6.c][function-4][ln:284]
[2019-04-05 09:24:17,253][INFO] any info message - [id:10][instance:5] - [COMP-4][file-7.c][function-9][ln:810]
[2019-04-05 09:24:18,754][INFO] any info message - [id:10][instance:3] - [COMP-13][file-1.c][function-9][ln:277]
[2019-04-05 09:24:20,266][INFO] any info message - [id:10][instance:3] - [COMP-13][file-11.c][function-9][ln:150]
[2019-04-05 09:24:21,767][INFO] any info message - [id:10][instance:5] - [COMP-12][file-9.c][function-9][ln:604]
[2019-04-05 09:24:23,268][INFO] any info message - [id:10][instance:7] - [COMP-2][file-12.c][function-1][ln:648]
[2019-04-05 09:24:24,769][INFO] any info message - [id:10][instance:1] - [COMP-3][file-7.c][function-6][ln:579]
[2019-04-05 09:24:26,268][INFO] any info message - [id:10][instance:2] - [COMP-6][file-10.c][function-10][ln:116]
[2019-04-05 09:24:27,027][DEBUG] any debug message - [id:10][instance:4] - [COMP-2][file-1.c][function-13][ln:351]
[2019-04-05 09:24:27,770][INFO] any info message - [id:10][instance:5] - [COMP-4][file-1.c][function-12][ln:291]
[2019-04-05 09:24:29,271][INFO] any info message - [id:10][instance:3] - [COMP-5][file-3.c][function-11][ln:332]
[2019-04-05 09:24:30,772][INFO] any info message - [id:10][instance:2] - [COMP-9][file-11.c][function-4][ln:307]
[2019-04-05 09:24:32,272][INFO] any info message - [id:10][instance:6] - [COMP-13][file-2.c][function-1][ln:828]
[2019-04-05 09:24:33,778][INFO] any info message - [id:10][instance:2] - [COMP-12][file-4.c][function-10][ln:747]
[2019-04-05 09:24:35,295][INFO] any info message - [id:10][instance:5] - [COMP-2][file-13.c][function-10][ln:643]
[2019-04-05 09:24:36,799][INFO] any info message - [id:10][instance:2] - [COMP-11][file-13.c][function-1][ln:547]
[2019-04-05 09:24:38,299][INFO] any info message - [id:10][instance:4] - [COMP-13][file-4.c][function-2][ln:435]
[2019-04-05 09:24:39,800][INFO] any info message - [id:10][instance:4] - [COMP-8][file-12.c][function-3][ln:885]
[2019-04-05 09:24:41,300][INFO] any info message - [id:10][instance:1] - [COMP-12][file-5.c][function-11][ln:702]
[2019-04-05 09:24:41,924][ERROR] It is an error message - [id:10][instance:4] - [COMP-6][file-2.c][function-9][ln:611]
[2019-04-05 09:24:41,946][WARNING] Here is a warning message - [id:10][instance:4] - [COMP-8][file-10.c][function-7][ln:794]
[2019-04-05 09:24:42,027][DEBUG] any debug message - [id:10][instance:7] - [COMP-1][file-13.c][function-13][ln:538]
[2019-04-05 09:24:42,801][INFO] any info message - [id:10][instance:1] - [COMP-7][file-9.c][function-4][ln:837]
[2019-04-05 09:24:44,301][INFO] any info message - [id:10][instance:5] - [COMP-12][file-2.c][function-5][ln:941]
[2019-04-05 09:24:45,802][INFO] any info message - [id:10][instance:7] - [COMP-11][file-11.c][function-5][ln:863]
[2019-04-05 09:24:47,302][INFO] any info message - [id:10][instance:7] - [COMP-10][file-7.c][function-6][ln:132]
[2019-04-05 09:24:48,806][INFO] any info message - [id:10][instance:2] - [COMP-8][file-6.c][function-8][ln:164]
[2019-04-05 09:24:50,307][INFO] any info message - [id:10][instance:5] - [COMP-12][file-5.c][function-10][ln:119]
[2019-04-05 09:24:51,808][INFO] any info message - [id:10][instance:7] - [COMP-12][file-9.c][function-1][ln:166]
[2019-04-05 09:24:53,310][INFO] any info message - [id:10][instance:6] - [COMP-2][file-9.c][function-12][ln:289]
[2019-04-05 09:24:54,809][INFO] any info message - [id:10][instance:4] - [COMP-12][file-4.c][function-11][ln:744]
[2019-04-05 09:24:56,310][INFO] any info message - [id:10][instance:5] - [COMP-1][file-1.c][function-8][ln:289]
[2019-04-05 09:24:57,045][DEBUG] any debug message - [id:10][instance:4] - [COMP-4][file-12.c][function-8][ln:997]
[2019-04-05 09:24:57,811][INFO] any info message - [id:10][instance:7] - [COMP-7][file-13.c][function-11][ln:840]
[2019-04-05 09:24:59,311][INFO] any info message - [id:10][instance:6] - [COMP-11][file-3.c][function-7][ln:853]
[2019-04-05 09:25:00,811][INFO] any info message - [id:10][instance:3] - [COMP-11][file-13.c][function-3][ln:192]
[2019-04-05 09:25:02,319][INFO] any info message - [id:10][instance:7] - [COMP-9][file-9.c][function-5][ln:224]
[2019-04-05 09:25:03,820][INFO] any info message - [id:10][instance:4] - [COMP-3][file-11.c][function-4][ln:587]
[2019-04-05 09:25:05,320][INFO] any info message - [id:10][instance:4] - [COMP-11][file-11.c][function-10][ln:90]
[2019-04-05 09:25:06,821][INFO] any info message - [id:10][instance:3] - [COMP-5][file-8.c][function-12][ln:376]
[2019-04-05 09:25:08,323][INFO] any info message - [id:10][instance:7] - [COMP-5][file-5.c][function-11][ln:146]
[2019-04-05 09:25:09,825][INFO] any info message - [id:10][instance:5] - [COMP-11][file-4.c][function-5][ln:621]
[2019-04-05 09:25:11,325][INFO] any info message - [id:10][instance:7] - [COMP-12][file-8.c][function-10][ln:113]
[2019-04-05 09:25:11,947][WARNING] Here is a warning message - [id:10][instance:4] - [COMP-11][file-5.c][function-8][ln:836]
[2019-04-05 09:25:12,045][DEBUG] any debug message - [id:10][instance:4] - [COMP-8][file-2.c][function-5][ln:58]
[2019-04-05 09:25:12,825][INFO] any info message - [id:10][instance:3] - [COMP-2][file-12.c][function-7][ln:893]
[2019-04-05 09:25:14,345][INFO] any info message - [id:10][instance:5] - [COMP-9][file-10.c][function-8][ln:687]
[2019-04-05 09:25:15,854][INFO] any info message - [id:10][instance:7] - [COMP-9][file-11.c][function-6][ln:924]
[2019-04-05 09:25:17,355][INFO] any info message - [id:10][instance:6] - [COMP-8][file-10.c][function-11][ln:488]
[2019-04-05 09:25:18,878][INFO] any info message - [id:10][instance:3] - [COMP-1][file-7.c][function-4][ln:655]
[2019-04-05 09:25:20,378][INFO] any info message - [id:10][instance:3] - [COMP-5][file-3.c][function-8][ln:59]
[2019-04-05 09:25:21,878][INFO] any info message - [id:10][instance:5] - [COMP-11][file-6.c][function-7][ln:953]
[2019-04-05 09:25:23,379][INFO] any info message - [id:10][instance:5] - [COMP-13][file-4.c][function-10][ln:594]
[2019-04-05 09:25:24,880][INFO] any info message - [id:10][instance:1] - [COMP-7][file-8.c][function-3][ln:668]
[2019-04-05 09:25:26,380][INFO] any info message - [id:10][instance:3] - [COMP-5][file-3.c][function-7][ln:636]
[2019-04-05 09:25:27,046][DEBUG] any debug message - [id:10][instance:5] - [COMP-11][file-2.c][function-4][ln:227]
[2019-04-05 09:25:27,880][INFO] any info message - [id:10][instance:4] - [COMP-5][file-8.c][function-10][ln:176]
[2019-04-05 09:25:29,381][INFO] any info message - [id:10][instance:6] - [COMP-2][file-4.c][function-6][ln:412]
[2019-04-05 09:25:30,890][INFO] any info message - [id:10][instance:5] - [COMP-3][file-3.c][function-8][ln:960]
[2019-04-05 09:25:32,391][INFO] any info message - [id:10][instance:3] - [COMP-6][file-4.c][function-4][ln:794]
[2019-04-05 09:25:33,892][INFO] any info message - [id:10][instance:6] - [COMP-7][file-10.c][function-8][ln:577]
[2019-04-05 09:25:35,392][INFO] any info message - [id:10][instance:3] - [COMP-13][file-8.c][function-3][ln:524]
[2019-04-05 09:25:36,895][INFO] any info message - [id:10][instance:4] - [COMP-1][file-10.c][function-9][ln:86]
[2019-04-05 09:25:38,395][INFO] any info message - [id:10][instance:5] - [COMP-11][file-4.c][function-6][ln:121]
[2019-04-05 09:25:39,897][INFO] any info message - [id:10][instance:6] - [COMP-10][file-2.c][function-2][ln:819]
[2019-04-05 09:25:41,404][INFO] any info message - [id:10][instance:7] - [COMP-8][file-5.c][function-2][ln:322]
[2019-04-05 09:25:41,906][CRITICAL] ATTENTION: This is a critical issue! - [id:10][instance:6] - [COMP-3][file-12.c][function-7][ln:782]
[2019-04-05 09:25:41,932][ERROR] It is an error message - [id:10][instance:3] - [COMP-5][file-4.c][function-2][ln:600]
[2019-04-05 09:25:41,955][WARNING] Here is a warning message - [id:10][instance:1] - [COMP-12][file-12.c][function-1][ln:191]
[2019-04-05 09:25:42,047][DEBUG] any debug message - [id:10][instance:5] - [COMP-9][file-13.c][function-8][ln:178]
[2019-04-05 09:25:42,904][INFO] any info message - [id:10][instance:2] - [COMP-11][file-4.c][function-11][ln:402]
[2019-04-05 09:25:44,404][INFO] any info message - [id:10][instance:4] - [COMP-12][file-12.c][function-7][ln:243]
[2019-04-05 09:25:45,904][INFO] any info message - [id:10][instance:3] - [COMP-3][file-4.c][function-6][ln:855]
[2019-04-05 09:25:47,405][INFO] any info message - [id:10][instance:1] - [COMP-2][file-6.c][function-13][ln:330]
[2019-04-05 09:25:48,905][INFO] any info message - [id:10][instance:4] - [COMP-12][file-5.c][function-11][ln:16]
[2019-04-05 09:25:50,407][INFO] any info message - [id:10][instance:4] - [COMP-1][file-9.c][function-9][ln:526]
[2019-04-05 09:25:51,908][INFO] any info message - [id:10][instance:5] - [COMP-10][file-8.c][function-8][ln:860]
[2019-04-05 09:25:53,408][INFO] any info message - [id:10][instance:4] - [COMP-6][file-9.c][function-5][ln:398]
[2019-04-05 09:25:54,909][INFO] any info message - [id:10][instance:5] - [COMP-10][file-2.c][function-8][ln:994]
[2019-04-05 09:25:56,410][INFO] any info message - [id:10][instance:2] - [COMP-4][file-11.c][function-8][ln:175]
[2019-04-05 09:25:57,047][DEBUG] any debug message - [id:10][instance:4] - [COMP-2][file-4.c][function-1][ln:933]
[2019-04-05 09:25:57,911][INFO] any info message - [id:10][instance:5] - [COMP-10][file-7.c][function-2][ln:92]
[2019-04-05 09:25:59,410][INFO] any info message - [id:10][instance:4] - [COMP-13][file-4.c][function-8][ln:981]
[2019-04-05 09:26:00,911][INFO] any info message - [id:10][instance:6] - [COMP-11][file-13.c][function-1][ln:99]
[2019-04-05 09:26:02,413][INFO] any info message - [id:10][instance:1] - [COMP-7][file-8.c][function-7][ln:126]
[2019-04-05 09:26:03,914][INFO] any info message - [id:10][instance:3] - [COMP-3][file-8.c][function-2][ln:668]
[2019-04-05 09:26:05,414][INFO] any info message - [id:10][instance:2] - [COMP-9][file-1.c][function-1][ln:664]
[2019-04-05 09:26:06,914][INFO] any info message - [id:10][instance:6] - [COMP-3][file-5.c][function-11][ln:456]
[2019-04-05 09:26:08,415][INFO] any info message - [id:10][instance:1] - [COMP-6][file-3.c][function-7][ln:112]
[2019-04-05 09:26:09,917][INFO] any info message - [id:10][instance:1] - [COMP-6][file-1.c][function-4][ln:781]
[2019-04-05 09:26:11,419][INFO] any info message - [id:10][instance:4] - [COMP-3][file-1.c][function-1][ln:733]
[2019-04-05 09:26:11,957][WARNING] Here is a warning message - [id:10][instance:3] - [COMP-8][file-12.c][function-2][ln:469]
[2019-04-05 09:26:12,048][DEBUG] any debug message - [id:10][instance:7] - [COMP-1][file-6.c][function-3][ln:420]
[2019-04-05 09:26:12,929][INFO] any info message - [id:10][instance:5] - [COMP-13][file-9.c][function-6][ln:183]
[2019-04-05 09:26:14,430][INFO] any info message - [id:10][instance:1] - [COMP-7][file-7.c][function-13][ln:340]
[2019-04-05 09:26:15,932][INFO] any info message - [id:10][instance:2] - [COMP-10][file-1.c][function-11][ln:731]
[2019-04-05 09:26:17,433][INFO] any info message - [id:10][instance:7] - [COMP-5][file-3.c][function-4][ln:438]
[2019-04-05 09:26:18,933][INFO] any info message - [id:10][instance:5] - [COMP-7][file-1.c][function-4][ln:731]
[2019-04-05 09:26:20,433][INFO] any info message - [id:10][instance:1] - [COMP-2][file-10.c][function-8][ln:19]
[2019-04-05 09:26:21,934][INFO] any info message - [id:10][instance:5] - [COMP-2][file-13.c][function-12][ln:376]
[2019-04-05 09:26:23,434][INFO] any info message - [id:10][instance:6] - [COMP-11][file-2.c][function-6][ln:149]
[2019-04-05 09:26:24,936][INFO] any info message - [id:10][instance:2] - [COMP-9][file-4.c][function-3][ln:89]
[2019-04-05 09:26:26,436][INFO] any info message - [id:10][instance:1] - [COMP-7][file-2.c][function-2][ln:313]
[2019-04-05 09:26:27,048][DEBUG] any debug message - [id:10][instance:4] - [COMP-9][file-12.c][function-4][ln:980]
[2019-04-05 09:26:27,937][INFO] any info message - [id:10][instance:2] - [COMP-3][file-5.c][function-11][ln:46]
[2019-04-05 09:26:29,437][INFO] any info message - [id:10][instance:6] - [COMP-9][file-1.c][function-12][ln:663]
[2019-04-05 09:26:30,937][INFO] any info message - [id:10][instance:4] - [COMP-6][file-2.c][function-3][ln:791]
[2019-04-05 09:26:32,437][INFO] any info message - [id:10][instance:3] - [COMP-6][file-12.c][function-9][ln:858]
[2019-04-05 09:26:33,937][INFO] any info message - [id:10][instance:6] - [COMP-12][file-13.c][function-8][ln:798]
[2019-04-05 09:26:35,440][INFO] any info message - [id:10][instance:4] - [COMP-5][file-4.c][function-10][ln:903]
[2019-04-05 09:26:36,940][INFO] any info message - [id:10][instance:5] - [COMP-12][file-4.c][function-9][ln:858]
[2019-04-05 09:26:38,441][INFO] any info message - [id:10][instance:1] - [COMP-7][file-7.c][function-12][ln:836]
[2019-04-05 09:26:39,942][INFO] any info message - [id:10][instance:1] - [COMP-4][file-5.c][function-9][ln:960]
[2019-04-05 09:26:41,446][INFO] any info message - [id:10][instance:1] - [COMP-6][file-6.c][function-12][ln:786]
[2019-04-05 09:26:41,932][ERROR] It is an error message - [id:10][instance:6] - [COMP-10][file-2.c][function-13][ln:799]
[2019-04-05 09:26:41,957][WARNING] Here is a warning message - [id:10][instance:4] - [COMP-6][file-12.c][function-10][ln:26]
[2019-04-05 09:26:42,048][DEBUG] any debug message - [id:10][instance:2] - [COMP-9][file-1.c][function-8][ln:938]
[2019-04-05 09:26:42,947][INFO] any info message - [id:10][instance:2] - [COMP-5][file-6.c][function-10][ln:319]
[2019-04-05 09:26:44,452][INFO] any info message - [id:10][instance:4] - [COMP-6][file-10.c][function-8][ln:14]
[2019-04-05 09:26:45,952][INFO] any info message - [id:10][instance:2] - [COMP-11][file-12.c][function-10][ln:91]
[2019-04-05 09:26:47,453][INFO] any info message - [id:10][instance:4] - [COMP-9][file-6.c][function-10][ln:395]
[2019-04-05 09:26:48,953][INFO] any info message - [id:10][instance:7] - [COMP-9][file-7.c][function-3][ln:449]
[2019-04-05 09:26:50,455][INFO] any info message - [id:10][instance:3] - [COMP-1][file-3.c][function-7][ln:189]
[2019-04-05 09:26:51,955][INFO] any info message - [id:10][instance:3] - [COMP-8][file-8.c][function-9][ln:604]
[2019-04-05 09:26:53,458][INFO] any info message - [id:10][instance:4] - [COMP-5][file-9.c][function-6][ln:244]
[2019-04-05 09:26:54,960][INFO] any info message - [id:10][instance:2] - [COMP-2][file-5.c][function-2][ln:218]
[2019-04-05 09:26:56,460][INFO] any info message - [id:10][instance:3] - [COMP-10][file-13.c][function-7][ln:66]
[2019-04-05 09:26:57,050][DEBUG] any debug message - [id:10][instance:3] - [COMP-10][file-3.c][function-5][ln:646]
[2019-04-05 09:26:57,961][INFO] any info message - [id:10][instance:5] - [COMP-4][file-2.c][function-5][ln:137]
[2019-04-05 09:26:59,462][INFO] any info message - [id:10][instance:4] - [COMP-13][file-7.c][function-1][ln:71]
[2019-04-05 09:27:00,962][INFO] any info message - [id:10][instance:6] - [COMP-2][file-7.c][function-12][ln:742]
[2019-04-05 09:27:02,462][INFO] any info message - [id:10][instance:5] - [COMP-5][file-8.c][function-11][ln:372]
[2019-04-05 09:27:03,962][INFO] any info message - [id:10][instance:2] - [COMP-8][file-5.c][function-6][ln:539]
[2019-04-05 09:27:05,462][INFO] any info message - [id:10][instance:7] - [COMP-2][file-7.c][function-8][ln:47]
[2019-04-05 09:27:06,963][INFO] any info message - [id:10][instance:4] - [COMP-12][file-5.c][function-10][ln:433]
[2019-04-05 09:27:08,464][INFO] any info message - [id:10][instance:6] - [COMP-1][file-2.c][function-12][ln:774]
[2019-04-05 09:27:09,964][INFO] any info message - [id:10][instance:3] - [COMP-13][file-2.c][function-11][ln:412]
[2019-04-05 09:27:11,465][INFO] any info message - [id:10][instance:7] - [COMP-6][file-6.c][function-7][ln:778]
[2019-04-05 09:27:11,958][WARNING] Here is a warning message - [id:10][instance:7] - [COMP-8][file-4.c][function-4][ln:340]
[2019-04-05 09:27:12,051][DEBUG] any debug message - [id:10][instance:6] - [COMP-2][file-2.c][function-1][ln:295]
[2019-04-05 09:27:12,966][INFO] any info message - [id:10][instance:4] - [COMP-1][file-2.c][function-11][ln:260]
[2019-04-05 09:27:14,470][INFO] any info message - [id:10][instance:3] - [COMP-6][file-4.c][function-8][ln:249]
[2019-04-05 09:27:15,970][INFO] any info message - [id:10][instance:5] - [COMP-3][file-10.c][function-11][ln:701]
[2019-04-05 09:27:17,471][INFO] any info message - [id:10][instance:5] - [COMP-13][file-11.c][function-10][ln:527]
[2019-04-05 09:27:18,971][INFO] any info message - [id:10][instance:7] - [COMP-6][file-11.c][function-12][ln:577]
[2019-04-05 09:27:20,472][INFO] any info message - [id:10][instance:5] - [COMP-3][file-7.c][function-3][ln:618]
[2019-04-05 09:27:21,977][INFO] any info message - [id:10][instance:5] - [COMP-6][file-5.c][function-13][ln:380]
[2019-04-05 09:27:23,478][INFO] any info message - [id:10][instance:7] - [COMP-7][file-6.c][function-9][ln:117]
[2019-04-05 09:27:24,981][INFO] any info message - [id:10][instance:7] - [COMP-12][file-10.c][function-9][ln:55]
[2019-04-05 09:27:26,482][INFO] any info message - [id:10][instance:4] - [COMP-12][file-13.c][function-12][ln:443]
[2019-04-05 09:27:27,054][DEBUG] any debug message - [id:10][instance:2] - [COMP-11][file-10.c][function-7][ln:847]
[2019-04-05 09:27:27,983][INFO] any info message - [id:10][instance:2] - [COMP-10][file-4.c][function-1][ln:83]
[2019-04-05 09:27:29,484][INFO] any info message - [id:10][instance:6] - [COMP-9][file-9.c][function-2][ln:65]
[2019-04-05 09:27:30,984][INFO] any info message - [id:10][instance:6] - [COMP-10][file-7.c][function-11][ln:483]
[2019-04-05 09:27:32,485][INFO] any info message - [id:10][instance:3] - [COMP-12][file-6.c][function-6][ln:20]
[2019-04-05 09:27:33,987][INFO] any info message - [id:10][instance:2] - [COMP-12][file-8.c][function-5][ln:283]
[2019-04-05 09:27:35,488][INFO] any info message - [id:10][instance:7] - [COMP-12][file-2.c][function-10][ln:231]
[2019-04-05 09:27:36,990][INFO] any info message - [id:10][instance:7] - [COMP-5][file-13.c][function-7][ln:369]
[2019-04-05 09:27:38,490][INFO] any info message - [id:10][instance:2] - [COMP-3][file-12.c][function-6][ln:871]
[2019-04-05 09:27:39,990][INFO] any info message - [id:10][instance:5] - [COMP-7][file-6.c][function-7][ln:350]
[2019-04-05 09:27:41,490][INFO] any info message - [id:10][instance:1] - [COMP-10][file-9.c][function-3][ln:194]
[2019-04-05 09:27:41,906][CRITICAL] ATTENTION: This is a critical issue! - [id:10][instance:7] - [COMP-5][file-8.c][function-6][ln:595]
[2019-04-05 09:27:41,933][ERROR] It is an error message - [id:10][instance:4] - [COMP-5][file-1.c][function-2][ln:127]
[2019-04-05 09:27:41,959][WARNING] Here is a warning message - [id:10][instance:6] - [COMP-13][file-12.c][function-2][ln:287]
[2019-04-05 09:27:42,056][DEBUG] any debug message - [id:10][instance:3] - [COMP-3][file-7.c][function-1][ln:802]
[2019-04-05 09:27:42,990][INFO] any info message - [id:10][instance:3] - [COMP-3][file-13.c][function-11][ln:212]
[2019-04-05 09:27:44,492][INFO] any info message - [id:10][instance:5] - [COMP-2][file-6.c][function-12][ln:292]
[2019-04-05 09:27:45,992][INFO] any info message - [id:10][instance:5] - [COMP-4][file-4.c][function-1][ln:996]
[2019-04-05 09:27:47,492][INFO] any info message - [id:10][instance:4] - [COMP-11][file-11.c][function-8][ln:67]
[2019-04-05 09:27:48,992][INFO] any info message - [id:10][instance:6] - [COMP-7][file-1.c][function-11][ln:755]
[2019-04-05 09:27:50,493][INFO] any info message - [id:10][instance:4] - [COMP-10][file-7.c][function-2][ln:159]
[2019-04-05 09:27:51,993][INFO] any info message - [id:10][instance:6] - [COMP-4][file-12.c][function-9][ln:717]
[2019-04-05 09:27:53,502][INFO] any info message - [id:10][instance:2] - [COMP-8][file-13.c][function-11][ln:485]
[2019-04-05 09:27:55,002][INFO] any info message - [id:10][instance:2] - [COMP-3][file-12.c][function-12][ln:321]
[2019-04-05 09:27:56,504][INFO] any info message - [id:10][instance:1] - [COMP-12][file-2.c][function-7][ln:233]
[2019-04-05 09:27:57,057][DEBUG] any debug message - [id:10][instance:2] - [COMP-7][file-9.c][function-8][ln:861]
[2019-04-05 09:27:58,004][INFO] any info message - [id:10][instance:2] - [COMP-8][file-13.c][function-9][ln:693]
[2019-04-05 09:27:59,507][INFO] any info message - [id:10][instance:2] - [COMP-6][file-9.c][function-9][ln:819]
[2019-04-05 09:28:01,007][INFO] any info message - [id:10][instance:5] - [COMP-6][file-11.c][function-10][ln:995]
[2019-04-05 09:28:02,509][INFO] any info message - [id:10][instance:6] - [COMP-7][file-6.c][function-3][ln:323]
[2019-04-05 09:28:04,009][INFO] any info message - [id:10][instance:7] - [COMP-11][file-8.c][function-5][ln:586]
[2019-04-05 09:28:05,509][INFO] any info message - [id:10][instance:1] - [COMP-13][file-4.c][function-11][ln:214]
[2019-04-05 09:28:07,010][INFO] any info message - [id:10][instance:2] - [COMP-1][file-12.c][function-8][ln:4]
[2019-04-05 09:28:08,511][INFO] any info message - [id:10][instance:4] - [COMP-8][file-12.c][function-10][ln:857]
[2019-04-05 09:28:10,011][INFO] any info message - [id:10][instance:5] - [COMP-3][file-12.c][function-2][ln:228]
[2019-04-05 09:28:11,512][INFO] any info message - [id:10][instance:1] - [COMP-5][file-4.c][function-12][ln:887]
[2019-04-05 09:28:11,960][WARNING] Here is a warning message - [id:10][instance:1] - [COMP-13][file-6.c][function-5][ln:25]
[2019-04-05 09:28:12,057][DEBUG] any debug message - [id:10][instance:3] - [COMP-8][file-6.c][function-6][ln:64]
[2019-04-05 09:28:13,012][INFO] any info message - [id:10][instance:4] - [COMP-4][file-4.c][function-2][ln:371]
[2019-04-05 09:28:14,512][INFO] any info message - [id:10][instance:3] - [COMP-1][file-1.c][function-12][ln:594]
[2019-04-05 09:28:16,013][INFO] any info message - [id:10][instance:1] - [COMP-10][file-6.c][function-8][ln:201]
[2019-04-05 09:28:17,513][INFO] any info message - [id:10][instance:7] - [COMP-8][file-6.c][function-1][ln:859]
[2019-04-05 09:28:19,013][INFO] any info message - [id:10][instance:7] - [COMP-10][file-10.c][function-8][ln:362]
[2019-04-05 09:28:20,513][INFO] any info message - [id:10][instance:6] - [COMP-4][file-3.c][function-6][ln:590]
[2019-04-05 09:28:22,014][INFO] any info message - [id:10][instance:7] - [COMP-2][file-10.c][function-8][ln:831]
[2019-04-05 09:28:23,514][INFO] any info message - [id:10][instance:1] - [COMP-7][file-4.c][function-4][ln:875]
[2019-04-05 09:28:25,014][INFO] any info message - [id:10][instance:7] - [COMP-5][file-10.c][function-11][ln:791]
[2019-04-05 09:28:26,515][INFO] any info message - [id:10][instance:4] - [COMP-1][file-10.c][function-12][ln:340]
[2019-04-05 09:28:27,057][DEBUG] any debug message - [id:10][instance:2] - [COMP-1][file-11.c][function-8][ln:36]
[2019-04-05 09:28:28,016][INFO] any info message - [id:10][instance:7] - [COMP-7][file-1.c][function-9][ln:214]
[2019-04-05 09:28:29,516][INFO] any info message - [id:10][instance:6] - [COMP-13][file-2.c][function-6][ln:338]
[2019-04-05 09:28:31,016][INFO] any info message - [id:10][instance:7] - [COMP-7][file-1.c][function-3][ln:235]
[2019-04-05 09:28:32,516][INFO] any info message - [id:10][instance:6] - [COMP-5][file-7.c][function-7][ln:923]
[2019-04-05 09:28:34,016][INFO] any info message - [id:10][instance:2] - [COMP-5][file-6.c][function-2][ln:863]
[2019-04-05 09:28:35,517][INFO] any info message - [id:10][instance:4] - [COMP-2][file-4.c][function-2][ln:810]
[2019-04-05 09:28:37,017][INFO] any info message - [id:10][instance:5] - [COMP-8][file-9.c][function-4][ln:506]
[2019-04-05 09:28:38,517][INFO] any info message - [id:10][instance:1] - [COMP-8][file-12.c][function-11][ln:87]
[2019-04-05 09:28:40,018][INFO] any info message - [id:10][instance:1] - [COMP-7][file-10.c][function-13][ln:32]
[2019-04-05 09:28:41,519][INFO] any info message - [id:10][instance:4] - [COMP-4][file-6.c][function-11][ln:352]
[2019-04-05 09:28:41,933][ERROR] It is an error message - [id:10][instance:7] - [COMP-7][file-9.c][function-10][ln:520]
[2019-04-05 09:28:41,960][WARNING] Here is a warning message - [id:10][instance:7] - [COMP-4][file-2.c][function-13][ln:127]
[2019-04-05 09:28:42,058][DEBUG] any debug message - [id:10][instance:5] - [COMP-1][file-3.c][function-1][ln:806]
[2019-04-05 09:28:43,019][INFO] any info message - [id:10][instance:4] - [COMP-2][file-9.c][function-6][ln:490]
[2019-04-05 09:28:44,519][INFO] any info message - [id:10][instance:2] - [COMP-2][file-2.c][function-8][ln:76]
[2019-04-05 09:28:46,019][INFO] any info message - [id:10][instance:3] - [COMP-7][file-12.c][function-11][ln:42]
[2019-04-05 09:28:47,519][INFO] any info message - [id:10][instance:5] - [COMP-13][file-4.c][function-4][ln:24]
[2019-04-05 09:28:49,020][INFO] any info message - [id:10][instance:6] - [COMP-12][file-9.c][function-8][ln:969]
[2019-04-05 09:28:50,520][INFO] any info message - [id:10][instance:7] - [COMP-13][file-11.c][function-9][ln:922]
[2019-04-05 09:28:52,021][INFO] any info message - [id:10][instance:2] - [COMP-11][file-6.c][function-6][ln:870]
[2019-04-05 09:28:53,523][INFO] any info message - [id:10][instance:4] - [COMP-1][file-5.c][function-10][ln:793]
[2019-04-05 09:28:55,023][INFO] any info message - [id:10][instance:6] - [COMP-6][file-12.c][function-4][ln:415]
[2019-04-05 09:28:56,524][INFO] any info message - [id:10][instance:5] - [COMP-1][file-11.c][function-3][ln:493]
[2019-04-05 09:28:57,058][DEBUG] any debug message - [id:10][instance:3] - [COMP-4][file-9.c][function-10][ln:790]
[2019-04-05 09:28:58,025][INFO] any info message - [id:10][instance:2] - [COMP-10][file-5.c][function-2][ln:689]
[2019-04-05 09:28:59,525][INFO] any info message - [id:10][instance:7] - [COMP-8][file-10.c][function-6][ln:139]
[2019-04-05 09:29:01,026][INFO] any info message - [id:10][instance:4] - [COMP-2][file-4.c][function-7][ln:807]
[2019-04-05 09:29:02,526][INFO] any info message - [id:10][instance:6] - [COMP-9][file-9.c][function-5][ln:618]
[2019-04-05 09:29:04,027][INFO] any info message - [id:10][instance:2] - [COMP-12][file-9.c][function-6][ln:749]
[2019-04-05 09:29:05,527][INFO] any info message - [id:10][instance:3] - [COMP-11][file-8.c][function-10][ln:670]
[2019-04-05 09:29:07,028][INFO] any info message - [id:10][instance:6] - [COMP-11][file-7.c][function-6][ln:890]
[2019-04-05 09:29:08,528][INFO] any info message - [id:10][instance:6] - [COMP-2][file-1.c][function-3][ln:269]
[2019-04-05 09:29:10,028][INFO] any info message - [id:10][instance:3] - [COMP-8][file-7.c][function-2][ln:697]
[2019-04-05 09:29:11,529][INFO] any info message - [id:10][instance:5] - [COMP-13][file-10.c][function-4][ln:851]
[2019-04-05 09:29:11,960][WARNING] Here is a warning message - [id:10][instance:5] - [COMP-7][file-13.c][function-10][ln:757]
[2019-04-05 09:29:12,058][DEBUG] any debug message - [id:10][instance:1] - [COMP-12][file-5.c][function-7][ln:767]
[2019-04-05 09:29:13,030][INFO] any info message - [id:10][instance:2] - [COMP-5][file-6.c][function-6][ln:342]
[2019-04-05 09:29:14,531][INFO] any info message - [id:10][instance:4] - [COMP-13][file-9.c][function-1][ln:672]
[2019-04-05 09:29:16,031][INFO] any info message - [id:10][instance:2] - [COMP-1][file-10.c][function-9][ln:545]
[2019-04-05 09:29:17,532][INFO] any info message - [id:10][instance:4] - [COMP-1][file-13.c][function-12][ln:386]
[2019-04-05 09:29:19,032][INFO] any info message - [id:10][instance:6] - [COMP-13][file-12.c][function-11][ln:396]
[2019-04-05 09:29:20,532][INFO] any info message - [id:10][instance:2] - [COMP-5][file-12.c][function-10][ln:597]
[2019-04-05 09:29:22,033][INFO] any info message - [id:10][instance:1] - [COMP-2][file-6.c][function-5][ln:825]
[2019-04-05 09:29:23,545][INFO] any info message - [id:10][instance:2] - [COMP-8][file-3.c][function-1][ln:212]
[2019-04-05 09:29:25,045][INFO] any info message - [id:10][instance:3] - [COMP-13][file-13.c][function-3][ln:804]
[2019-04-05 09:29:26,545][INFO] any info message - [id:10][instance:4] - [COMP-6][file-1.c][function-1][ln:936]
[2019-04-05 09:29:27,078][DEBUG] any debug message - [id:10][instance:3] - [COMP-8][file-11.c][function-13][ln:8]
[2019-04-05 09:29:28,067][INFO] any info message - [id:10][instance:7] - [COMP-5][file-4.c][function-11][ln:352]
[2019-04-05 09:29:29,567][INFO] any info message - [id:10][instance:6] - [COMP-6][file-10.c][function-5][ln:203]
[2019-04-05 09:29:31,067][INFO] any info message - [id:10][instance:6] - [COMP-5][file-4.c][function-10][ln:850]
[2019-04-05 09:29:32,581][INFO] any info message - [id:10][instance:5] - [COMP-1][file-10.c][function-10][ln:715]
[2019-04-05 09:29:34,081][INFO] any info message - [id:10][instance:2] - [COMP-8][file-3.c][function-10][ln:874]
[2019-04-05 09:29:35,581][INFO] any info message - [id:10][instance:5] - [COMP-7][file-12.c][function-1][ln:980]
[2019-04-05 09:29:37,081][INFO] any info message - [id:10][instance:6] - [COMP-8][file-5.c][function-8][ln:209]
[2019-04-05 09:29:38,581][INFO] any info message - [id:10][instance:5] - [COMP-6][file-6.c][function-5][ln:546]
[2019-04-05 09:29:40,081][INFO] any info message - [id:10][instance:3] - [COMP-4][file-9.c][function-10][ln:898]
[2019-04-05 09:29:41,582][INFO] any info message - [id:10][instance:6] - [COMP-12][file-10.c][function-11][ln:491]
[2019-04-05 09:29:41,907][CRITICAL] ATTENTION: This is a critical issue! - [id:10][instance:4] - [COMP-11][file-7.c][function-6][ln:429]
[2019-04-05 09:29:41,933][ERROR] It is an error message - [id:10][instance:7] - [COMP-2][file-5.c][function-1][ln:915]
[2019-04-05 09:29:41,961][WARNING] Here is a warning message - [id:10][instance:2] - [COMP-1][file-8.c][function-4][ln:598]
[2019-04-05 09:29:42,079][DEBUG] any debug message - [id:10][instance:4] - [COMP-13][file-9.c][function-1][ln:143]
[2019-04-05 09:29:43,082][INFO] any info message - [id:10][instance:3] - [COMP-10][file-7.c][function-12][ln:846]
[2019-04-05 09:29:44,582][INFO] any info message - [id:10][instance:1] - [COMP-3][file-7.c][function-13][ln:224]
[2019-04-05 09:29:46,087][INFO] any info message - [id:10][instance:2] - [COMP-4][file-9.c][function-5][ln:239]
[2019-04-05 09:29:47,587][INFO] any info message - [id:10][instance:3] - [COMP-1][file-8.c][function-11][ln:551]
[2019-04-05 09:29:49,088][INFO] any info message - [id:10][instance:6] - [COMP-9][file-8.c][function-13][ln:105]
[2019-04-05 09:29:50,589][INFO] any info message - [id:10][instance:7] - [COMP-13][file-12.c][function-10][ln:428]
[2019-04-05 09:29:52,089][INFO] any info message - [id:10][instance:6] - [COMP-8][file-4.c][function-13][ln:217]
[2019-04-05 09:29:53,589][INFO] any info message - [id:10][instance:4] - [COMP-1][file-5.c][function-4][ln:110]
[2019-04-05 09:29:55,089][INFO] any info message - [id:10][instance:4] - [COMP-4][file-2.c][function-13][ln:398]
[2019-04-05 09:29:56,589][INFO] any info message - [id:10][instance:2] - [COMP-11][file-13.c][function-7][ln:34]
[2019-04-05 09:29:57,079][DEBUG] any debug message - [id:10][instance:7] - [COMP-13][file-8.c][function-5][ln:985]
[2019-04-05 09:29:58,090][INFO] any info message - [id:10][instance:7] - [COMP-12][file-12.c][function-1][ln:896]
[2019-04-05 09:29:59,590][INFO] any info message - [id:10][instance:3] - [COMP-9][file-13.c][function-9][ln:191]
[2019-04-05 09:30:01,090][INFO] any info message - [id:10][instance:2] - [COMP-3][file-4.c][function-9][ln:266]
[2019-04-05 09:30:02,590][INFO] any info message - [id:10][instance:7] - [COMP-11][file-1.c][function-8][ln:457]
[2019-04-05 09:30:04,091][INFO] any info message - [id:10][instance:5] - [COMP-9][file-5.c][function-13][ln:537]
[2019-04-05 09:30:05,592][INFO] any info message - [id:10][instance:2] - [COMP-13][file-13.c][function-3][ln:593]
[2019-04-05 09:30:07,092][INFO] any info message - [id:10][instance:6] - [COMP-3][file-2.c][function-10][ln:427]
[2019-04-05 09:30:08,593][INFO] any info message - [id:10][instance:5] - [COMP-7][file-4.c][function-1][ln:661]
[2019-04-05 09:30:10,093][INFO] any info message - [id:10][instance:2] - [COMP-4][file-8.c][function-11][ln:143]
[2019-04-05 09:30:11,595][INFO] any info message - [id:10][instance:6] - [COMP-3][file-13.c][function-11][ln:126]
[2019-04-05 09:30:11,961][WARNING] Here is a warning message - [id:10][instance:7] - [COMP-9][file-10.c][function-6][ln:237]
[2019-04-05 09:30:12,079][DEBUG] any debug message - [id:10][instance:5] - [COMP-6][file-8.c][function-13][ln:502]
[2019-04-05 09:30:13,096][INFO] any info message - [id:10][instance:1] - [COMP-2][file-6.c][function-5][ln:743]
[2019-04-05 09:30:14,596][INFO] any info message - [id:10][instance:3] - [COMP-8][file-12.c][function-2][ln:922]
[2019-04-05 09:30:16,097][INFO] any info message - [id:10][instance:3] - [COMP-12][file-10.c][function-4][ln:442]
[2019-04-05 09:30:17,598][INFO] any info message - [id:10][instance:3] - [COMP-12][file-13.c][function-3][ln:850]
[2019-04-05 09:30:19,098][INFO] any info message - [id:10][instance:5] - [COMP-3][file-9.c][function-9][ln:984]
[2019-04-05 09:30:20,598][INFO] any info message - [id:10][instance:7] - [COMP-12][file-4.c][function-6][ln:865]
[2019-04-05 09:30:22,098][INFO] any info message - [id:10][instance:3] - [COMP-3][file-3.c][function-11][ln:826]
[2019-04-05 09:30:23,600][INFO] any info message - [id:10][instance:5] - [COMP-6][file-6.c][function-8][ln:165]
[2019-04-05 09:30:25,101][INFO] any info message - [id:10][instance:5] - [COMP-7][file-9.c][function-10][ln:514]
[2019-04-05 09:30:26,601][INFO] any info message - [id:10][instance:4] - [COMP-9][file-12.c][function-2][ln:22]
[2019-04-05 09:30:27,080][DEBUG] any debug message - [id:10][instance:2] - [COMP-11][file-4.c][function-10][ln:653]
[2019-04-05 09:30:28,101][INFO] any info message - [id:10][instance:1] - [COMP-4][file-11.c][function-13][ln:147]
[2019-04-05 09:30:29,601][INFO] any info message - [id:10][instance:3] - [COMP-2][file-2.c][function-3][ln:481]
[2019-04-05 09:30:31,103][INFO] any info message - [id:10][instance:6] - [COMP-6][file-9.c][function-2][ln:372]
[2019-04-05 09:30:32,604][INFO] any info message - [id:10][instance:2] - [COMP-10][file-10.c][function-4][ln:170]
[2019-04-05 09:30:34,105][INFO] any info message - [id:10][instance:1] - [COMP-11][file-9.c][function-11][ln:62]
[2019-04-05 09:30:35,606][INFO] any info message - [id:10][instance:4] - [COMP-7][file-11.c][function-13][ln:289]
[2019-04-05 09:30:37,108][INFO] any info message - [id:10][instance:7] - [COMP-13][file-1.c][function-13][ln:76]
[2019-04-05 09:30:38,608][INFO] any info message - [id:10][instance:5] - [COMP-1][file-12.c][function-9][ln:783]
[2019-04-05 09:30:40,109][INFO] any info message - [id:10][instance:3] - [COMP-7][file-11.c][function-1][ln:404]
[2019-04-05 09:30:41,609][INFO] any info message - [id:10][instance:7] - [COMP-7][file-7.c][function-12][ln:774]
[2019-04-05 09:30:41,935][ERROR] It is an error message - [id:10][instance:6] - [COMP-4][file-4.c][function-8][ln:89]
[2019-04-05 09:30:41,962][WARNING] Here is a warning message - [id:10][instance:7] - [COMP-9][file-8.c][function-3][ln:245]
[2019-04-05 09:30:42,081][DEBUG] any debug message - [id:10][instance:5] - [COMP-12][file-10.c][function-7][ln:548]
[2019-04-05 09:30:43,111][INFO] any info message - [id:10][instance:1] - [COMP-11][file-3.c][function-3][ln:276]
[2019-04-05 09:30:44,612][INFO] any info message - [id:10][instance:1] - [COMP-3][file-8.c][function-5][ln:488]
[2019-04-05 09:30:46,112][INFO] any info message - [id:10][instance:6] - [COMP-1][file-6.c][function-1][ln:470]
[2019-04-05 09:30:47,614][INFO] any info message - [id:10][instance:6] - [COMP-12][file-5.c][function-13][ln:24]
[2019-04-05 09:30:49,114][INFO] any info message - [id:10][instance:4] - [COMP-12][file-11.c][function-10][ln:351]
[2019-04-05 09:30:50,615][INFO] any info message - [id:10][instance:4] - [COMP-7][file-4.c][function-11][ln:810]
[2019-04-05 09:30:52,116][INFO] any info message - [id:10][instance:3] - [COMP-2][file-12.c][function-6][ln:900]
[2019-04-05 09:30:53,616][INFO] any info message - [id:10][instance:3] - [COMP-11][file-6.c][function-11][ln:44]
[2019-04-05 09:30:55,179][INFO] any info message - [id:10][instance:6] - [COMP-8][file-7.c][function-12][ln:901]
[2019-04-05 09:30:56,680][INFO] any info message - [id:10][instance:3] - [COMP-13][file-6.c][function-2][ln:149]
[2019-04-05 09:30:57,082][DEBUG] any debug message - [id:10][instance:7] - [COMP-7][file-2.c][function-11][ln:460]
[2019-04-05 09:30:58,180][INFO] any info message - [id:10][instance:5] - [COMP-9][file-4.c][function-8][ln:714]
[2019-04-05 09:30:59,680][INFO] any info message - [id:10][instance:1] - [COMP-13][file-4.c][function-4][ln:435]
[2019-04-05 09:31:01,181][INFO] any info message - [id:10][instance:2] - [COMP-13][file-5.c][function-1][ln:820]
[2019-04-05 09:31:02,681][INFO] any info message - [id:10][instance:6] - [COMP-6][file-10.c][function-8][ln:545]
[2019-04-05 09:31:04,181][INFO] any info message - [id:10][instance:1] - [COMP-4][file-4.c][function-8][ln:542]
[2019-04-05 09:31:05,683][INFO] any info message - [id:10][instance:3] - [COMP-11][file-6.c][function-11][ln:87]
[2019-04-05 09:31:07,184][INFO] any info message - [id:10][instance:6] - [COMP-1][file-6.c][function-12][ln:770]
[2019-04-05 09:31:08,685][INFO] any info message - [id:10][instance:3] - [COMP-12][file-7.c][function-12][ln:490]
[2019-04-05 09:31:10,185][INFO] any info message - [id:10][instance:7] - [COMP-2][file-2.c][function-13][ln:542]
[2019-04-05 09:31:11,686][INFO] any info message - [id:10][instance:7] - [COMP-11][file-6.c][function-4][ln:393]
[2019-04-05 09:31:11,978][WARNING] Here is a warning message - [id:10][instance:4] - [COMP-10][file-11.c][function-1][ln:870]
[2019-04-05 09:31:12,082][DEBUG] any debug message - [id:10][instance:4] - [COMP-12][file-8.c][function-5][ln:272]
[2019-04-05 09:31:13,186][INFO] any info message - [id:10][instance:2] - [COMP-2][file-1.c][function-2][ln:366]
[2019-04-05 09:31:14,687][INFO] any info message - [id:10][instance:6] - [COMP-3][file-10.c][function-12][ln:389]
[2019-04-05 09:31:16,188][INFO] any info message - [id:10][instance:5] - [COMP-11][file-9.c][function-5][ln:262]
[2019-04-05 09:31:17,689][INFO] any info message - [id:10][instance:6] - [COMP-7][file-11.c][function-2][ln:254]
[2019-04-05 09:31:19,189][INFO] any info message - [id:10][instance:7] - [COMP-3][file-6.c][function-1][ln:416]
[2019-04-05 09:31:20,689][INFO] any info message - [id:10][instance:4] - [COMP-1][file-6.c][function-3][ln:964]
[2019-04-05 09:31:22,189][INFO] any info message - [id:10][instance:1] - [COMP-3][file-8.c][function-12][ln:161]
[2019-04-05 09:31:23,691][INFO] any info message - [id:10][instance:1] - [COMP-8][file-8.c][function-2][ln:481]
[2019-04-05 09:31:25,194][INFO] any info message - [id:10][instance:7] - [COMP-1][file-6.c][function-13][ln:892]
[2019-04-05 09:31:26,695][INFO] any info message - [id:10][instance:5] - [COMP-5][file-3.c][function-2][ln:976]
[2019-04-05 09:31:27,083][DEBUG] any debug message - [id:10][instance:6] - [COMP-5][file-7.c][function-7][ln:604]
[2019-04-05 09:31:28,195][INFO] any info message - [id:10][instance:3] - [COMP-1][file-11.c][function-8][ln:348]
[2019-04-05 09:31:29,696][INFO] any info message - [id:10][instance:1] - [COMP-10][file-1.c][function-1][ln:177]
[2019-04-05 09:31:31,196][INFO] any info message - [id:10][instance:5] - [COMP-7][file-5.c][function-3][ln:254]
[2019-04-05 09:31:32,697][INFO] any info message - [id:10][instance:3] - [COMP-6][file-4.c][function-8][ln:573]
[2019-04-05 09:31:34,197][INFO] any info message - [id:10][instance:7] - [COMP-9][file-5.c][function-13][ln:368]
[2019-04-05 09:31:35,697][INFO] any info message - [id:10][instance:5] - [COMP-10][file-10.c][function-2][ln:133]
[2019-04-05 09:31:37,197][INFO] any info message - [id:10][instance:3] - [COMP-7][file-12.c][function-3][ln:773]
[2019-04-05 09:31:38,698][INFO] any info message - [id:10][instance:3] - [COMP-1][file-12.c][function-3][ln:52]
[2019-04-05 09:31:40,198][INFO] any info message - [id:10][instance:5] - [COMP-1][file-13.c][function-12][ln:638]
[2019-04-05 09:31:41,702][INFO] any info message - [id:10][instance:1] - [COMP-11][file-6.c][function-6][ln:904]
[2019-04-05 09:31:41,907][CRITICAL] ATTENTION: This is a critical issue! - [id:10][instance:5] - [COMP-7][file-1.c][function-7][ln:480]
[2019-04-05 09:31:41,935][ERROR] It is an error message - [id:10][instance:5] - [COMP-10][file-10.c][function-11][ln:40]
[2019-04-05 09:31:41,978][WARNING] Here is a warning message - [id:10][instance:1] - [COMP-11][file-2.c][function-3][ln:259]
[2019-04-05 09:31:42,083][DEBUG] any debug message - [id:10][instance:7] - [COMP-9][file-6.c][function-12][ln:700]
[2019-04-05 09:31:43,203][INFO] any info message - [id:10][instance:4] - [COMP-3][file-6.c][function-2][ln:770]
[2019-04-05 09:31:44,703][INFO] any info message - [id:10][instance:6] - [COMP-8][file-9.c][function-3][ln:739]
[2019-04-05 09:31:46,203][INFO] any info message - [id:10][instance:7] - [COMP-1][file-12.c][function-6][ln:31]
[2019-04-05 09:31:47,703][INFO] any info message - [id:10][instance:5] - [COMP-11][file-10.c][function-9][ln:549]
[2019-04-05 09:31:49,203][INFO] any info message - [id:10][instance:7] - [COMP-9][file-11.c][function-3][ln:878]
[2019-04-05 09:31:50,704][INFO] any info message - [id:10][instance:2] - [COMP-2][file-3.c][function-1][ln:93]
[2019-04-05 09:31:52,205][INFO] any info message - [id:10][instance:7] - [COMP-12][file-5.c][function-2][ln:455]
[2019-04-05 09:31:53,705][INFO] any info message - [id:10][instance:1] - [COMP-2][file-9.c][function-5][ln:395]
[2019-04-05 09:31:55,205][INFO] any info message - [id:10][instance:7] - [COMP-1][file-3.c][function-13][ln:542]
[2019-04-05 09:31:56,705][INFO] any info message - [id:10][instance:5] - [COMP-11][file-8.c][function-1][ln:500]
[2019-04-05 09:31:57,084][DEBUG] any debug message - [id:10][instance:2] - [COMP-13][file-13.c][function-11][ln:714]
[2019-04-05 09:31:58,205][INFO] any info message - [id:10][instance:1] - [COMP-10][file-6.c][function-3][ln:619]
[2019-04-05 09:31:59,706][INFO] any info message - [id:10][instance:4] - [COMP-9][file-11.c][function-13][ln:173]
[2019-04-05 09:32:01,207][INFO] any info message - [id:10][instance:6] - [COMP-11][file-6.c][function-11][ln:915]
[2019-04-05 09:32:02,710][INFO] any info message - [id:10][instance:7] - [COMP-5][file-13.c][function-5][ln:531]
[2019-04-05 09:32:04,210][INFO] any info message - [id:10][instance:1] - [COMP-7][file-11.c][function-4][ln:47]
[2019-04-05 09:32:05,710][INFO] any info message - [id:10][instance:5] - [COMP-9][file-3.c][function-1][ln:466]
[2019-04-05 09:32:07,211][INFO] any info message - [id:10][instance:3] - [COMP-10][file-11.c][function-13][ln:195]
[2019-04-05 09:32:08,712][INFO] any info message - [id:10][instance:6] - [COMP-11][file-8.c][function-3][ln:811]
[2019-04-05 09:32:10,213][INFO] any info message - [id:10][instance:5] - [COMP-12][file-8.c][function-1][ln:131]
[2019-04-05 09:32:11,713][INFO] any info message - [id:10][instance:1] - [COMP-3][file-13.c][function-4][ln:130]
[2019-04-05 09:32:11,978][WARNING] Here is a warning message - [id:10][instance:4] - [COMP-12][file-7.c][function-5][ln:70]
[2019-04-05 09:32:12,084][DEBUG] any debug message - [id:10][instance:4] - [COMP-3][file-1.c][function-5][ln:394]
[2019-04-05 09:32:13,214][INFO] any info message - [id:10][instance:3] - [COMP-1][file-12.c][function-7][ln:119]
[2019-04-05 09:32:14,715][INFO] any info message - [id:10][instance:2] - [COMP-12][file-4.c][function-12][ln:160]
[2019-04-05 09:32:16,215][INFO] any info message - [id:10][instance:3] - [COMP-5][file-9.c][function-12][ln:215]
[2019-04-05 09:32:17,715][INFO] any info message - [id:10][instance:4] - [COMP-5][file-4.c][function-3][ln:134]
[2019-04-05 09:32:19,216][INFO] any info message - [id:10][instance:2] - [COMP-9][file-2.c][function-13][ln:233]
[2019-04-05 09:32:20,716][INFO] any info message - [id:10][instance:5] - [COMP-8][file-13.c][function-9][ln:299]
[2019-04-05 09:32:22,216][INFO] any info message - [id:10][instance:7] - [COMP-13][file-13.c][function-2][ln:253]
[2019-04-05 09:32:23,717][INFO] any info message - [id:10][instance:1] - [COMP-11][file-2.c][function-10][ln:735]
[2019-04-05 09:32:25,218][INFO] any info message - [id:10][instance:3] - [COMP-10][file-11.c][function-12][ln:923]
[2019-04-05 09:32:26,719][INFO] any info message - [id:10][instance:6] - [COMP-13][file-1.c][function-1][ln:639]
[2019-04-05 09:32:27,086][DEBUG] any debug message - [id:10][instance:2] - [COMP-10][file-3.c][function-4][ln:766]
[2019-04-05 09:32:28,219][INFO] any info message - [id:10][instance:2] - [COMP-11][file-13.c][function-10][ln:64]
[2019-04-05 09:32:29,719][INFO] any info message - [id:10][instance:6] - [COMP-13][file-7.c][function-8][ln:7]
[2019-04-05 09:32:31,220][INFO] any info message - [id:10][instance:4] - [COMP-10][file-6.c][function-12][ln:770]
[2019-04-05 09:32:32,720][INFO] any info message - [id:10][instance:3] - [COMP-7][file-13.c][function-4][ln:720]
[2019-04-05 09:32:34,222][INFO] any info message - [id:10][instance:6] - [COMP-9][file-12.c][function-2][ln:281]
[2019-04-05 09:32:35,723][INFO] any info message - [id:10][instance:7] - [COMP-7][file-12.c][function-13][ln:940]
[2019-04-05 09:32:37,223][INFO] any info message - [id:10][instance:1] - [COMP-2][file-4.c][function-11][ln:345]
[2019-04-05 09:32:38,723][INFO] any info message - [id:10][instance:2] - [COMP-9][file-8.c][function-7][ln:984]
[2019-04-05 09:32:40,224][INFO] any info message - [id:10][instance:7] - [COMP-7][file-3.c][function-13][ln:406]
[2019-04-05 09:32:41,724][INFO] any info message - [id:10][instance:2] - [COMP-12][file-13.c][function-1][ln:956]
[2019-04-05 09:32:41,936][ERROR] It is an error message - [id:10][instance:2] - [COMP-4][file-3.c][function-10][ln:759]
[2019-04-05 09:32:41,979][WARNING] Here is a warning message - [id:10][instance:4] - [COMP-11][file-3.c][function-8][ln:676]
[2019-04-05 09:32:42,085][DEBUG] any debug message - [id:10][instance:3] - [COMP-3][file-1.c][function-8][ln:699]
[2019-04-05 09:32:43,225][INFO] any info message - [id:10][instance:3] - [COMP-4][file-6.c][function-2][ln:538]
[2019-04-05 09:32:44,725][INFO] any info message - [id:10][instance:2] - [COMP-3][file-6.c][function-3][ln:790]
[2019-04-05 09:32:46,226][INFO] any info message - [id:10][instance:4] - [COMP-6][file-3.c][function-4][ln:916]
[2019-04-05 09:32:47,726][INFO] any info message - [id:10][instance:4] - [COMP-6][file-13.c][function-1][ln:735]
[2019-04-05 09:32:49,227][INFO] any info message - [id:10][instance:2] - [COMP-12][file-9.c][function-12][ln:440]
[2019-04-05 09:32:50,727][INFO] any info message - [id:10][instance:1] - [COMP-5][file-7.c][function-11][ln:749]
[2019-04-05 09:32:52,227][INFO] any info message - [id:10][instance:2] - [COMP-1][file-6.c][function-10][ln:239]
[2019-04-05 09:32:53,728][INFO] any info message - [id:10][instance:2] - [COMP-12][file-13.c][function-9][ln:592]
[2019-04-05 09:32:55,235][INFO] any info message - [id:10][instance:2] - [COMP-3][file-4.c][function-8][ln:950]
[2019-04-05 09:32:56,735][INFO] any info message - [id:10][instance:2] - [COMP-3][file-11.c][function-4][ln:699]
[2019-04-05 09:32:57,086][DEBUG] any debug message - [id:10][instance:6] - [COMP-11][file-10.c][function-5][ln:607]
[2019-04-05 09:32:58,235][INFO] any info message - [id:10][instance:6] - [COMP-9][file-6.c][function-8][ln:127]
[2019-04-05 09:32:59,735][INFO] any info message - [id:10][instance:5] - [COMP-3][file-11.c][function-7][ln:243]
[2019-04-05 09:33:01,235][INFO] any info message - [id:10][instance:5] - [COMP-8][file-3.c][function-10][ln:624]
[2019-04-05 09:33:02,735][INFO] any info message - [id:10][instance:2] - [COMP-3][file-13.c][function-1][ln:588]
[2019-04-05 09:33:04,235][INFO] any info message - [id:10][instance:5] - [COMP-8][file-3.c][function-9][ln:405]
[2019-04-05 09:33:05,736][INFO] any info message - [id:10][instance:4] - [COMP-9][file-7.c][function-12][ln:165]
[2019-04-05 09:33:07,237][INFO] any info message - [id:10][instance:2] - [COMP-5][file-6.c][function-5][ln:105]
[2019-04-05 09:33:08,737][INFO] any info message - [id:10][instance:7] - [COMP-7][file-13.c][function-1][ln:844]
[2019-04-05 09:33:10,238][INFO] any info message - [id:10][instance:4] - [COMP-4][file-13.c][function-12][ln:7]
[2019-04-05 09:33:11,738][INFO] any info message - [id:10][instance:4] - [COMP-5][file-8.c][function-2][ln:113]
[2019-04-05 09:33:11,979][WARNING] Here is a warning message - [id:10][instance:1] - [COMP-6][file-4.c][function-2][ln:333]
[2019-04-05 09:33:12,086][DEBUG] any debug message - [id:10][instance:2] - [COMP-1][file-9.c][function-2][ln:350]
[2019-04-05 09:33:13,238][INFO] any info message - [id:10][instance:5] - [COMP-11][file-12.c][function-10][ln:892]
[2019-04-05 09:33:14,738][INFO] any info message - [id:10][instance:5] - [COMP-1][file-7.c][function-13][ln:620]
[2019-04-05 09:33:16,239][INFO] any info message - [id:10][instance:1] - [COMP-1][file-11.c][function-3][ln:258]
[2019-04-05 09:33:17,740][INFO] any info message - [id:10][instance:7] - [COMP-6][file-13.c][function-10][ln:246]
[2019-04-05 09:33:19,240][INFO] any info message - [id:10][instance:6] - [COMP-3][file-4.c][function-6][ln:602]
[2019-04-05 09:33:20,740][INFO] any info message - [id:10][instance:6] - [COMP-9][file-2.c][function-8][ln:849]
[2019-04-05 09:33:22,241][INFO] any info message - [id:10][instance:6] - [COMP-5][file-4.c][function-5][ln:634]
[2019-04-05 09:33:23,741][INFO] any info message - [id:10][instance:1] - [COMP-5][file-7.c][function-12][ln:21]
[2019-04-05 09:33:25,241][INFO] any info message - [id:10][instance:6] - [COMP-10][file-8.c][function-12][ln:343]
[2019-04-05 09:33:26,742][INFO] any info message - [id:10][instance:7] - [COMP-2][file-11.c][function-11][ln:38]
[2019-04-05 09:33:27,087][DEBUG] any debug message - [id:10][instance:1] - [COMP-10][file-13.c][function-11][ln:553]
[2019-04-05 09:33:28,243][INFO] any info message - [id:10][instance:6] - [COMP-6][file-11.c][function-6][ln:453]
[2019-04-05 09:33:29,743][INFO] any info message - [id:10][instance:3] - [COMP-6][file-11.c][function-10][ln:737]
[2019-04-05 09:33:31,243][INFO] any info message - [id:10][instance:2] - [COMP-12][file-5.c][function-11][ln:758]
[2019-04-05 09:33:32,743][INFO] any info message - [id:10][instance:7] - [COMP-10][file-11.c][function-5][ln:555]
[2019-04-05 09:33:34,243][INFO] any info message - [id:10][instance:1] - [COMP-9][file-5.c][function-11][ln:19]
[2019-04-05 09:33:35,744][INFO] any info message - [id:10][instance:4] - [COMP-6][file-1.c][function-11][ln:519]
[2019-04-05 09:33:37,244][INFO] any info message - [id:10][instance:6] - [COMP-8][file-7.c][function-12][ln:857]
[2019-04-05 09:33:38,745][INFO] any info message - [id:10][instance:7] - [COMP-9][file-6.c][function-7][ln:212]
[2019-04-05 09:33:40,245][INFO] any info message - [id:10][instance:5] - [COMP-5][file-9.c][function-8][ln:17]
[2019-04-05 09:33:41,745][INFO] any info message - [id:10][instance:6] - [COMP-13][file-11.c][function-4][ln:18]
[2019-04-05 09:33:41,908][CRITICAL] ATTENTION: This is a critical issue! - [id:10][instance:4] - [COMP-13][file-6.c][function-4][ln:275]
[2019-04-05 09:33:41,937][ERROR] It is an error message - [id:10][instance:6] - [COMP-12][file-9.c][function-4][ln:916]
[2019-04-05 09:33:41,979][WARNING] Here is a warning message - [id:10][instance:5] - [COMP-2][file-9.c][function-13][ln:10]
[2019-04-05 09:33:42,087][DEBUG] any debug message - [id:10][instance:5] - [COMP-8][file-12.c][function-11][ln:292]
[2019-04-05 09:33:43,245][INFO] any info message - [id:10][instance:4] - [COMP-3][file-10.c][function-7][ln:560]
[2019-04-05 09:33:44,745][INFO] any info message - [id:10][instance:3] - [COMP-8][file-7.c][function-3][ln:663]
[2019-04-05 09:33:46,246][INFO] any info message - [id:10][instance:6] - [COMP-12][file-13.c][function-11][ln:62]
[2019-04-05 09:33:47,746][INFO] any info message - [id:10][instance:5] - [COMP-11][file-6.c][function-4][ln:154]
[2019-04-05 09:33:49,246][INFO] any info message - [id:10][instance:6] - [COMP-1][file-9.c][function-9][ln:285]
[2019-04-05 09:33:50,746][INFO] any info message - [id:10][instance:3] - [COMP-4][file-2.c][function-7][ln:834]
[2019-04-05 09:33:52,247][INFO] any info message - [id:10][instance:7] - [COMP-10][file-3.c][function-12][ln:157]
[2019-04-05 09:33:53,748][INFO] any info message - [id:10][instance:5] - [COMP-2][file-6.c][function-1][ln:495]
[2019-04-05 09:33:55,248][INFO] any info message - [id:10][instance:6] - [COMP-9][file-13.c][function-3][ln:449]
[2019-04-05 09:33:56,750][INFO] any info message - [id:10][instance:3] - [COMP-2][file-2.c][function-9][ln:455]
[2019-04-05 09:33:57,087][DEBUG] any debug message - [id:10][instance:4] - [COMP-7][file-12.c][function-13][ln:111]
[2019-04-05 09:33:58,250][INFO] any info message - [id:10][instance:2] - [COMP-9][file-9.c][function-9][ln:802]
[2019-04-05 09:33:59,750][INFO] any info message - [id:10][instance:2] - [COMP-13][file-1.c][function-13][ln:60]
[2019-04-05 09:34:01,250][INFO] any info message - [id:10][instance:7] - [COMP-8][file-7.c][function-12][ln:275]
[2019-04-05 09:34:02,751][INFO] any info message - [id:10][instance:4] - [COMP-1][file-8.c][function-12][ln:59]
[2019-04-05 09:34:04,251][INFO] any info message - [id:10][instance:2] - [COMP-12][file-1.c][function-2][ln:330]
[2019-04-05 09:34:05,752][INFO] any info message - [id:10][instance:7] - [COMP-8][file-8.c][function-1][ln:631]
[2019-04-05 09:34:07,253][INFO] any info message - [id:10][instance:6] - [COMP-9][file-5.c][function-12][ln:168]
[2019-04-05 09:34:08,754][INFO] any info message - [id:10][instance:5] - [COMP-7][file-13.c][function-8][ln:622]
[2019-04-05 09:34:10,254][INFO] any info message - [id:10][instance:4] - [COMP-12][file-2.c][function-9][ln:164]
[2019-04-05 09:34:11,754][INFO] any info message - [id:10][instance:1] - [COMP-1][file-12.c][function-1][ln:944]
[2019-04-05 09:34:11,980][WARNING] Here is a warning message - [id:10][instance:6] - [COMP-1][file-4.c][function-11][ln:727]
[2019-04-05 09:34:12,088][DEBUG] any debug message - [id:10][instance:1] - [COMP-4][file-3.c][function-13][ln:354]
[2019-04-05 09:34:13,255][INFO] any info message - [id:10][instance:2] - [COMP-4][file-9.c][function-13][ln:622]
[2019-04-05 09:34:14,755][INFO] any info message - [id:10][instance:5] - [COMP-4][file-13.c][function-12][ln:899]
[2019-04-05 09:34:16,256][INFO] any info message - [id:10][instance:6] - [COMP-13][file-13.c][function-2][ln:428]
[2019-04-05 09:34:17,756][INFO] any info message - [id:10][instance:7] - [COMP-5][file-11.c][function-10][ln:730]
[2019-04-05 09:34:19,256][INFO] any info message - [id:10][instance:6] - [COMP-3][file-9.c][function-6][ln:105]
[2019-04-05 09:34:20,756][INFO] any info message - [id:10][instance:5] - [COMP-5][file-9.c][function-13][ln:694]
[2019-04-05 09:34:22,257][INFO] any info message - [id:10][instance:1] - [COMP-1][file-12.c][function-11][ln:839]
[2019-04-05 09:34:23,757][INFO] any info message - [id:10][instance:2] - [COMP-5][file-6.c][function-5][ln:770]
[2019-04-05 09:34:25,257][INFO] any info message - [id:10][instance:5] - [COMP-7][file-10.c][function-8][ln:545]
[2019-04-05 09:34:26,757][INFO] any info message - [id:10][instance:7] - [COMP-1][file-6.c][function-4][ln:735]
[2019-04-05 09:34:27,088][DEBUG] any debug message - [id:10][instance:1] - [COMP-7][file-9.c][function-13][ln:207]
[2019-04-05 09:34:28,258][INFO] any info message - [id:10][instance:3] - [COMP-12][file-11.c][function-7][ln:687]
[2019-04-05 09:34:29,758][INFO] any info message - [id:10][instance:3] - [COMP-9][file-2.c][function-6][ln:78]
[2019-04-05 09:34:31,258][INFO] any info message - [id:10][instance:6] - [COMP-11][file-12.c][function-10][ln:87]
[2019-04-05 09:34:32,759][INFO] any info message - [id:10][instance:5] - [COMP-10][file-3.c][function-2][ln:312]
[2019-04-05 09:34:34,259][INFO] any info message - [id:10][instance:3] - [COMP-8][file-10.c][function-6][ln:116]
[2019-04-05 09:34:35,759][INFO] any info message - [id:10][instance:4] - [COMP-6][file-6.c][function-8][ln:512]
[2019-04-05 09:34:37,259][INFO] any info message - [id:10][instance:6] - [COMP-10][file-11.c][function-10][ln:530]
[2019-04-05 09:34:38,760][INFO] any info message - [id:10][instance:5] - [COMP-6][file-3.c][function-10][ln:563]
[2019-04-05 09:34:40,260][INFO] any info message - [id:10][instance:1] - [COMP-11][file-10.c][function-1][ln:324]
[2019-04-05 09:34:41,761][INFO] any info message - [id:10][instance:1] - [COMP-1][file-12.c][function-6][ln:697]
[2019-04-05 09:34:41,937][ERROR] It is an error message - [id:10][instance:2] - [COMP-7][file-3.c][function-11][ln:171]
[2019-04-05 09:34:41,980][WARNING] Here is a warning message - [id:10][instance:5] - [COMP-2][file-11.c][function-5][ln:930]
[2019-04-05 09:34:42,089][DEBUG] any debug message - [id:10][instance:7] - [COMP-1][file-6.c][function-1][ln:498]
[2019-04-05 09:34:43,261][INFO] any info message - [id:10][instance:1] - [COMP-6][file-7.c][function-11][ln:73]
[2019-04-05 09:34:44,761][INFO] any info message - [id:10][instance:4] - [COMP-3][file-6.c][function-11][ln:273]
[2019-04-05 09:34:46,261][INFO] any info message - [id:10][instance:2] - [COMP-3][file-10.c][function-8][ln:465]
[2019-04-05 09:34:47,762][INFO] any info message - [id:10][instance:3] - [COMP-8][file-6.c][function-1][ln:34]
[2019-04-05 09:34:49,262][INFO] any info message - [id:10][instance:7] - [COMP-3][file-9.c][function-11][ln:942]
[2019-04-05 09:34:50,763][INFO] any info message - [id:10][instance:6] - [COMP-10][file-13.c][function-6][ln:290]
[2019-04-05 09:34:52,263][INFO] any info message - [id:10][instance:2] - [COMP-9][file-3.c][function-12][ln:590]
[2019-04-05 09:34:53,764][INFO] any info message - [id:10][instance:3] - [COMP-4][file-4.c][function-12][ln:412]
[2019-04-05 09:34:55,264][INFO] any info message - [id:10][instance:2] - [COMP-9][file-5.c][function-11][ln:944]
[2019-04-05 09:34:56,764][INFO] any info message - [id:10][instance:6] - [COMP-12][file-5.c][function-13][ln:542]
[2019-04-05 09:34:57,089][DEBUG] any debug message - [id:10][instance:3] - [COMP-4][file-4.c][function-5][ln:96]
[2019-04-05 09:34:58,264][INFO] any info message - [id:10][instance:4] - [COMP-6][file-10.c][function-4][ln:604]
[2019-04-05 09:34:59,765][INFO] any info message - [id:10][instance:6] - [COMP-10][file-7.c][function-7][ln:118]
[2019-04-05 09:35:01,265][INFO] any info message - [id:10][instance:3] - [COMP-3][file-8.c][function-7][ln:149]
[2019-04-05 09:35:02,765][INFO] any info message - [id:10][instance:1] - [COMP-3][file-2.c][function-13][ln:823]
[2019-04-05 09:35:04,265][INFO] any info message - [id:10][instance:2] - [COMP-9][file-6.c][function-9][ln:304]
[2019-04-05 09:35:05,766][INFO] any info message - [id:10][instance:2] - [COMP-13][file-6.c][function-6][ln:59]
[2019-04-05 09:35:07,266][INFO] any info message - [id:10][instance:2] - [COMP-5][file-11.c][function-5][ln:664]
[2019-04-05 09:35:08,766][INFO] any info message - [id:10][instance:4] - [COMP-2][file-11.c][function-5][ln:734]
[2019-04-05 09:35:10,271][INFO] any info message - [id:10][instance:4] - [COMP-1][file-13.c][function-1][ln:647]
[2019-04-05 09:35:11,771][INFO] any info message - [id:10][instance:1] - [COMP-7][file-12.c][function-6][ln:339]
[2019-04-05 09:35:11,981][WARNING] Here is a warning message - [id:10][instance:7] - [COMP-6][file-5.c][function-8][ln:933]
[2019-04-05 09:35:12,089][DEBUG] any debug message - [id:10][instance:3] - [COMP-8][file-1.c][function-4][ln:216]
[2019-04-05 09:35:13,272][INFO] any info message - [id:10][instance:7] - [COMP-13][file-5.c][function-7][ln:482]
[2019-04-05 09:35:14,773][INFO] any info message - [id:10][instance:5] - [COMP-7][file-6.c][function-9][ln:848]
[2019-04-05 09:35:16,273][INFO] any info message - [id:10][instance:2] - [COMP-9][file-13.c][function-10][ln:153]
[2019-04-05 09:35:17,773][INFO] any info message - [id:10][instance:1] - [COMP-1][file-4.c][function-3][ln:129]
[2019-04-05 09:35:19,273][INFO] any info message - [id:10][instance:7] - [COMP-12][file-9.c][function-6][ln:79]
[2019-04-05 09:35:20,773][INFO] any info message - [id:10][instance:2] - [COMP-11][file-11.c][function-1][ln:579]
[2019-04-05 09:35:22,273][INFO] any info message - [id:10][instance:2] - [COMP-11][file-1.c][function-10][ln:536]
[2019-04-05 09:35:23,773][INFO] any info message - [id:10][instance:1] - [COMP-7][file-6.c][function-5][ln:750]
[2019-04-05 09:35:25,274][INFO] any info message - [id:10][instance:5] - [COMP-11][file-5.c][function-7][ln:588]
[2019-04-05 09:35:26,775][INFO] any info message - [id:10][instance:2] - [COMP-12][file-7.c][function-6][ln:412]
[2019-04-05 09:35:27,090][DEBUG] any debug message - [id:10][instance:3] - [COMP-10][file-4.c][function-1][ln:478]
[2019-04-05 09:35:28,275][INFO] any info message - [id:10][instance:4] - [COMP-6][file-13.c][function-2][ln:976]
[2019-04-05 09:35:29,775][INFO] any info message - [id:10][instance:6] - [COMP-13][file-4.c][function-2][ln:41]
[2019-04-05 09:35:31,276][INFO] any info message - [id:10][instance:7] - [COMP-9][file-8.c][function-13][ln:133]
[2019-04-05 09:35:32,777][INFO] any info message - [id:10][instance:4] - [COMP-9][file-7.c][function-7][ln:453]
[2019-04-05 09:35:34,277][INFO] any info message - [id:10][instance:2] - [COMP-6][file-1.c][function-1][ln:603]
[2019-04-05 09:35:35,777][INFO] any info message - [id:10][instance:6] - [COMP-1][file-9.c][function-5][ln:213]
[2019-04-05 09:35:37,277][INFO] any info message - [id:10][instance:5] - [COMP-5][file-8.c][function-9][ln:730]
[2019-04-05 09:35:38,777][INFO] any info message - [id:10][instance:1] - [COMP-2][file-10.c][function-1][ln:409]
[2019-04-05 09:35:40,277][INFO] any info message - [id:10][instance:1] - [COMP-3][file-2.c][function-1][ln:755]
[2019-04-05 09:35:41,777][INFO] any info message - [id:10][instance:3] - [COMP-5][file-5.c][function-4][ln:920]
[2019-04-05 09:35:41,909][CRITICAL] ATTENTION: This is a critical issue! - [id:10][instance:1] - [COMP-4][file-6.c][function-8][ln:523]
[2019-04-05 09:35:41,937][ERROR] It is an error message - [id:10][instance:5] - [COMP-5][file-9.c][function-6][ln:920]
[2019-04-05 09:35:41,982][WARNING] Here is a warning message - [id:10][instance:3] - [COMP-6][file-8.c][function-12][ln:587]
[2019-04-05 09:35:42,092][DEBUG] any debug message - [id:10][instance:5] - [COMP-3][file-8.c][function-2][ln:631]
[2019-04-05 09:35:43,277][INFO] any info message - [id:10][instance:3] - [COMP-10][file-6.c][function-13][ln:453]
[2019-04-05 09:35:44,777][INFO] any info message - [id:10][instance:5] - [COMP-3][file-9.c][function-10][ln:947]
[2019-04-05 09:35:46,278][INFO] any info message - [id:10][instance:1] - [COMP-5][file-11.c][function-1][ln:999]
[2019-04-05 09:35:47,778][INFO] any info message - [id:10][instance:1] - [COMP-1][file-2.c][function-13][ln:151]
[2019-04-05 09:35:49,278][INFO] any info message - [id:10][instance:5] - [COMP-1][file-11.c][function-10][ln:123]
[2019-04-05 09:35:50,779][INFO] any info message - [id:10][instance:4] - [COMP-6][file-11.c][function-11][ln:123]
[2019-04-05 09:35:52,279][INFO] any info message - [id:10][instance:2] - [COMP-10][file-2.c][function-7][ln:756]
[2019-04-05 09:35:53,780][INFO] any info message - [id:10][instance:2] - [COMP-5][file-2.c][function-8][ln:461]
[2019-04-05 09:35:55,280][INFO] any info message - [id:10][instance:2] - [COMP-4][file-5.c][function-2][ln:636]
[2019-04-05 09:35:56,780][INFO] any info message - [id:10][instance:7] - [COMP-13][file-13.c][function-7][ln:605]
[2019-04-05 09:35:57,091][DEBUG] any debug message - [id:10][instance:1] - [COMP-1][file-10.c][function-1][ln:728]
[2019-04-05 09:35:58,280][INFO] any info message - [id:10][instance:5] - [COMP-11][file-3.c][function-5][ln:492]
