[2019-04-04 23:17:05,950][INFO] any info message - [id:10][instance:2] - [COMP-11][file-4.c][function-8][ln:548]
[2019-04-04 23:17:07,369][DEBUG] any debug message - [id:10][instance:2] - [COMP-11][file-9.c][function-1][ln:750]
[2019-04-04 23:17:07,451][INFO] any info message - [id:10][instance:4] - [COMP-9][file-13.c][function-4][ln:566]
[2019-04-04 23:17:08,951][INFO] any info message - [id:10][instance:5] - [COMP-3][file-9.c][function-8][ln:996]
[2019-04-04 23:17:10,451][INFO] any info message - [id:10][instance:2] - [COMP-11][file-9.c][function-5][ln:880]
[2019-04-04 23:17:11,952][INFO] any info message - [id:10][instance:4] - [COMP-6][file-13.c][function-13][ln:985]
[2019-04-04 23:17:13,453][INFO] any info message - [id:10][instance:4] - [COMP-7][file-8.c][function-7][ln:983]
[2019-04-04 23:17:14,954][INFO] any info message - [id:10][instance:6] - [COMP-4][file-3.c][function-2][ln:551]
[2019-04-04 23:17:16,454][INFO] any info message - [id:10][instance:2] - [COMP-5][file-13.c][function-4][ln:699]
[2019-04-04 23:17:17,954][INFO] any info message - [id:10][instance:3] - [COMP-13][file-11.c][function-6][ln:236]
[2019-04-04 23:17:19,455][INFO] any info message - [id:10][instance:6] - [COMP-11][file-1.c][function-12][ln:147]
[2019-04-04 23:17:20,956][INFO] any info message - [id:10][instance:5] - [COMP-10][file-1.c][function-3][ln:157]
[2019-04-04 23:17:22,113][WARNING] Here is a warning message - [id:10][instance:1] - [COMP-3][file-11.c][function-9][ln:704]
[2019-04-04 23:17:22,370][DEBUG] any debug message - [id:10][instance:4] - [COMP-4][file-1.c][function-7][ln:575]
[2019-04-04 23:17:22,456][INFO] any info message - [id:10][instance:6] - [COMP-13][file-8.c][function-5][ln:891]
[2019-04-04 23:17:23,957][INFO] any info message - [id:10][instance:2] - [COMP-10][file-7.c][function-1][ln:34]
[2019-04-04 23:17:25,457][INFO] any info message - [id:10][instance:6] - [COMP-12][file-13.c][function-8][ln:296]
[2019-04-04 23:17:26,975][INFO] any info message - [id:10][instance:7] - [COMP-10][file-10.c][function-9][ln:303]
[2019-04-04 23:17:28,476][INFO] any info message - [id:10][instance:2] - [COMP-3][file-10.c][function-1][ln:340]
[2019-04-04 23:17:29,976][INFO] any info message - [id:10][instance:4] - [COMP-7][file-4.c][function-5][ln:955]
[2019-04-04 23:17:31,476][INFO] any info message - [id:10][instance:2] - [COMP-5][file-11.c][function-13][ln:350]
[2019-04-04 23:17:32,978][INFO] any info message - [id:10][instance:3] - [COMP-1][file-9.c][function-13][ln:269]
[2019-04-04 23:17:34,478][INFO] any info message - [id:10][instance:4] - [COMP-1][file-11.c][function-13][ln:311]
[2019-04-04 23:17:35,979][INFO] any info message - [id:10][instance:5] - [COMP-1][file-2.c][function-2][ln:285]
[2019-04-04 23:17:37,373][DEBUG] any debug message - [id:10][instance:1] - [COMP-8][file-7.c][function-4][ln:2]
[2019-04-04 23:17:37,480][INFO] any info message - [id:10][instance:6] - [COMP-11][file-6.c][function-4][ln:147]
[2019-04-04 23:17:38,980][INFO] any info message - [id:10][instance:5] - [COMP-7][file-7.c][function-9][ln:617]
[2019-04-04 23:17:40,481][INFO] any info message - [id:10][instance:7] - [COMP-6][file-12.c][function-7][ln:353]
[2019-04-04 23:17:41,981][INFO] any info message - [id:10][instance:1] - [COMP-10][file-4.c][function-1][ln:81]
[2019-04-04 23:17:43,482][INFO] any info message - [id:10][instance:2] - [COMP-2][file-8.c][function-10][ln:350]
[2019-04-04 23:17:44,982][INFO] any info message - [id:10][instance:1] - [COMP-6][file-7.c][function-6][ln:90]
[2019-04-04 23:17:46,483][INFO] any info message - [id:10][instance:5] - [COMP-12][file-6.c][function-11][ln:243]
[2019-04-04 23:17:47,983][INFO] any info message - [id:10][instance:6] - [COMP-5][file-9.c][function-6][ln:562]
[2019-04-04 23:17:49,483][INFO] any info message - [id:10][instance:1] - [COMP-9][file-9.c][function-3][ln:10]
[2019-04-04 23:17:50,983][INFO] any info message - [id:10][instance:6] - [COMP-12][file-5.c][function-10][ln:148]
[2019-04-04 23:17:51,896][ERROR] It is an error message - [id:10][instance:7] - [COMP-5][file-9.c][function-3][ln:582]
[2019-04-04 23:17:52,114][WARNING] Here is a warning message - [id:10][instance:4] - [COMP-9][file-3.c][function-13][ln:455]
[2019-04-04 23:17:52,374][DEBUG] any debug message - [id:10][instance:6] - [COMP-3][file-8.c][function-2][ln:253]
[2019-04-04 23:17:52,484][INFO] any info message - [id:10][instance:4] - [COMP-7][file-11.c][function-4][ln:502]
[2019-04-04 23:17:53,985][INFO] any info message - [id:10][instance:3] - [COMP-3][file-8.c][function-4][ln:142]
[2019-04-04 23:17:55,486][INFO] any info message - [id:10][instance:3] - [COMP-9][file-8.c][function-13][ln:598]
[2019-04-04 23:17:56,986][INFO] any info message - [id:10][instance:5] - [COMP-10][file-13.c][function-8][ln:314]
[2019-04-04 23:17:58,488][INFO] any info message - [id:10][instance:2] - [COMP-5][file-2.c][function-13][ln:248]
[2019-04-04 23:17:59,989][INFO] any info message - [id:10][instance:6] - [COMP-11][file-7.c][function-4][ln:755]
[2019-04-04 23:18:01,489][INFO] any info message - [id:10][instance:2] - [COMP-9][file-7.c][function-7][ln:805]
[2019-04-04 23:18:02,989][INFO] any info message - [id:10][instance:3] - [COMP-7][file-1.c][function-6][ln:760]
[2019-04-04 23:18:04,490][INFO] any info message - [id:10][instance:4] - [COMP-12][file-9.c][function-10][ln:525]
[2019-04-04 23:18:05,990][INFO] any info message - [id:10][instance:5] - [COMP-12][file-12.c][function-11][ln:502]
[2019-04-04 23:18:07,375][DEBUG] any debug message - [id:10][instance:7] - [COMP-1][file-11.c][function-4][ln:807]
[2019-04-04 23:18:07,490][INFO] any info message - [id:10][instance:7] - [COMP-10][file-5.c][function-5][ln:965]
[2019-04-04 23:18:08,991][INFO] any info message - [id:10][instance:5] - [COMP-3][file-7.c][function-9][ln:990]
[2019-04-04 23:18:10,491][INFO] any info message - [id:10][instance:2] - [COMP-7][file-10.c][function-7][ln:124]
[2019-04-04 23:18:11,992][INFO] any info message - [id:10][instance:7] - [COMP-1][file-9.c][function-12][ln:604]
[2019-04-04 23:18:13,492][INFO] any info message - [id:10][instance:6] - [COMP-6][file-13.c][function-11][ln:947]
[2019-04-04 23:18:14,993][INFO] any info message - [id:10][instance:1] - [COMP-7][file-7.c][function-1][ln:24]
[2019-04-04 23:18:16,493][INFO] any info message - [id:10][instance:2] - [COMP-3][file-1.c][function-4][ln:365]
[2019-04-04 23:18:17,993][INFO] any info message - [id:10][instance:4] - [COMP-4][file-7.c][function-6][ln:56]
[2019-04-04 23:18:19,495][INFO] any info message - [id:10][instance:4] - [COMP-7][file-6.c][function-13][ln:384]
[2019-04-04 23:18:20,994][INFO] any info message - [id:10][instance:7] - [COMP-5][file-1.c][function-3][ln:427]
[2019-04-04 23:18:22,114][WARNING] Here is a warning message - [id:10][instance:3] - [COMP-2][file-5.c][function-2][ln:72]
[2019-04-04 23:18:22,375][DEBUG] any debug message - [id:10][instance:2] - [COMP-5][file-13.c][function-9][ln:745]
[2019-04-04 23:18:22,494][INFO] any info message - [id:10][instance:3] - [COMP-10][file-11.c][function-13][ln:347]
[2019-04-04 23:18:23,994][INFO] any info message - [id:10][instance:2] - [COMP-2][file-13.c][function-5][ln:136]
[2019-04-04 23:18:25,495][INFO] any info message - [id:10][instance:1] - [COMP-3][file-3.c][function-5][ln:443]
[2019-04-04 23:18:26,995][INFO] any info message - [id:10][instance:5] - [COMP-6][file-12.c][function-9][ln:354]
[2019-04-04 23:18:28,495][INFO] any info message - [id:10][instance:2] - [COMP-3][file-5.c][function-13][ln:269]
[2019-04-04 23:18:29,997][INFO] any info message - [id:10][instance:5] - [COMP-1][file-9.c][function-5][ln:703]
[2019-04-04 23:18:31,498][INFO] any info message - [id:10][instance:1] - [COMP-5][file-12.c][function-12][ln:67]
[2019-04-04 23:18:32,999][INFO] any info message - [id:10][instance:7] - [COMP-13][file-2.c][function-4][ln:400]
[2019-04-04 23:18:34,500][INFO] any info message - [id:10][instance:4] - [COMP-5][file-8.c][function-13][ln:812]
[2019-04-04 23:18:36,000][INFO] any info message - [id:10][instance:1] - [COMP-4][file-8.c][function-1][ln:210]
[2019-04-04 23:18:37,376][DEBUG] any debug message - [id:10][instance:3] - [COMP-10][file-10.c][function-8][ln:150]
[2019-04-04 23:18:37,501][INFO] any info message - [id:10][instance:7] - [COMP-4][file-1.c][function-2][ln:803]
[2019-04-04 23:18:39,001][INFO] any info message - [id:10][instance:5] - [COMP-7][file-8.c][function-7][ln:889]
[2019-04-04 23:18:40,501][INFO] any info message - [id:10][instance:2] - [COMP-4][file-10.c][function-4][ln:321]
[2019-04-04 23:18:42,002][INFO] any info message - [id:10][instance:6] - [COMP-3][file-9.c][function-13][ln:795]
[2019-04-04 23:18:43,503][INFO] any info message - [id:10][instance:6] - [COMP-13][file-7.c][function-7][ln:967]
[2019-04-04 23:18:45,004][INFO] any info message - [id:10][instance:7] - [COMP-6][file-10.c][function-12][ln:288]
[2019-04-04 23:18:46,504][INFO] any info message - [id:10][instance:6] - [COMP-12][file-10.c][function-1][ln:861]
[2019-04-04 23:18:48,005][INFO] any info message - [id:10][instance:1] - [COMP-11][file-5.c][function-11][ln:335]
[2019-04-04 23:18:49,506][INFO] any info message - [id:10][instance:6] - [COMP-2][file-7.c][function-5][ln:471]
[2019-04-04 23:18:51,007][INFO] any info message - [id:10][instance:4] - [COMP-7][file-6.c][function-1][ln:452]
[2019-04-04 23:18:51,842][CRITICAL] ATTENTION: This is a critical issue! - [id:10][instance:3] - [COMP-12][file-13.c][function-5][ln:420]
[2019-04-04 23:18:51,897][ERROR] It is an error message - [id:10][instance:6] - [COMP-2][file-6.c][function-13][ln:75]
[2019-04-04 23:18:52,114][WARNING] Here is a warning message - [id:10][instance:2] - [COMP-13][file-5.c][function-7][ln:140]
[2019-04-04 23:18:52,376][DEBUG] any debug message - [id:10][instance:5] - [COMP-12][file-13.c][function-10][ln:925]
[2019-04-04 23:18:52,508][INFO] any info message - [id:10][instance:3] - [COMP-10][file-3.c][function-10][ln:426]
[2019-04-04 23:18:54,008][INFO] any info message - [id:10][instance:6] - [COMP-9][file-3.c][function-8][ln:893]
[2019-04-04 23:18:55,509][INFO] any info message - [id:10][instance:3] - [COMP-6][file-8.c][function-10][ln:649]
[2019-04-04 23:18:57,009][INFO] any info message - [id:10][instance:3] - [COMP-10][file-12.c][function-9][ln:592]
[2019-04-04 23:18:58,510][INFO] any info message - [id:10][instance:3] - [COMP-5][file-2.c][function-13][ln:970]
[2019-04-04 23:19:00,011][INFO] any info message - [id:10][instance:7] - [COMP-6][file-3.c][function-3][ln:603]
[2019-04-04 23:19:01,513][INFO] any info message - [id:10][instance:6] - [COMP-3][file-4.c][function-12][ln:470]
[2019-04-04 23:19:03,014][INFO] any info message - [id:10][instance:3] - [COMP-8][file-2.c][function-11][ln:248]
[2019-04-04 23:19:04,514][INFO] any info message - [id:10][instance:5] - [COMP-4][file-7.c][function-8][ln:745]
[2019-04-04 23:19:06,015][INFO] any info message - [id:10][instance:6] - [COMP-7][file-6.c][function-2][ln:718]
[2019-04-04 23:19:07,377][DEBUG] any debug message - [id:10][instance:2] - [COMP-8][file-5.c][function-3][ln:551]
[2019-04-04 23:19:07,516][INFO] any info message - [id:10][instance:2] - [COMP-11][file-4.c][function-9][ln:731]
[2019-04-04 23:19:09,016][INFO] any info message - [id:10][instance:2] - [COMP-9][file-9.c][function-4][ln:386]
[2019-04-04 23:19:10,516][INFO] any info message - [id:10][instance:5] - [COMP-5][file-11.c][function-13][ln:695]
[2019-04-04 23:19:12,017][INFO] any info message - [id:10][instance:3] - [COMP-4][file-5.c][function-3][ln:799]
[2019-04-04 23:19:13,518][INFO] any info message - [id:10][instance:5] - [COMP-4][file-5.c][function-1][ln:414]
[2019-04-04 23:19:15,019][INFO] any info message - [id:10][instance:1] - [COMP-12][file-8.c][function-12][ln:385]
[2019-04-04 23:19:16,519][INFO] any info message - [id:10][instance:2] - [COMP-9][file-8.c][function-6][ln:270]
[2019-04-04 23:19:18,020][INFO] any info message - [id:10][instance:6] - [COMP-7][file-8.c][function-13][ln:298]
[2019-04-04 23:19:19,520][INFO] any info message - [id:10][instance:5] - [COMP-7][file-13.c][function-7][ln:75]
[2019-04-04 23:19:21,021][INFO] any info message - [id:10][instance:5] - [COMP-5][file-2.c][function-1][ln:577]
[2019-04-04 23:19:22,115][WARNING] Here is a warning message - [id:10][instance:6] - [COMP-8][file-11.c][function-6][ln:752]
[2019-04-04 23:19:22,377][DEBUG] any debug message - [id:10][instance:5] - [COMP-10][file-4.c][function-3][ln:773]
[2019-04-04 23:19:22,523][INFO] any info message - [id:10][instance:1] - [COMP-11][file-6.c][function-11][ln:273]
[2019-04-04 23:19:24,024][INFO] any info message - [id:10][instance:7] - [COMP-8][file-13.c][function-13][ln:172]
[2019-04-04 23:19:25,524][INFO] any info message - [id:10][instance:1] - [COMP-11][file-9.c][function-7][ln:412]
[2019-04-04 23:19:27,025][INFO] any info message - [id:10][instance:3] - [COMP-7][file-7.c][function-7][ln:370]
[2019-04-04 23:19:28,526][INFO] any info message - [id:10][instance:7] - [COMP-11][file-12.c][function-12][ln:591]
[2019-04-04 23:19:30,027][INFO] any info message - [id:10][instance:4] - [COMP-7][file-11.c][function-4][ln:243]
[2019-04-04 23:19:31,527][INFO] any info message - [id:10][instance:5] - [COMP-13][file-9.c][function-6][ln:390]
[2019-04-04 23:19:33,029][INFO] any info message - [id:10][instance:7] - [COMP-2][file-7.c][function-10][ln:198]
[2019-04-04 23:19:34,530][INFO] any info message - [id:10][instance:4] - [COMP-7][file-10.c][function-3][ln:574]
[2019-04-04 23:19:36,030][INFO] any info message - [id:10][instance:7] - [COMP-4][file-1.c][function-7][ln:167]
[2019-04-04 23:19:37,377][DEBUG] any debug message - [id:10][instance:6] - [COMP-10][file-7.c][function-9][ln:580]
[2019-04-04 23:19:37,531][INFO] any info message - [id:10][instance:6] - [COMP-5][file-1.c][function-5][ln:723]
[2019-04-04 23:19:39,031][INFO] any info message - [id:10][instance:6] - [COMP-9][file-1.c][function-1][ln:153]
[2019-04-04 23:19:40,531][INFO] any info message - [id:10][instance:2] - [COMP-12][file-3.c][function-7][ln:210]
[2019-04-04 23:19:42,032][INFO] any info message - [id:10][instance:1] - [COMP-2][file-2.c][function-7][ln:542]
[2019-04-04 23:19:43,533][INFO] any info message - [id:10][instance:5] - [COMP-3][file-7.c][function-8][ln:11]
[2019-04-04 23:19:45,034][INFO] any info message - [id:10][instance:7] - [COMP-12][file-6.c][function-3][ln:214]
[2019-04-04 23:19:46,534][INFO] any info message - [id:10][instance:1] - [COMP-2][file-9.c][function-10][ln:595]
[2019-04-04 23:19:48,035][INFO] any info message - [id:10][instance:2] - [COMP-7][file-2.c][function-11][ln:13]
[2019-04-04 23:24:38,753][INFO] any info message - [id:10][instance:3] - [COMP-2][file-8.c][function-2][ln:955]
[2019-04-04 23:24:38,753][DEBUG] any debug message - [id:10][instance:3] - [COMP-9][file-6.c][function-5][ln:994]
[2019-04-04 23:24:38,768][WARNING] Here is a warning message - [id:10][instance:1] - [COMP-2][file-5.c][function-8][ln:804]
[2019-04-04 23:24:38,768][ERROR] It is an error message - [id:10][instance:1] - [COMP-1][file-13.c][function-6][ln:163]
[2019-04-04 23:24:38,768][CRITICAL] ATTENTION: This is a critical issue! - [id:10][instance:2] - [COMP-6][file-4.c][function-4][ln:195]
[2019-04-04 23:24:40,262][INFO] any info message - [id:10][instance:2] - [COMP-6][file-1.c][function-1][ln:437]
[2019-04-04 23:24:41,777][INFO] any info message - [id:10][instance:6] - [COMP-6][file-13.c][function-1][ln:145]
[2019-04-04 23:24:43,286][INFO] any info message - [id:10][instance:5] - [COMP-3][file-4.c][function-3][ln:793]
[2019-04-04 23:24:44,798][INFO] any info message - [id:10][instance:5] - [COMP-12][file-1.c][function-5][ln:351]
[2019-04-04 23:24:46,311][INFO] any info message - [id:10][instance:3] - [COMP-3][file-12.c][function-5][ln:299]
[2019-04-04 23:24:47,816][INFO] any info message - [id:10][instance:3] - [COMP-8][file-2.c][function-1][ln:840]
[2019-04-04 23:24:49,332][INFO] any info message - [id:10][instance:3] - [COMP-4][file-7.c][function-6][ln:932]
[2019-04-04 23:24:50,832][INFO] any info message - [id:10][instance:7] - [COMP-11][file-3.c][function-1][ln:9]
[2019-04-04 23:24:52,335][INFO] any info message - [id:10][instance:4] - [COMP-10][file-8.c][function-5][ln:178]
[2019-04-04 23:24:53,759][DEBUG] any debug message - [id:10][instance:2] - [COMP-8][file-4.c][function-11][ln:640]
[2019-04-04 23:24:53,837][INFO] any info message - [id:10][instance:1] - [COMP-6][file-2.c][function-12][ln:734]
[2019-04-04 23:24:55,340][INFO] any info message - [id:10][instance:7] - [COMP-13][file-4.c][function-2][ln:530]
[2019-04-04 23:24:56,850][INFO] any info message - [id:10][instance:3] - [COMP-10][file-5.c][function-2][ln:687]
[2019-04-04 23:24:58,365][INFO] any info message - [id:10][instance:5] - [COMP-11][file-5.c][function-13][ln:487]
[2019-04-04 23:24:59,865][INFO] any info message - [id:10][instance:3] - [COMP-6][file-11.c][function-12][ln:429]
[2019-04-04 23:25:01,381][INFO] any info message - [id:10][instance:3] - [COMP-1][file-9.c][function-3][ln:712]
[2019-04-04 23:25:02,896][INFO] any info message - [id:10][instance:7] - [COMP-4][file-11.c][function-6][ln:775]
[2019-04-04 23:25:04,412][INFO] any info message - [id:10][instance:7] - [COMP-2][file-10.c][function-7][ln:198]
[2019-04-04 23:25:05,914][INFO] any info message - [id:10][instance:6] - [COMP-10][file-4.c][function-13][ln:784]
[2019-04-04 23:25:07,428][INFO] any info message - [id:10][instance:2] - [COMP-1][file-11.c][function-13][ln:967]
[2019-04-04 23:25:08,772][DEBUG] any debug message - [id:10][instance:2] - [COMP-7][file-10.c][function-4][ln:351]
[2019-04-04 23:25:08,772][WARNING] Here is a warning message - [id:10][instance:4] - [COMP-5][file-3.c][function-3][ln:594]
[2019-04-04 23:25:08,944][INFO] any info message - [id:10][instance:6] - [COMP-12][file-5.c][function-10][ln:554]
[2019-04-04 23:25:10,459][INFO] any info message - [id:10][instance:3] - [COMP-10][file-5.c][function-10][ln:390]
[2019-04-04 23:25:11,974][INFO] any info message - [id:10][instance:2] - [COMP-7][file-13.c][function-6][ln:669]
[2019-04-04 23:25:13,489][INFO] any info message - [id:10][instance:1] - [COMP-7][file-2.c][function-5][ln:618]
[2019-04-04 23:25:15,005][INFO] any info message - [id:10][instance:3] - [COMP-11][file-1.c][function-9][ln:980]
[2019-04-04 23:25:16,520][INFO] any info message - [id:10][instance:4] - [COMP-1][file-7.c][function-1][ln:169]
[2019-04-04 23:25:18,023][INFO] any info message - [id:10][instance:2] - [COMP-3][file-8.c][function-4][ln:484]
[2019-04-04 23:25:19,538][INFO] any info message - [id:10][instance:2] - [COMP-9][file-13.c][function-6][ln:673]
[2019-04-04 23:25:21,038][INFO] any info message - [id:10][instance:5] - [COMP-12][file-11.c][function-12][ln:831]
[2019-04-04 23:25:22,550][INFO] any info message - [id:10][instance:7] - [COMP-11][file-11.c][function-13][ln:836]
[2019-04-04 23:25:23,784][DEBUG] any debug message - [id:10][instance:3] - [COMP-7][file-9.c][function-4][ln:733]
[2019-04-04 23:25:24,065][INFO] any info message - [id:10][instance:3] - [COMP-7][file-11.c][function-13][ln:847]
[2019-04-04 23:25:25,581][INFO] any info message - [id:10][instance:2] - [COMP-4][file-1.c][function-9][ln:327]
[2019-04-04 23:25:27,082][INFO] any info message - [id:10][instance:3] - [COMP-8][file-7.c][function-12][ln:13]
[2019-04-04 23:25:28,591][INFO] any info message - [id:10][instance:4] - [COMP-11][file-13.c][function-7][ln:878]
[2019-04-04 23:25:30,099][INFO] any info message - [id:10][instance:5] - [COMP-9][file-5.c][function-11][ln:727]
[2019-04-04 23:25:31,612][INFO] any info message - [id:10][instance:2] - [COMP-13][file-7.c][function-4][ln:969]
[2019-04-04 23:25:33,117][INFO] any info message - [id:10][instance:6] - [COMP-10][file-3.c][function-1][ln:781]
[2019-04-04 23:25:34,618][INFO] any info message - [id:10][instance:5] - [COMP-1][file-10.c][function-7][ln:496]
[2019-04-04 23:25:36,119][INFO] any info message - [id:10][instance:4] - [COMP-8][file-12.c][function-10][ln:763]
[2019-04-04 23:25:37,619][INFO] any info message - [id:10][instance:5] - [COMP-1][file-1.c][function-7][ln:120]
[2019-04-04 23:25:38,768][ERROR] It is an error message - [id:10][instance:7] - [COMP-4][file-11.c][function-6][ln:195]
[2019-04-04 23:25:38,772][WARNING] Here is a warning message - [id:10][instance:2] - [COMP-13][file-7.c][function-12][ln:156]
[2019-04-04 23:25:38,785][DEBUG] any debug message - [id:10][instance:2] - [COMP-4][file-6.c][function-13][ln:941]
[2019-04-04 23:25:39,120][INFO] any info message - [id:10][instance:4] - [COMP-8][file-12.c][function-2][ln:919]
[2019-04-04 23:25:40,620][INFO] any info message - [id:10][instance:6] - [COMP-11][file-7.c][function-6][ln:807]
[2019-04-04 23:25:42,120][INFO] any info message - [id:10][instance:4] - [COMP-12][file-13.c][function-6][ln:352]
[2019-04-04 23:25:43,621][INFO] any info message - [id:10][instance:6] - [COMP-3][file-7.c][function-9][ln:844]
[2019-04-04 23:25:45,121][INFO] any info message - [id:10][instance:6] - [COMP-4][file-1.c][function-4][ln:841]
[2019-04-04 23:25:46,622][INFO] any info message - [id:10][instance:7] - [COMP-11][file-11.c][function-13][ln:178]
[2019-04-04 23:25:48,122][INFO] any info message - [id:10][instance:3] - [COMP-9][file-8.c][function-5][ln:639]
[2019-04-04 23:25:49,622][INFO] any info message - [id:10][instance:5] - [COMP-9][file-10.c][function-10][ln:41]
[2019-04-04 23:25:51,123][INFO] any info message - [id:10][instance:7] - [COMP-4][file-12.c][function-4][ln:633]
[2019-04-04 23:25:52,623][INFO] any info message - [id:10][instance:3] - [COMP-3][file-12.c][function-9][ln:924]
[2019-04-04 23:25:53,785][DEBUG] any debug message - [id:10][instance:2] - [COMP-9][file-6.c][function-7][ln:243]
[2019-04-04 23:25:54,124][INFO] any info message - [id:10][instance:2] - [COMP-10][file-1.c][function-12][ln:511]
[2019-04-04 23:25:55,624][INFO] any info message - [id:10][instance:1] - [COMP-11][file-11.c][function-10][ln:967]
[2019-04-04 23:25:57,124][INFO] any info message - [id:10][instance:4] - [COMP-7][file-4.c][function-3][ln:94]
[2019-04-04 23:25:58,625][INFO] any info message - [id:10][instance:5] - [COMP-8][file-8.c][function-6][ln:460]
[2019-04-04 23:26:00,126][INFO] any info message - [id:10][instance:1] - [COMP-9][file-8.c][function-11][ln:373]
[2019-04-04 23:26:01,627][INFO] any info message - [id:10][instance:3] - [COMP-7][file-2.c][function-10][ln:283]
[2019-04-04 23:26:03,127][INFO] any info message - [id:10][instance:2] - [COMP-9][file-3.c][function-1][ln:535]
[2019-04-04 23:26:04,627][INFO] any info message - [id:10][instance:5] - [COMP-5][file-4.c][function-9][ln:159]
[2019-04-04 23:26:06,128][INFO] any info message - [id:10][instance:2] - [COMP-3][file-7.c][function-13][ln:56]
[2019-04-04 23:26:07,628][INFO] any info message - [id:10][instance:5] - [COMP-6][file-4.c][function-4][ln:124]
[2019-04-04 23:26:08,773][WARNING] Here is a warning message - [id:10][instance:5] - [COMP-9][file-12.c][function-13][ln:782]
[2019-04-04 23:26:08,786][DEBUG] any debug message - [id:10][instance:4] - [COMP-3][file-11.c][function-5][ln:496]
[2019-04-04 23:26:09,129][INFO] any info message - [id:10][instance:4] - [COMP-4][file-11.c][function-6][ln:744]
[2019-04-04 23:26:10,630][INFO] any info message - [id:10][instance:1] - [COMP-1][file-5.c][function-4][ln:226]
[2019-04-04 23:26:12,131][INFO] any info message - [id:10][instance:5] - [COMP-1][file-12.c][function-10][ln:967]
[2019-04-04 23:26:13,631][INFO] any info message - [id:10][instance:3] - [COMP-4][file-13.c][function-8][ln:20]
[2019-04-04 23:26:15,133][INFO] any info message - [id:10][instance:1] - [COMP-13][file-6.c][function-3][ln:496]
[2019-04-04 23:26:16,633][INFO] any info message - [id:10][instance:5] - [COMP-7][file-7.c][function-2][ln:460]
[2019-04-04 23:26:18,133][INFO] any info message - [id:10][instance:5] - [COMP-2][file-9.c][function-8][ln:700]
[2019-04-04 23:26:19,634][INFO] any info message - [id:10][instance:5] - [COMP-7][file-6.c][function-3][ln:793]
[2019-04-04 23:26:21,135][INFO] any info message - [id:10][instance:1] - [COMP-3][file-7.c][function-9][ln:31]
[2019-04-04 23:26:22,636][INFO] any info message - [id:10][instance:5] - [COMP-8][file-10.c][function-10][ln:329]
[2019-04-04 23:26:23,787][DEBUG] any debug message - [id:10][instance:5] - [COMP-2][file-2.c][function-3][ln:435]
[2019-04-04 23:26:24,137][INFO] any info message - [id:10][instance:4] - [COMP-2][file-3.c][function-13][ln:36]
[2019-04-04 23:26:25,638][INFO] any info message - [id:10][instance:1] - [COMP-12][file-5.c][function-2][ln:999]
[2019-04-04 23:26:27,139][INFO] any info message - [id:10][instance:7] - [COMP-8][file-5.c][function-1][ln:210]
[2019-04-04 23:26:28,639][INFO] any info message - [id:10][instance:3] - [COMP-1][file-13.c][function-13][ln:770]
[2019-04-04 23:26:30,140][INFO] any info message - [id:10][instance:1] - [COMP-10][file-7.c][function-13][ln:331]
[2019-04-04 23:26:31,641][INFO] any info message - [id:10][instance:1] - [COMP-12][file-13.c][function-3][ln:123]
[2019-04-04 23:26:33,143][INFO] any info message - [id:10][instance:3] - [COMP-2][file-4.c][function-8][ln:268]
[2019-04-04 23:26:34,644][INFO] any info message - [id:10][instance:2] - [COMP-11][file-4.c][function-7][ln:766]
[2019-04-04 23:26:36,146][INFO] any info message - [id:10][instance:2] - [COMP-9][file-2.c][function-9][ln:575]
[2019-04-04 23:26:37,647][INFO] any info message - [id:10][instance:5] - [COMP-6][file-10.c][function-9][ln:813]
[2019-04-04 23:26:38,771][CRITICAL] ATTENTION: This is a critical issue! - [id:10][instance:4] - [COMP-2][file-1.c][function-6][ln:331]
[2019-04-04 23:26:38,771][ERROR] It is an error message - [id:10][instance:2] - [COMP-4][file-3.c][function-7][ln:895]
[2019-04-04 23:26:38,775][WARNING] Here is a warning message - [id:10][instance:5] - [COMP-10][file-11.c][function-1][ln:518]
[2019-04-04 23:26:38,788][DEBUG] any debug message - [id:10][instance:3] - [COMP-7][file-7.c][function-10][ln:195]
[2019-04-04 23:26:39,149][INFO] any info message - [id:10][instance:2] - [COMP-1][file-6.c][function-1][ln:94]
[2019-04-04 23:26:40,650][INFO] any info message - [id:10][instance:4] - [COMP-9][file-1.c][function-4][ln:134]
[2019-04-04 23:26:42,151][INFO] any info message - [id:10][instance:3] - [COMP-5][file-9.c][function-12][ln:819]
[2019-04-04 23:26:43,652][INFO] any info message - [id:10][instance:1] - [COMP-8][file-5.c][function-12][ln:658]
[2019-04-04 23:26:45,153][INFO] any info message - [id:10][instance:2] - [COMP-5][file-8.c][function-7][ln:953]
[2019-04-04 23:26:46,657][INFO] any info message - [id:10][instance:1] - [COMP-1][file-12.c][function-2][ln:950]
[2019-04-04 23:26:48,159][INFO] any info message - [id:10][instance:7] - [COMP-11][file-10.c][function-2][ln:911]
[2019-04-04 23:26:49,661][INFO] any info message - [id:10][instance:6] - [COMP-7][file-13.c][function-2][ln:569]
[2019-04-04 23:26:51,162][INFO] any info message - [id:10][instance:5] - [COMP-4][file-10.c][function-5][ln:214]
[2019-04-04 23:26:52,664][INFO] any info message - [id:10][instance:4] - [COMP-6][file-11.c][function-3][ln:176]
[2019-04-04 23:26:53,788][DEBUG] any debug message - [id:10][instance:2] - [COMP-9][file-4.c][function-1][ln:36]
[2019-04-04 23:26:54,165][INFO] any info message - [id:10][instance:5] - [COMP-10][file-4.c][function-8][ln:510]
[2019-04-04 23:26:55,666][INFO] any info message - [id:10][instance:2] - [COMP-4][file-11.c][function-5][ln:985]
[2019-04-04 23:26:57,167][INFO] any info message - [id:10][instance:4] - [COMP-11][file-7.c][function-3][ln:815]
[2019-04-04 23:26:58,668][INFO] any info message - [id:10][instance:4] - [COMP-7][file-6.c][function-10][ln:162]
[2019-04-04 23:27:00,170][INFO] any info message - [id:10][instance:5] - [COMP-4][file-12.c][function-9][ln:451]
[2019-04-04 23:27:01,670][INFO] any info message - [id:10][instance:4] - [COMP-2][file-4.c][function-8][ln:532]
[2019-04-04 23:27:03,171][INFO] any info message - [id:10][instance:2] - [COMP-6][file-12.c][function-10][ln:109]
[2019-04-04 23:27:04,673][INFO] any info message - [id:10][instance:6] - [COMP-10][file-7.c][function-2][ln:706]
[2019-04-04 23:27:06,174][INFO] any info message - [id:10][instance:5] - [COMP-1][file-8.c][function-8][ln:537]
[2019-04-04 23:27:07,674][INFO] any info message - [id:10][instance:2] - [COMP-12][file-4.c][function-5][ln:615]
[2019-04-04 23:27:08,776][WARNING] Here is a warning message - [id:10][instance:7] - [COMP-8][file-8.c][function-4][ln:305]
[2019-04-04 23:27:08,788][DEBUG] any debug message - [id:10][instance:1] - [COMP-8][file-1.c][function-10][ln:458]
[2019-04-04 23:27:09,175][INFO] any info message - [id:10][instance:4] - [COMP-11][file-7.c][function-8][ln:935]
[2019-04-04 23:27:10,677][INFO] any info message - [id:10][instance:5] - [COMP-2][file-1.c][function-6][ln:539]
[2019-04-04 23:27:12,178][INFO] any info message - [id:10][instance:4] - [COMP-12][file-10.c][function-12][ln:760]
[2019-04-04 23:27:13,679][INFO] any info message - [id:10][instance:5] - [COMP-12][file-2.c][function-1][ln:29]
[2019-04-04 23:27:15,180][INFO] any info message - [id:10][instance:4] - [COMP-9][file-4.c][function-6][ln:533]
[2019-04-04 23:27:16,680][INFO] any info message - [id:10][instance:3] - [COMP-10][file-7.c][function-5][ln:568]
[2019-04-04 23:27:18,181][INFO] any info message - [id:10][instance:3] - [COMP-8][file-10.c][function-10][ln:971]
[2019-04-04 23:27:19,683][INFO] any info message - [id:10][instance:7] - [COMP-13][file-2.c][function-5][ln:569]
[2019-04-04 23:27:21,183][INFO] any info message - [id:10][instance:6] - [COMP-3][file-4.c][function-12][ln:564]
[2019-04-04 23:27:22,685][INFO] any info message - [id:10][instance:2] - [COMP-9][file-10.c][function-8][ln:572]
[2019-04-04 23:27:23,789][DEBUG] any debug message - [id:10][instance:2] - [COMP-11][file-11.c][function-11][ln:118]
[2019-04-04 23:27:24,186][INFO] any info message - [id:10][instance:3] - [COMP-7][file-13.c][function-2][ln:760]
[2019-04-04 23:27:25,686][INFO] any info message - [id:10][instance:4] - [COMP-6][file-13.c][function-5][ln:900]
[2019-04-04 23:27:27,186][INFO] any info message - [id:10][instance:1] - [COMP-13][file-7.c][function-10][ln:948]
[2019-04-04 23:27:28,687][INFO] any info message - [id:10][instance:2] - [COMP-5][file-6.c][function-2][ln:544]
[2019-04-04 23:27:30,188][INFO] any info message - [id:10][instance:3] - [COMP-11][file-11.c][function-4][ln:375]
[2019-04-04 23:27:31,688][INFO] any info message - [id:10][instance:1] - [COMP-11][file-5.c][function-12][ln:497]
[2019-04-04 23:27:33,189][INFO] any info message - [id:10][instance:1] - [COMP-7][file-3.c][function-11][ln:287]
[2019-04-04 23:27:34,689][INFO] any info message - [id:10][instance:1] - [COMP-5][file-5.c][function-11][ln:837]
[2019-04-04 23:27:36,190][INFO] any info message - [id:10][instance:6] - [COMP-13][file-4.c][function-5][ln:781]
[2019-04-04 23:27:37,690][INFO] any info message - [id:10][instance:4] - [COMP-10][file-5.c][function-12][ln:358]
[2019-04-04 23:27:38,771][ERROR] It is an error message - [id:10][instance:4] - [COMP-2][file-3.c][function-8][ln:122]
[2019-04-04 23:27:38,776][WARNING] Here is a warning message - [id:10][instance:3] - [COMP-13][file-8.c][function-3][ln:749]
[2019-04-04 23:27:38,790][DEBUG] any debug message - [id:10][instance:1] - [COMP-12][file-13.c][function-12][ln:876]
[2019-04-04 23:27:39,190][INFO] any info message - [id:10][instance:6] - [COMP-9][file-5.c][function-9][ln:859]
[2019-04-04 23:27:40,691][INFO] any info message - [id:10][instance:3] - [COMP-12][file-6.c][function-2][ln:25]
[2019-04-04 23:27:42,192][INFO] any info message - [id:10][instance:4] - [COMP-9][file-3.c][function-4][ln:102]
[2019-04-04 23:27:43,692][INFO] any info message - [id:10][instance:6] - [COMP-12][file-9.c][function-3][ln:284]
[2019-04-04 23:27:45,192][INFO] any info message - [id:10][instance:4] - [COMP-4][file-9.c][function-5][ln:389]
[2019-04-04 23:27:46,692][INFO] any info message - [id:10][instance:7] - [COMP-4][file-1.c][function-11][ln:676]
[2019-04-04 23:27:48,193][INFO] any info message - [id:10][instance:3] - [COMP-9][file-5.c][function-8][ln:981]
[2019-04-04 23:27:49,693][INFO] any info message - [id:10][instance:3] - [COMP-7][file-1.c][function-13][ln:76]
[2019-04-04 23:27:51,194][INFO] any info message - [id:10][instance:6] - [COMP-13][file-2.c][function-4][ln:972]
[2019-04-04 23:27:52,694][INFO] any info message - [id:10][instance:3] - [COMP-7][file-12.c][function-12][ln:575]
[2019-04-04 23:27:53,791][DEBUG] any debug message - [id:10][instance:1] - [COMP-2][file-12.c][function-9][ln:355]
[2019-04-04 23:27:54,195][INFO] any info message - [id:10][instance:3] - [COMP-12][file-8.c][function-2][ln:785]
[2019-04-04 23:27:55,695][INFO] any info message - [id:10][instance:6] - [COMP-1][file-10.c][function-9][ln:32]
[2019-04-04 23:27:57,195][INFO] any info message - [id:10][instance:7] - [COMP-4][file-7.c][function-7][ln:411]
[2019-04-04 23:27:58,696][INFO] any info message - [id:10][instance:1] - [COMP-1][file-4.c][function-2][ln:827]
[2019-04-04 23:28:00,196][INFO] any info message - [id:10][instance:4] - [COMP-5][file-4.c][function-8][ln:600]
[2019-04-04 23:28:01,697][INFO] any info message - [id:10][instance:3] - [COMP-13][file-11.c][function-9][ln:977]
[2019-04-04 23:28:03,198][INFO] any info message - [id:10][instance:3] - [COMP-12][file-3.c][function-6][ln:909]
[2019-04-04 23:28:04,698][INFO] any info message - [id:10][instance:4] - [COMP-5][file-9.c][function-9][ln:56]
[2019-04-04 23:28:06,198][INFO] any info message - [id:10][instance:7] - [COMP-11][file-10.c][function-3][ln:584]
[2019-04-04 23:28:07,699][INFO] any info message - [id:10][instance:2] - [COMP-8][file-13.c][function-5][ln:852]
[2019-04-04 23:28:08,777][WARNING] Here is a warning message - [id:10][instance:2] - [COMP-8][file-3.c][function-3][ln:821]
[2019-04-04 23:28:08,791][DEBUG] any debug message - [id:10][instance:2] - [COMP-10][file-9.c][function-2][ln:552]
[2019-04-04 23:28:09,200][INFO] any info message - [id:10][instance:2] - [COMP-13][file-12.c][function-3][ln:493]
[2019-04-04 23:28:10,700][INFO] any info message - [id:10][instance:3] - [COMP-12][file-4.c][function-9][ln:211]
[2019-04-04 23:28:12,201][INFO] any info message - [id:10][instance:6] - [COMP-5][file-12.c][function-3][ln:566]
[2019-04-04 23:28:13,702][INFO] any info message - [id:10][instance:2] - [COMP-3][file-13.c][function-3][ln:704]
[2019-04-04 23:28:15,203][INFO] any info message - [id:10][instance:6] - [COMP-6][file-6.c][function-4][ln:679]
[2019-04-04 23:28:16,703][INFO] any info message - [id:10][instance:1] - [COMP-12][file-6.c][function-5][ln:539]
[2019-04-04 23:28:18,204][INFO] any info message - [id:10][instance:4] - [COMP-6][file-11.c][function-11][ln:1]
[2019-04-04 23:28:19,705][INFO] any info message - [id:10][instance:4] - [COMP-12][file-8.c][function-5][ln:526]
[2019-04-04 23:28:21,205][INFO] any info message - [id:10][instance:3] - [COMP-8][file-7.c][function-1][ln:953]
[2019-04-04 23:28:22,705][INFO] any info message - [id:10][instance:1] - [COMP-8][file-13.c][function-9][ln:343]
[2019-04-04 23:28:23,792][DEBUG] any debug message - [id:10][instance:4] - [COMP-10][file-2.c][function-11][ln:298]
[2019-04-04 23:28:24,206][INFO] any info message - [id:10][instance:6] - [COMP-1][file-13.c][function-1][ln:831]
[2019-04-04 23:28:25,707][INFO] any info message - [id:10][instance:1] - [COMP-6][file-4.c][function-2][ln:846]
[2019-04-04 23:28:27,206][INFO] any info message - [id:10][instance:1] - [COMP-1][file-6.c][function-7][ln:363]
[2019-04-04 23:28:28,706][INFO] any info message - [id:10][instance:7] - [COMP-13][file-4.c][function-13][ln:356]
[2019-04-04 23:28:30,206][INFO] any info message - [id:10][instance:6] - [COMP-2][file-12.c][function-12][ln:648]
[2019-04-04 23:28:31,706][INFO] any info message - [id:10][instance:1] - [COMP-6][file-3.c][function-8][ln:434]
[2019-04-04 23:28:33,207][INFO] any info message - [id:10][instance:3] - [COMP-6][file-1.c][function-4][ln:271]
[2019-04-04 23:28:34,707][INFO] any info message - [id:10][instance:2] - [COMP-3][file-4.c][function-9][ln:197]
[2019-04-04 23:28:36,212][INFO] any info message - [id:10][instance:5] - [COMP-9][file-10.c][function-7][ln:632]
[2019-04-04 23:28:37,712][INFO] any info message - [id:10][instance:5] - [COMP-2][file-3.c][function-5][ln:231]
[2019-04-04 23:28:38,770][CRITICAL] ATTENTION: This is a critical issue! - [id:10][instance:3] - [COMP-9][file-8.c][function-9][ln:647]
[2019-04-04 23:28:38,772][ERROR] It is an error message - [id:10][instance:5] - [COMP-1][file-3.c][function-2][ln:766]
[2019-04-04 23:28:38,778][WARNING] Here is a warning message - [id:10][instance:6] - [COMP-3][file-2.c][function-9][ln:393]
[2019-04-04 23:28:38,792][DEBUG] any debug message - [id:10][instance:1] - [COMP-7][file-7.c][function-3][ln:385]
[2019-04-04 23:28:39,213][INFO] any info message - [id:10][instance:5] - [COMP-11][file-11.c][function-12][ln:127]
[2019-04-04 23:28:40,713][INFO] any info message - [id:10][instance:7] - [COMP-3][file-11.c][function-7][ln:415]
[2019-04-04 23:28:42,214][INFO] any info message - [id:10][instance:7] - [COMP-5][file-4.c][function-13][ln:671]
[2019-04-04 23:28:43,714][INFO] any info message - [id:10][instance:1] - [COMP-1][file-9.c][function-6][ln:403]
[2019-04-04 23:28:45,214][INFO] any info message - [id:10][instance:7] - [COMP-9][file-1.c][function-2][ln:564]
[2019-04-04 23:28:46,714][INFO] any info message - [id:10][instance:2] - [COMP-12][file-2.c][function-3][ln:455]
[2019-04-04 23:28:48,214][INFO] any info message - [id:10][instance:1] - [COMP-4][file-7.c][function-6][ln:310]
[2019-04-04 23:28:49,714][INFO] any info message - [id:10][instance:6] - [COMP-10][file-8.c][function-2][ln:438]
[2019-04-04 23:28:51,214][INFO] any info message - [id:10][instance:1] - [COMP-12][file-12.c][function-2][ln:762]
[2019-04-04 23:28:52,714][INFO] any info message - [id:10][instance:6] - [COMP-3][file-13.c][function-1][ln:366]
[2019-04-04 23:28:53,793][DEBUG] any debug message - [id:10][instance:6] - [COMP-2][file-3.c][function-10][ln:557]
[2019-04-04 23:28:54,215][INFO] any info message - [id:10][instance:1] - [COMP-4][file-5.c][function-3][ln:883]
[2019-04-04 23:28:55,715][INFO] any info message - [id:10][instance:1] - [COMP-5][file-4.c][function-8][ln:572]
[2019-04-04 23:28:57,215][INFO] any info message - [id:10][instance:3] - [COMP-9][file-7.c][function-5][ln:352]
[2019-04-04 23:28:58,717][INFO] any info message - [id:10][instance:7] - [COMP-13][file-12.c][function-3][ln:190]
[2019-04-04 23:29:00,217][INFO] any info message - [id:10][instance:4] - [COMP-8][file-6.c][function-13][ln:937]
[2019-04-04 23:29:01,717][INFO] any info message - [id:10][instance:2] - [COMP-10][file-13.c][function-4][ln:688]
[2019-04-04 23:29:03,218][INFO] any info message - [id:10][instance:7] - [COMP-10][file-6.c][function-8][ln:364]
[2019-04-04 23:29:04,718][INFO] any info message - [id:10][instance:1] - [COMP-2][file-12.c][function-3][ln:462]
[2019-04-04 23:29:06,218][INFO] any info message - [id:10][instance:4] - [COMP-2][file-9.c][function-5][ln:733]
[2019-04-04 23:29:07,718][INFO] any info message - [id:10][instance:2] - [COMP-6][file-7.c][function-1][ln:252]
[2019-04-04 23:29:08,778][WARNING] Here is a warning message - [id:10][instance:6] - [COMP-12][file-10.c][function-5][ln:588]
[2019-04-04 23:29:08,793][DEBUG] any debug message - [id:10][instance:5] - [COMP-2][file-6.c][function-11][ln:788]
[2019-04-04 23:29:09,220][INFO] any info message - [id:10][instance:5] - [COMP-8][file-12.c][function-4][ln:765]
[2019-04-04 23:29:10,720][INFO] any info message - [id:10][instance:1] - [COMP-3][file-1.c][function-7][ln:428]
[2019-04-04 23:29:12,221][INFO] any info message - [id:10][instance:5] - [COMP-9][file-10.c][function-4][ln:773]
[2019-04-04 23:29:13,721][INFO] any info message - [id:10][instance:6] - [COMP-10][file-7.c][function-11][ln:463]
[2019-04-04 23:29:15,222][INFO] any info message - [id:10][instance:5] - [COMP-11][file-3.c][function-2][ln:819]
[2019-04-04 23:29:16,723][INFO] any info message - [id:10][instance:1] - [COMP-10][file-12.c][function-4][ln:591]
[2019-04-04 23:29:18,223][INFO] any info message - [id:10][instance:4] - [COMP-6][file-12.c][function-4][ln:208]
[2019-04-04 23:29:19,724][INFO] any info message - [id:10][instance:3] - [COMP-6][file-10.c][function-8][ln:148]
[2019-04-04 23:29:21,224][INFO] any info message - [id:10][instance:4] - [COMP-6][file-12.c][function-13][ln:337]
[2019-04-04 23:29:22,725][INFO] any info message - [id:10][instance:2] - [COMP-9][file-10.c][function-11][ln:796]
[2019-04-04 23:29:23,794][DEBUG] any debug message - [id:10][instance:3] - [COMP-5][file-3.c][function-3][ln:409]
[2019-04-04 23:29:24,226][INFO] any info message - [id:10][instance:3] - [COMP-1][file-2.c][function-12][ln:650]
[2019-04-04 23:29:25,727][INFO] any info message - [id:10][instance:7] - [COMP-2][file-5.c][function-3][ln:391]
[2019-04-04 23:29:27,227][INFO] any info message - [id:10][instance:7] - [COMP-13][file-9.c][function-6][ln:43]
[2019-04-04 23:29:28,728][INFO] any info message - [id:10][instance:4] - [COMP-5][file-6.c][function-1][ln:979]
[2019-04-04 23:29:30,228][INFO] any info message - [id:10][instance:7] - [COMP-13][file-5.c][function-8][ln:280]
[2019-04-04 23:29:31,729][INFO] any info message - [id:10][instance:4] - [COMP-3][file-6.c][function-13][ln:694]
[2019-04-04 23:29:33,229][INFO] any info message - [id:10][instance:3] - [COMP-3][file-10.c][function-2][ln:354]
[2019-04-04 23:29:34,729][INFO] any info message - [id:10][instance:3] - [COMP-9][file-3.c][function-2][ln:690]
[2019-04-04 23:29:36,230][INFO] any info message - [id:10][instance:3] - [COMP-4][file-4.c][function-12][ln:486]
[2019-04-04 23:29:37,730][INFO] any info message - [id:10][instance:5] - [COMP-12][file-10.c][function-11][ln:40]
[2019-04-04 23:29:38,772][ERROR] It is an error message - [id:10][instance:2] - [COMP-1][file-13.c][function-3][ln:415]
[2019-04-04 23:29:38,779][WARNING] Here is a warning message - [id:10][instance:7] - [COMP-2][file-9.c][function-11][ln:879]
[2019-04-04 23:29:38,794][DEBUG] any debug message - [id:10][instance:2] - [COMP-3][file-4.c][function-8][ln:81]
[2019-04-04 23:29:39,230][INFO] any info message - [id:10][instance:4] - [COMP-7][file-9.c][function-12][ln:117]
[2019-04-04 23:29:40,730][INFO] any info message - [id:10][instance:6] - [COMP-8][file-12.c][function-5][ln:437]
[2019-04-04 23:29:42,231][INFO] any info message - [id:10][instance:3] - [COMP-1][file-4.c][function-4][ln:702]
[2019-04-04 23:29:43,732][INFO] any info message - [id:10][instance:7] - [COMP-12][file-9.c][function-13][ln:275]
[2019-04-04 23:29:45,232][INFO] any info message - [id:10][instance:6] - [COMP-12][file-9.c][function-5][ln:980]
[2019-04-04 23:29:46,732][INFO] any info message - [id:10][instance:2] - [COMP-13][file-2.c][function-5][ln:407]
[2019-04-04 23:29:48,232][INFO] any info message - [id:10][instance:6] - [COMP-6][file-5.c][function-8][ln:736]
[2019-04-04 23:29:49,733][INFO] any info message - [id:10][instance:7] - [COMP-2][file-10.c][function-2][ln:445]
[2019-04-04 23:29:51,233][INFO] any info message - [id:10][instance:3] - [COMP-7][file-9.c][function-3][ln:343]
[2019-04-04 23:29:52,733][INFO] any info message - [id:10][instance:7] - [COMP-9][file-6.c][function-13][ln:639]
[2019-04-04 23:29:53,797][DEBUG] any debug message - [id:10][instance:6] - [COMP-2][file-2.c][function-4][ln:276]
[2019-04-04 23:29:54,233][INFO] any info message - [id:10][instance:7] - [COMP-11][file-7.c][function-5][ln:145]
[2019-04-04 23:29:55,734][INFO] any info message - [id:10][instance:4] - [COMP-10][file-7.c][function-9][ln:12]
[2019-04-04 23:29:57,234][INFO] any info message - [id:10][instance:3] - [COMP-1][file-4.c][function-2][ln:573]
[2019-04-04 23:29:58,735][INFO] any info message - [id:10][instance:4] - [COMP-10][file-7.c][function-10][ln:357]
[2019-04-04 23:30:00,236][INFO] any info message - [id:10][instance:4] - [COMP-9][file-5.c][function-11][ln:609]
[2019-04-04 23:30:01,739][INFO] any info message - [id:10][instance:6] - [COMP-6][file-9.c][function-12][ln:797]
[2019-04-04 23:30:03,240][INFO] any info message - [id:10][instance:3] - [COMP-10][file-13.c][function-3][ln:101]
[2019-04-04 23:30:04,740][INFO] any info message - [id:10][instance:7] - [COMP-2][file-4.c][function-7][ln:107]
[2019-04-04 23:30:06,241][INFO] any info message - [id:10][instance:3] - [COMP-8][file-9.c][function-3][ln:776]
[2019-04-04 23:30:07,742][INFO] any info message - [id:10][instance:1] - [COMP-11][file-8.c][function-13][ln:794]
[2019-04-04 23:30:08,780][WARNING] Here is a warning message - [id:10][instance:2] - [COMP-6][file-3.c][function-8][ln:456]
[2019-04-04 23:30:08,796][DEBUG] any debug message - [id:10][instance:4] - [COMP-6][file-3.c][function-2][ln:235]
[2019-04-04 23:30:09,242][INFO] any info message - [id:10][instance:5] - [COMP-10][file-12.c][function-8][ln:764]
[2019-04-04 23:30:10,742][INFO] any info message - [id:10][instance:1] - [COMP-10][file-11.c][function-7][ln:700]
[2019-04-04 23:30:12,243][INFO] any info message - [id:10][instance:1] - [COMP-9][file-10.c][function-11][ln:158]
[2019-04-04 23:30:13,743][INFO] any info message - [id:10][instance:1] - [COMP-10][file-12.c][function-5][ln:413]
[2019-04-04 23:30:15,244][INFO] any info message - [id:10][instance:2] - [COMP-6][file-10.c][function-12][ln:502]
[2019-04-04 23:30:16,746][INFO] any info message - [id:10][instance:5] - [COMP-13][file-1.c][function-4][ln:420]
[2019-04-04 23:30:18,247][INFO] any info message - [id:10][instance:2] - [COMP-6][file-1.c][function-9][ln:528]
[2019-04-04 23:30:19,747][INFO] any info message - [id:10][instance:6] - [COMP-3][file-1.c][function-4][ln:258]
[2019-04-04 23:30:21,247][INFO] any info message - [id:10][instance:2] - [COMP-11][file-11.c][function-9][ln:53]
[2019-04-04 23:30:22,748][INFO] any info message - [id:10][instance:7] - [COMP-9][file-1.c][function-7][ln:52]
[2019-04-04 23:30:23,797][DEBUG] any debug message - [id:10][instance:7] - [COMP-7][file-8.c][function-9][ln:272]
[2019-04-04 23:30:24,249][INFO] any info message - [id:10][instance:1] - [COMP-9][file-8.c][function-10][ln:924]
[2019-04-04 23:30:25,749][INFO] any info message - [id:10][instance:2] - [COMP-5][file-3.c][function-7][ln:577]
[2019-04-04 23:30:27,249][INFO] any info message - [id:10][instance:6] - [COMP-4][file-1.c][function-5][ln:41]
[2019-04-04 23:30:28,750][INFO] any info message - [id:10][instance:3] - [COMP-5][file-1.c][function-3][ln:724]
[2019-04-04 23:30:30,250][INFO] any info message - [id:10][instance:6] - [COMP-5][file-10.c][function-12][ln:185]
[2019-04-04 23:30:31,750][INFO] any info message - [id:10][instance:6] - [COMP-7][file-12.c][function-11][ln:104]
[2019-04-04 23:30:33,250][INFO] any info message - [id:10][instance:5] - [COMP-7][file-1.c][function-4][ln:779]
[2019-04-04 23:30:34,751][INFO] any info message - [id:10][instance:3] - [COMP-10][file-3.c][function-4][ln:417]
[2019-04-04 23:30:36,251][INFO] any info message - [id:10][instance:3] - [COMP-2][file-9.c][function-8][ln:137]
[2019-04-04 23:30:37,751][INFO] any info message - [id:10][instance:7] - [COMP-6][file-6.c][function-2][ln:221]
[2019-04-04 23:30:38,770][CRITICAL] ATTENTION: This is a critical issue! - [id:10][instance:2] - [COMP-1][file-12.c][function-6][ln:729]
[2019-04-04 23:30:38,773][ERROR] It is an error message - [id:10][instance:3] - [COMP-2][file-1.c][function-9][ln:883]
[2019-04-04 23:30:38,780][WARNING] Here is a warning message - [id:10][instance:5] - [COMP-9][file-3.c][function-5][ln:760]
[2019-04-04 23:30:38,798][DEBUG] any debug message - [id:10][instance:1] - [COMP-6][file-9.c][function-11][ln:304]
[2019-04-04 23:30:39,251][INFO] any info message - [id:10][instance:5] - [COMP-7][file-12.c][function-10][ln:477]
[2019-04-04 23:30:40,752][INFO] any info message - [id:10][instance:3] - [COMP-4][file-3.c][function-2][ln:976]
[2019-04-04 23:30:42,252][INFO] any info message - [id:10][instance:3] - [COMP-10][file-6.c][function-11][ln:101]
[2019-04-04 23:30:43,753][INFO] any info message - [id:10][instance:3] - [COMP-6][file-8.c][function-13][ln:813]
[2019-04-04 23:30:45,253][INFO] any info message - [id:10][instance:6] - [COMP-5][file-10.c][function-12][ln:316]
[2019-04-04 23:30:46,754][INFO] any info message - [id:10][instance:2] - [COMP-12][file-7.c][function-8][ln:778]
[2019-04-04 23:30:48,254][INFO] any info message - [id:10][instance:2] - [COMP-3][file-5.c][function-10][ln:457]
[2019-04-04 23:30:49,754][INFO] any info message - [id:10][instance:1] - [COMP-9][file-11.c][function-5][ln:286]
[2019-04-04 23:30:51,255][INFO] any info message - [id:10][instance:3] - [COMP-3][file-7.c][function-1][ln:22]
[2019-04-04 23:30:52,755][INFO] any info message - [id:10][instance:2] - [COMP-5][file-3.c][function-9][ln:725]
[2019-04-04 23:30:53,798][DEBUG] any debug message - [id:10][instance:1] - [COMP-2][file-8.c][function-3][ln:557]
[2019-04-04 23:30:54,255][INFO] any info message - [id:10][instance:2] - [COMP-10][file-11.c][function-5][ln:759]
[2019-04-04 23:30:55,756][INFO] any info message - [id:10][instance:3] - [COMP-13][file-13.c][function-12][ln:190]
[2019-04-04 23:30:57,256][INFO] any info message - [id:10][instance:3] - [COMP-9][file-11.c][function-1][ln:118]
[2019-04-04 23:30:58,757][INFO] any info message - [id:10][instance:3] - [COMP-4][file-9.c][function-4][ln:684]
[2019-04-04 23:31:00,258][INFO] any info message - [id:10][instance:5] - [COMP-7][file-11.c][function-13][ln:913]
[2019-04-04 23:31:01,759][INFO] any info message - [id:10][instance:3] - [COMP-9][file-12.c][function-2][ln:353]
[2019-04-04 23:31:03,260][INFO] any info message - [id:10][instance:4] - [COMP-7][file-12.c][function-2][ln:664]
[2019-04-04 23:31:04,760][INFO] any info message - [id:10][instance:1] - [COMP-10][file-3.c][function-1][ln:276]
[2019-04-04 23:31:06,260][INFO] any info message - [id:10][instance:1] - [COMP-13][file-2.c][function-2][ln:641]
[2019-04-04 23:31:07,761][INFO] any info message - [id:10][instance:6] - [COMP-8][file-4.c][function-10][ln:967]
[2019-04-04 23:31:08,780][WARNING] Here is a warning message - [id:10][instance:6] - [COMP-8][file-11.c][function-4][ln:334]
[2019-04-04 23:31:08,799][DEBUG] any debug message - [id:10][instance:2] - [COMP-13][file-4.c][function-1][ln:680]
[2019-04-04 23:31:09,261][INFO] any info message - [id:10][instance:2] - [COMP-7][file-5.c][function-12][ln:224]
[2019-04-04 23:31:10,762][INFO] any info message - [id:10][instance:1] - [COMP-11][file-10.c][function-6][ln:193]
[2019-04-04 23:31:12,263][INFO] any info message - [id:10][instance:6] - [COMP-13][file-13.c][function-10][ln:950]
[2019-04-04 23:31:13,769][INFO] any info message - [id:10][instance:6] - [COMP-8][file-13.c][function-12][ln:788]
[2019-04-04 23:31:15,269][INFO] any info message - [id:10][instance:7] - [COMP-12][file-8.c][function-12][ln:328]
[2019-04-04 23:31:16,769][INFO] any info message - [id:10][instance:5] - [COMP-11][file-12.c][function-8][ln:755]
[2019-04-04 23:31:18,270][INFO] any info message - [id:10][instance:1] - [COMP-6][file-13.c][function-12][ln:122]
[2019-04-04 23:31:19,770][INFO] any info message - [id:10][instance:7] - [COMP-3][file-11.c][function-4][ln:154]
[2019-04-04 23:31:21,270][INFO] any info message - [id:10][instance:4] - [COMP-2][file-7.c][function-4][ln:191]
[2019-04-04 23:31:22,771][INFO] any info message - [id:10][instance:3] - [COMP-12][file-11.c][function-3][ln:817]
[2019-04-04 23:31:23,799][DEBUG] any debug message - [id:10][instance:7] - [COMP-6][file-4.c][function-12][ln:556]
[2019-04-04 23:31:24,275][INFO] any info message - [id:10][instance:2] - [COMP-3][file-10.c][function-5][ln:456]
[2019-04-04 23:31:25,777][INFO] any info message - [id:10][instance:1] - [COMP-11][file-12.c][function-9][ln:707]
[2019-04-04 23:31:27,277][INFO] any info message - [id:10][instance:7] - [COMP-13][file-10.c][function-8][ln:565]
[2019-04-04 23:31:28,778][INFO] any info message - [id:10][instance:1] - [COMP-13][file-13.c][function-9][ln:179]
[2019-04-04 23:31:30,279][INFO] any info message - [id:10][instance:7] - [COMP-13][file-5.c][function-1][ln:206]
[2019-04-04 23:31:31,779][INFO] any info message - [id:10][instance:4] - [COMP-13][file-12.c][function-5][ln:124]
[2019-04-04 23:31:33,280][INFO] any info message - [id:10][instance:7] - [COMP-12][file-4.c][function-9][ln:246]
[2019-04-04 23:31:34,793][INFO] any info message - [id:10][instance:4] - [COMP-4][file-2.c][function-10][ln:453]
[2019-04-04 23:31:36,293][INFO] any info message - [id:10][instance:7] - [COMP-13][file-11.c][function-3][ln:856]
[2019-04-04 23:31:37,793][INFO] any info message - [id:10][instance:3] - [COMP-5][file-10.c][function-9][ln:493]
[2019-04-04 23:31:38,773][ERROR] It is an error message - [id:10][instance:1] - [COMP-4][file-6.c][function-12][ln:264]
[2019-04-04 23:31:38,780][WARNING] Here is a warning message - [id:10][instance:6] - [COMP-13][file-3.c][function-5][ln:621]
[2019-04-04 23:31:38,800][DEBUG] any debug message - [id:10][instance:4] - [COMP-6][file-11.c][function-9][ln:523]
[2019-04-04 23:31:39,294][INFO] any info message - [id:10][instance:6] - [COMP-11][file-13.c][function-8][ln:786]
[2019-04-04 23:31:40,794][INFO] any info message - [id:10][instance:6] - [COMP-13][file-13.c][function-4][ln:413]
[2019-04-04 23:31:42,294][INFO] any info message - [id:10][instance:1] - [COMP-2][file-4.c][function-7][ln:687]
[2019-04-04 23:31:43,795][INFO] any info message - [id:10][instance:1] - [COMP-10][file-2.c][function-5][ln:734]
[2019-04-04 23:31:45,299][INFO] any info message - [id:10][instance:7] - [COMP-11][file-12.c][function-1][ln:973]
[2019-04-04 23:31:46,799][INFO] any info message - [id:10][instance:1] - [COMP-1][file-12.c][function-12][ln:844]
[2019-04-04 23:31:48,300][INFO] any info message - [id:10][instance:3] - [COMP-7][file-3.c][function-4][ln:436]
[2019-04-04 23:31:49,801][INFO] any info message - [id:10][instance:3] - [COMP-4][file-6.c][function-8][ln:7]
[2019-04-04 23:31:51,301][INFO] any info message - [id:10][instance:5] - [COMP-1][file-4.c][function-8][ln:543]
[2019-04-04 23:31:52,802][INFO] any info message - [id:10][instance:3] - [COMP-8][file-3.c][function-9][ln:111]
[2019-04-04 23:31:53,801][DEBUG] any debug message - [id:10][instance:5] - [COMP-5][file-2.c][function-11][ln:770]
[2019-04-04 23:31:54,302][INFO] any info message - [id:10][instance:5] - [COMP-2][file-10.c][function-11][ln:282]
[2019-04-04 23:31:55,806][INFO] any info message - [id:10][instance:6] - [COMP-4][file-10.c][function-12][ln:205]
[2019-04-04 23:31:57,306][INFO] any info message - [id:10][instance:6] - [COMP-11][file-7.c][function-4][ln:278]
[2019-04-04 23:31:58,807][INFO] any info message - [id:10][instance:1] - [COMP-3][file-1.c][function-4][ln:455]
[2019-04-04 23:32:00,307][INFO] any info message - [id:10][instance:3] - [COMP-13][file-12.c][function-3][ln:947]
[2019-04-04 23:32:01,807][INFO] any info message - [id:10][instance:5] - [COMP-5][file-7.c][function-13][ln:792]
[2019-04-04 23:32:03,308][INFO] any info message - [id:10][instance:5] - [COMP-10][file-9.c][function-3][ln:452]
[2019-04-04 23:32:04,809][INFO] any info message - [id:10][instance:5] - [COMP-4][file-4.c][function-3][ln:311]
[2019-04-04 23:32:06,311][INFO] any info message - [id:10][instance:5] - [COMP-1][file-10.c][function-13][ln:961]
[2019-04-04 23:32:07,812][INFO] any info message - [id:10][instance:4] - [COMP-9][file-6.c][function-8][ln:804]
[2019-04-04 23:32:08,781][WARNING] Here is a warning message - [id:10][instance:1] - [COMP-5][file-2.c][function-6][ln:316]
[2019-04-04 23:32:08,801][DEBUG] any debug message - [id:10][instance:3] - [COMP-2][file-5.c][function-5][ln:469]
[2019-04-04 23:32:09,312][INFO] any info message - [id:10][instance:6] - [COMP-11][file-4.c][function-2][ln:912]
[2019-04-04 23:32:10,813][INFO] any info message - [id:10][instance:1] - [COMP-7][file-3.c][function-12][ln:791]
[2019-04-04 23:32:12,313][INFO] any info message - [id:10][instance:3] - [COMP-8][file-13.c][function-7][ln:65]
[2019-04-04 23:32:13,814][INFO] any info message - [id:10][instance:5] - [COMP-2][file-12.c][function-10][ln:624]
[2019-04-04 23:32:15,314][INFO] any info message - [id:10][instance:6] - [COMP-13][file-11.c][function-3][ln:471]
[2019-04-04 23:32:16,814][INFO] any info message - [id:10][instance:6] - [COMP-5][file-9.c][function-2][ln:950]
[2019-04-04 23:32:18,315][INFO] any info message - [id:10][instance:5] - [COMP-10][file-10.c][function-7][ln:293]
[2019-04-04 23:32:19,816][INFO] any info message - [id:10][instance:3] - [COMP-2][file-7.c][function-7][ln:789]
[2019-04-04 23:32:21,316][INFO] any info message - [id:10][instance:2] - [COMP-1][file-5.c][function-2][ln:656]
[2019-04-04 23:32:22,816][INFO] any info message - [id:10][instance:6] - [COMP-11][file-9.c][function-3][ln:823]
[2019-04-04 23:32:23,802][DEBUG] any debug message - [id:10][instance:2] - [COMP-5][file-3.c][function-11][ln:646]
[2019-04-04 23:32:24,317][INFO] any info message - [id:10][instance:4] - [COMP-3][file-5.c][function-6][ln:40]
[2019-04-04 23:32:25,817][INFO] any info message - [id:10][instance:2] - [COMP-9][file-4.c][function-5][ln:712]
[2019-04-04 23:32:27,319][INFO] any info message - [id:10][instance:6] - [COMP-4][file-3.c][function-11][ln:665]
[2019-04-04 23:32:28,819][INFO] any info message - [id:10][instance:7] - [COMP-4][file-6.c][function-11][ln:120]
[2019-04-04 23:32:30,319][INFO] any info message - [id:10][instance:3] - [COMP-10][file-6.c][function-5][ln:705]
[2019-04-04 23:32:31,821][INFO] any info message - [id:10][instance:4] - [COMP-12][file-12.c][function-6][ln:242]
[2019-04-04 23:32:33,322][INFO] any info message - [id:10][instance:7] - [COMP-9][file-11.c][function-12][ln:793]
[2019-04-04 23:32:34,822][INFO] any info message - [id:10][instance:7] - [COMP-3][file-9.c][function-9][ln:368]
[2019-04-04 23:32:36,322][INFO] any info message - [id:10][instance:4] - [COMP-6][file-1.c][function-1][ln:695]
[2019-04-04 23:32:37,830][INFO] any info message - [id:10][instance:7] - [COMP-5][file-10.c][function-5][ln:315]
[2019-04-04 23:32:38,770][CRITICAL] ATTENTION: This is a critical issue! - [id:10][instance:2] - [COMP-6][file-12.c][function-4][ln:495]
[2019-04-04 23:32:38,774][ERROR] It is an error message - [id:10][instance:3] - [COMP-6][file-4.c][function-6][ln:180]
[2019-04-04 23:32:38,781][WARNING] Here is a warning message - [id:10][instance:3] - [COMP-9][file-6.c][function-9][ln:884]
[2019-04-04 23:32:38,803][DEBUG] any debug message - [id:10][instance:5] - [COMP-11][file-8.c][function-8][ln:722]
[2019-04-04 23:32:39,332][INFO] any info message - [id:10][instance:6] - [COMP-13][file-13.c][function-6][ln:69]
[2019-04-04 23:32:40,833][INFO] any info message - [id:10][instance:5] - [COMP-6][file-2.c][function-6][ln:808]
[2019-04-04 23:32:42,333][INFO] any info message - [id:10][instance:4] - [COMP-10][file-3.c][function-11][ln:922]
[2019-04-04 23:32:43,834][INFO] any info message - [id:10][instance:3] - [COMP-10][file-9.c][function-10][ln:52]
[2019-04-04 23:32:45,335][INFO] any info message - [id:10][instance:6] - [COMP-12][file-3.c][function-2][ln:96]
[2019-04-04 23:32:46,835][INFO] any info message - [id:10][instance:2] - [COMP-2][file-11.c][function-8][ln:364]
[2019-04-04 23:32:48,340][INFO] any info message - [id:10][instance:1] - [COMP-6][file-4.c][function-2][ln:579]
[2019-04-04 23:32:49,841][INFO] any info message - [id:10][instance:7] - [COMP-5][file-6.c][function-11][ln:96]
[2019-04-04 23:32:51,341][INFO] any info message - [id:10][instance:5] - [COMP-4][file-1.c][function-13][ln:736]
[2019-04-04 23:32:52,843][INFO] any info message - [id:10][instance:7] - [COMP-8][file-1.c][function-1][ln:666]
[2019-04-04 23:32:53,803][DEBUG] any debug message - [id:10][instance:7] - [COMP-1][file-2.c][function-1][ln:126]
[2019-04-04 23:32:54,343][INFO] any info message - [id:10][instance:5] - [COMP-9][file-9.c][function-7][ln:899]
[2019-04-04 23:32:55,843][INFO] any info message - [id:10][instance:6] - [COMP-10][file-2.c][function-13][ln:634]
[2019-04-04 23:32:57,344][INFO] any info message - [id:10][instance:5] - [COMP-7][file-2.c][function-11][ln:343]
[2019-04-04 23:32:58,845][INFO] any info message - [id:10][instance:5] - [COMP-4][file-6.c][function-12][ln:970]
[2019-04-04 23:33:00,346][INFO] any info message - [id:10][instance:2] - [COMP-10][file-11.c][function-10][ln:680]
[2019-04-04 23:33:01,846][INFO] any info message - [id:10][instance:2] - [COMP-10][file-3.c][function-13][ln:240]
[2019-04-04 23:33:03,347][INFO] any info message - [id:10][instance:7] - [COMP-2][file-7.c][function-3][ln:41]
[2019-04-04 23:33:04,847][INFO] any info message - [id:10][instance:1] - [COMP-12][file-5.c][function-7][ln:549]
[2019-04-04 23:33:06,347][INFO] any info message - [id:10][instance:3] - [COMP-1][file-4.c][function-11][ln:371]
[2019-04-04 23:33:07,848][INFO] any info message - [id:10][instance:2] - [COMP-13][file-3.c][function-1][ln:220]
[2019-04-04 23:33:08,782][WARNING] Here is a warning message - [id:10][instance:2] - [COMP-4][file-13.c][function-3][ln:406]
[2019-04-04 23:33:08,804][DEBUG] any debug message - [id:10][instance:7] - [COMP-6][file-13.c][function-4][ln:692]
[2019-04-04 23:33:09,353][INFO] any info message - [id:10][instance:3] - [COMP-6][file-13.c][function-1][ln:637]
[2019-04-04 23:33:10,854][INFO] any info message - [id:10][instance:2] - [COMP-2][file-5.c][function-6][ln:184]
[2019-04-04 23:33:12,354][INFO] any info message - [id:10][instance:6] - [COMP-9][file-2.c][function-3][ln:999]
[2019-04-04 23:33:13,855][INFO] any info message - [id:10][instance:5] - [COMP-7][file-6.c][function-3][ln:278]
[2019-04-04 23:33:15,355][INFO] any info message - [id:10][instance:7] - [COMP-12][file-4.c][function-11][ln:938]
[2019-04-04 23:33:16,856][INFO] any info message - [id:10][instance:6] - [COMP-12][file-10.c][function-3][ln:477]
[2019-04-04 23:33:18,357][INFO] any info message - [id:10][instance:3] - [COMP-6][file-5.c][function-4][ln:789]
[2019-04-04 23:33:19,857][INFO] any info message - [id:10][instance:5] - [COMP-3][file-9.c][function-9][ln:307]
[2019-04-04 23:33:21,358][INFO] any info message - [id:10][instance:6] - [COMP-6][file-4.c][function-9][ln:607]
[2019-04-04 23:33:22,858][INFO] any info message - [id:10][instance:3] - [COMP-3][file-11.c][function-11][ln:659]
[2019-04-04 23:33:23,805][DEBUG] any debug message - [id:10][instance:4] - [COMP-4][file-2.c][function-6][ln:962]
[2019-04-04 23:33:24,360][INFO] any info message - [id:10][instance:6] - [COMP-9][file-7.c][function-13][ln:631]
[2019-04-04 23:33:25,860][INFO] any info message - [id:10][instance:3] - [COMP-9][file-13.c][function-4][ln:526]
[2019-04-04 23:33:27,361][INFO] any info message - [id:10][instance:5] - [COMP-1][file-3.c][function-4][ln:83]
[2019-04-04 23:33:28,861][INFO] any info message - [id:10][instance:5] - [COMP-8][file-12.c][function-2][ln:985]
[2019-04-04 23:33:30,362][INFO] any info message - [id:10][instance:1] - [COMP-5][file-10.c][function-13][ln:129]
[2019-04-04 23:33:31,862][INFO] any info message - [id:10][instance:6] - [COMP-3][file-6.c][function-10][ln:310]
[2019-04-04 23:33:33,363][INFO] any info message - [id:10][instance:7] - [COMP-7][file-4.c][function-5][ln:912]
[2019-04-04 23:33:34,863][INFO] any info message - [id:10][instance:4] - [COMP-8][file-1.c][function-1][ln:171]
[2019-04-04 23:33:36,363][INFO] any info message - [id:10][instance:7] - [COMP-5][file-2.c][function-10][ln:499]
[2019-04-04 23:33:37,864][INFO] any info message - [id:10][instance:6] - [COMP-5][file-9.c][function-13][ln:106]
[2019-04-04 23:33:38,774][ERROR] It is an error message - [id:10][instance:4] - [COMP-8][file-10.c][function-3][ln:752]
[2019-04-04 23:33:38,782][WARNING] Here is a warning message - [id:10][instance:1] - [COMP-3][file-12.c][function-9][ln:413]
[2019-04-04 23:33:38,806][DEBUG] any debug message - [id:10][instance:6] - [COMP-1][file-12.c][function-9][ln:163]
[2019-04-04 23:33:39,365][INFO] any info message - [id:10][instance:2] - [COMP-10][file-6.c][function-13][ln:917]
[2019-04-04 23:33:40,865][INFO] any info message - [id:10][instance:7] - [COMP-13][file-11.c][function-13][ln:807]
[2019-04-04 23:33:42,366][INFO] any info message - [id:10][instance:4] - [COMP-6][file-8.c][function-5][ln:625]
[2019-04-04 23:33:43,866][INFO] any info message - [id:10][instance:7] - [COMP-9][file-5.c][function-7][ln:504]
[2019-04-04 23:33:45,367][INFO] any info message - [id:10][instance:3] - [COMP-4][file-4.c][function-5][ln:725]
[2019-04-04 23:33:46,868][INFO] any info message - [id:10][instance:6] - [COMP-1][file-2.c][function-4][ln:735]
[2019-04-04 23:33:48,369][INFO] any info message - [id:10][instance:2] - [COMP-11][file-10.c][function-9][ln:507]
[2019-04-04 23:33:49,869][INFO] any info message - [id:10][instance:2] - [COMP-1][file-3.c][function-1][ln:136]
[2019-04-04 23:33:51,370][INFO] any info message - [id:10][instance:4] - [COMP-10][file-7.c][function-8][ln:134]
[2019-04-04 23:33:52,870][INFO] any info message - [id:10][instance:5] - [COMP-11][file-4.c][function-8][ln:406]
[2019-04-04 23:33:53,807][DEBUG] any debug message - [id:10][instance:6] - [COMP-9][file-1.c][function-1][ln:23]
[2019-04-04 23:33:54,372][INFO] any info message - [id:10][instance:6] - [COMP-6][file-9.c][function-3][ln:396]
[2019-04-04 23:33:55,872][INFO] any info message - [id:10][instance:3] - [COMP-3][file-6.c][function-9][ln:809]
[2019-04-04 23:33:57,373][INFO] any info message - [id:10][instance:1] - [COMP-6][file-8.c][function-9][ln:498]
[2019-04-04 23:33:58,873][INFO] any info message - [id:10][instance:3] - [COMP-13][file-1.c][function-5][ln:385]
[2019-04-04 23:34:00,374][INFO] any info message - [id:10][instance:2] - [COMP-9][file-11.c][function-13][ln:106]
[2019-04-04 23:34:01,874][INFO] any info message - [id:10][instance:4] - [COMP-10][file-13.c][function-3][ln:662]
[2019-04-04 23:34:03,376][INFO] any info message - [id:10][instance:2] - [COMP-5][file-8.c][function-2][ln:642]
[2019-04-04 23:34:04,876][INFO] any info message - [id:10][instance:7] - [COMP-6][file-7.c][function-6][ln:953]
[2019-04-04 23:34:06,377][INFO] any info message - [id:10][instance:5] - [COMP-3][file-6.c][function-10][ln:440]
[2019-04-04 23:34:07,878][INFO] any info message - [id:10][instance:4] - [COMP-5][file-4.c][function-12][ln:528]
[2019-04-04 23:34:08,784][WARNING] Here is a warning message - [id:10][instance:6] - [COMP-11][file-8.c][function-4][ln:376]
[2019-04-04 23:34:08,809][DEBUG] any debug message - [id:10][instance:5] - [COMP-5][file-9.c][function-1][ln:722]
[2019-04-04 23:34:09,380][INFO] any info message - [id:10][instance:4] - [COMP-2][file-13.c][function-3][ln:994]
[2019-04-04 23:34:10,880][INFO] any info message - [id:10][instance:7] - [COMP-13][file-6.c][function-8][ln:274]
[2019-04-04 23:34:12,381][INFO] any info message - [id:10][instance:4] - [COMP-11][file-13.c][function-6][ln:404]
[2019-04-04 23:34:13,883][INFO] any info message - [id:10][instance:6] - [COMP-10][file-6.c][function-2][ln:958]
[2019-04-04 23:34:15,384][INFO] any info message - [id:10][instance:2] - [COMP-11][file-13.c][function-12][ln:835]
[2019-04-04 23:34:16,885][INFO] any info message - [id:10][instance:7] - [COMP-13][file-1.c][function-8][ln:91]
[2019-04-04 23:34:18,387][INFO] any info message - [id:10][instance:1] - [COMP-3][file-5.c][function-5][ln:357]
[2019-04-04 23:34:19,887][INFO] any info message - [id:10][instance:7] - [COMP-12][file-13.c][function-4][ln:452]
[2019-04-04 23:34:21,387][INFO] any info message - [id:10][instance:7] - [COMP-11][file-3.c][function-9][ln:442]
[2019-04-04 23:34:22,888][INFO] any info message - [id:10][instance:6] - [COMP-9][file-9.c][function-4][ln:544]
[2019-04-04 23:34:23,809][DEBUG] any debug message - [id:10][instance:3] - [COMP-10][file-1.c][function-11][ln:457]
[2019-04-04 23:34:24,389][INFO] any info message - [id:10][instance:2] - [COMP-9][file-6.c][function-12][ln:749]
[2019-04-04 23:34:25,888][INFO] any info message - [id:10][instance:5] - [COMP-4][file-6.c][function-10][ln:25]
[2019-04-04 23:34:27,388][INFO] any info message - [id:10][instance:2] - [COMP-13][file-10.c][function-12][ln:332]
[2019-04-04 23:34:28,890][INFO] any info message - [id:10][instance:5] - [COMP-3][file-1.c][function-12][ln:590]
[2019-04-04 23:34:30,392][INFO] any info message - [id:10][instance:2] - [COMP-9][file-13.c][function-1][ln:573]
[2019-04-04 23:34:31,891][INFO] any info message - [id:10][instance:5] - [COMP-5][file-12.c][function-8][ln:923]
[2019-04-04 23:34:33,393][INFO] any info message - [id:10][instance:4] - [COMP-1][file-10.c][function-1][ln:514]
[2019-04-04 23:34:34,893][INFO] any info message - [id:10][instance:5] - [COMP-5][file-7.c][function-7][ln:862]
[2019-04-04 23:34:36,393][INFO] any info message - [id:10][instance:7] - [COMP-1][file-3.c][function-5][ln:226]
[2019-04-04 23:34:37,895][INFO] any info message - [id:10][instance:2] - [COMP-6][file-4.c][function-11][ln:570]
[2019-04-04 23:34:38,772][CRITICAL] ATTENTION: This is a critical issue! - [id:10][instance:5] - [COMP-3][file-9.c][function-5][ln:684]
[2019-04-04 23:34:38,776][ERROR] It is an error message - [id:10][instance:3] - [COMP-2][file-1.c][function-1][ln:390]
[2019-04-04 23:34:38,785][WARNING] Here is a warning message - [id:10][instance:5] - [COMP-8][file-7.c][function-12][ln:433]
[2019-04-04 23:34:38,811][DEBUG] any debug message - [id:10][instance:4] - [COMP-8][file-5.c][function-5][ln:134]
[2019-04-04 23:34:39,397][INFO] any info message - [id:10][instance:2] - [COMP-9][file-10.c][function-13][ln:597]
[2019-04-04 23:34:40,898][INFO] any info message - [id:10][instance:6] - [COMP-5][file-2.c][function-4][ln:558]
[2019-04-04 23:34:42,399][INFO] any info message - [id:10][instance:1] - [COMP-2][file-1.c][function-4][ln:518]
[2019-04-04 23:34:43,901][INFO] any info message - [id:10][instance:3] - [COMP-2][file-12.c][function-3][ln:34]
[2019-04-04 23:34:45,402][INFO] any info message - [id:10][instance:6] - [COMP-3][file-3.c][function-9][ln:832]
[2019-04-04 23:34:46,902][INFO] any info message - [id:10][instance:2] - [COMP-2][file-7.c][function-4][ln:380]
[2019-04-04 23:34:48,402][INFO] any info message - [id:10][instance:7] - [COMP-13][file-2.c][function-2][ln:757]
[2019-04-04 23:34:49,904][INFO] any info message - [id:10][instance:1] - [COMP-5][file-4.c][function-12][ln:534]
[2019-04-04 23:34:51,404][INFO] any info message - [id:10][instance:3] - [COMP-7][file-2.c][function-1][ln:700]
[2019-04-04 23:34:52,905][INFO] any info message - [id:10][instance:1] - [COMP-6][file-5.c][function-9][ln:56]
[2019-04-04 23:34:53,811][DEBUG] any debug message - [id:10][instance:7] - [COMP-11][file-3.c][function-2][ln:343]
[2019-04-04 23:34:54,405][INFO] any info message - [id:10][instance:5] - [COMP-12][file-2.c][function-11][ln:634]
[2019-04-04 23:34:55,906][INFO] any info message - [id:10][instance:5] - [COMP-5][file-8.c][function-13][ln:555]
[2019-04-04 23:34:57,407][INFO] any info message - [id:10][instance:7] - [COMP-9][file-7.c][function-12][ln:114]
[2019-04-04 23:34:58,908][INFO] any info message - [id:10][instance:2] - [COMP-6][file-4.c][function-4][ln:853]
[2019-04-04 23:35:00,409][INFO] any info message - [id:10][instance:7] - [COMP-9][file-7.c][function-4][ln:565]
[2019-04-04 23:35:01,911][INFO] any info message - [id:10][instance:2] - [COMP-1][file-1.c][function-1][ln:270]
[2019-04-04 23:35:03,411][INFO] any info message - [id:10][instance:6] - [COMP-1][file-11.c][function-12][ln:475]
[2019-04-04 23:35:04,911][INFO] any info message - [id:10][instance:5] - [COMP-2][file-9.c][function-11][ln:807]
[2019-04-04 23:35:06,412][INFO] any info message - [id:10][instance:2] - [COMP-9][file-5.c][function-1][ln:168]
[2019-04-04 23:35:07,914][INFO] any info message - [id:10][instance:4] - [COMP-2][file-10.c][function-4][ln:622]
[2019-04-04 23:35:08,787][WARNING] Here is a warning message - [id:10][instance:5] - [COMP-12][file-11.c][function-6][ln:56]
[2019-04-04 23:35:08,811][DEBUG] any debug message - [id:10][instance:6] - [COMP-11][file-6.c][function-3][ln:700]
[2019-04-04 23:35:09,415][INFO] any info message - [id:10][instance:1] - [COMP-3][file-2.c][function-9][ln:490]
[2019-04-04 23:35:10,916][INFO] any info message - [id:10][instance:6] - [COMP-13][file-3.c][function-12][ln:735]
[2019-04-04 23:35:12,417][INFO] any info message - [id:10][instance:4] - [COMP-13][file-5.c][function-7][ln:60]
[2019-04-04 23:35:13,918][INFO] any info message - [id:10][instance:2] - [COMP-10][file-12.c][function-9][ln:335]
[2019-04-04 23:35:15,419][INFO] any info message - [id:10][instance:2] - [COMP-8][file-1.c][function-10][ln:414]
[2019-04-04 23:35:16,919][INFO] any info message - [id:10][instance:5] - [COMP-3][file-2.c][function-13][ln:672]
[2019-04-04 23:35:18,421][INFO] any info message - [id:10][instance:4] - [COMP-12][file-7.c][function-3][ln:372]
[2019-04-04 23:35:19,921][INFO] any info message - [id:10][instance:2] - [COMP-12][file-9.c][function-13][ln:155]
[2019-04-04 23:35:21,421][INFO] any info message - [id:10][instance:5] - [COMP-2][file-11.c][function-3][ln:337]
[2019-04-04 23:35:22,921][INFO] any info message - [id:10][instance:4] - [COMP-1][file-9.c][function-7][ln:909]
[2019-04-04 23:35:23,812][DEBUG] any debug message - [id:10][instance:2] - [COMP-5][file-4.c][function-8][ln:507]
[2019-04-04 23:35:24,421][INFO] any info message - [id:10][instance:3] - [COMP-13][file-3.c][function-11][ln:82]
[2019-04-04 23:35:25,923][INFO] any info message - [id:10][instance:2] - [COMP-7][file-3.c][function-1][ln:132]
[2019-04-04 23:35:27,422][INFO] any info message - [id:10][instance:5] - [COMP-1][file-3.c][function-7][ln:432]
[2019-04-04 23:35:28,923][INFO] any info message - [id:10][instance:1] - [COMP-10][file-9.c][function-1][ln:171]
[2019-04-04 23:35:30,424][INFO] any info message - [id:10][instance:1] - [COMP-1][file-13.c][function-3][ln:93]
[2019-04-04 23:35:31,925][INFO] any info message - [id:10][instance:2] - [COMP-11][file-8.c][function-1][ln:712]
[2019-04-04 23:35:33,426][INFO] any info message - [id:10][instance:7] - [COMP-3][file-6.c][function-4][ln:593]
[2019-04-04 23:35:34,927][INFO] any info message - [id:10][instance:4] - [COMP-3][file-13.c][function-8][ln:426]
[2019-04-04 23:35:36,427][INFO] any info message - [id:10][instance:7] - [COMP-13][file-9.c][function-5][ln:446]
[2019-04-04 23:35:37,928][INFO] any info message - [id:10][instance:2] - [COMP-1][file-12.c][function-13][ln:458]
[2019-04-04 23:35:38,777][ERROR] It is an error message - [id:10][instance:1] - [COMP-7][file-9.c][function-6][ln:805]
[2019-04-04 23:35:38,788][WARNING] Here is a warning message - [id:10][instance:5] - [COMP-11][file-3.c][function-5][ln:634]
[2019-04-04 23:35:38,813][DEBUG] any debug message - [id:10][instance:3] - [COMP-4][file-2.c][function-4][ln:317]
[2019-04-04 23:35:39,428][INFO] any info message - [id:10][instance:4] - [COMP-11][file-2.c][function-8][ln:186]
[2019-04-04 23:35:40,930][INFO] any info message - [id:10][instance:6] - [COMP-7][file-11.c][function-5][ln:950]
[2019-04-04 23:35:42,430][INFO] any info message - [id:10][instance:3] - [COMP-8][file-12.c][function-10][ln:144]
[2019-04-04 23:35:43,931][INFO] any info message - [id:10][instance:5] - [COMP-6][file-11.c][function-10][ln:316]
[2019-04-04 23:35:45,430][INFO] any info message - [id:10][instance:2] - [COMP-11][file-7.c][function-1][ln:892]
[2019-04-04 23:35:46,931][INFO] any info message - [id:10][instance:3] - [COMP-1][file-6.c][function-13][ln:869]
[2019-04-04 23:35:48,432][INFO] any info message - [id:10][instance:5] - [COMP-4][file-12.c][function-1][ln:723]
[2019-04-04 23:35:49,932][INFO] any info message - [id:10][instance:6] - [COMP-1][file-12.c][function-7][ln:865]
[2019-04-04 23:35:51,433][INFO] any info message - [id:10][instance:7] - [COMP-12][file-12.c][function-5][ln:630]
[2019-04-04 23:35:52,932][INFO] any info message - [id:10][instance:3] - [COMP-4][file-4.c][function-10][ln:116]
[2019-04-04 23:35:53,813][DEBUG] any debug message - [id:10][instance:1] - [COMP-8][file-5.c][function-3][ln:686]
[2019-04-04 23:35:54,433][INFO] any info message - [id:10][instance:5] - [COMP-11][file-10.c][function-8][ln:669]
[2019-04-04 23:35:55,934][INFO] any info message - [id:10][instance:2] - [COMP-7][file-11.c][function-12][ln:891]
[2019-04-04 23:35:57,435][INFO] any info message - [id:10][instance:3] - [COMP-2][file-9.c][function-7][ln:110]
[2019-04-04 23:35:58,935][INFO] any info message - [id:10][instance:5] - [COMP-11][file-1.c][function-1][ln:696]
[2019-04-04 23:36:00,435][INFO] any info message - [id:10][instance:3] - [COMP-8][file-3.c][function-1][ln:380]
[2019-04-04 23:36:01,936][INFO] any info message - [id:10][instance:1] - [COMP-1][file-13.c][function-10][ln:510]
[2019-04-04 23:36:03,436][INFO] any info message - [id:10][instance:4] - [COMP-1][file-6.c][function-11][ln:10]
[2019-04-04 23:36:04,938][INFO] any info message - [id:10][instance:4] - [COMP-8][file-7.c][function-4][ln:991]
[2019-04-04 23:36:06,438][INFO] any info message - [id:10][instance:3] - [COMP-2][file-7.c][function-10][ln:247]
[2019-04-04 23:36:07,939][INFO] any info message - [id:10][instance:7] - [COMP-6][file-7.c][function-5][ln:481]
[2019-04-04 23:36:08,788][WARNING] Here is a warning message - [id:10][instance:1] - [COMP-3][file-6.c][function-3][ln:645]
[2019-04-04 23:36:08,814][DEBUG] any debug message - [id:10][instance:3] - [COMP-5][file-11.c][function-4][ln:549]
[2019-04-04 23:36:09,439][INFO] any info message - [id:10][instance:2] - [COMP-11][file-5.c][function-4][ln:958]
[2019-04-04 23:36:10,939][INFO] any info message - [id:10][instance:2] - [COMP-10][file-7.c][function-12][ln:99]
[2019-04-04 23:36:12,439][INFO] any info message - [id:10][instance:1] - [COMP-13][file-8.c][function-3][ln:968]
[2019-04-04 23:36:13,939][INFO] any info message - [id:10][instance:3] - [COMP-3][file-2.c][function-11][ln:353]
[2019-04-04 23:36:15,439][INFO] any info message - [id:10][instance:4] - [COMP-11][file-3.c][function-11][ln:287]
[2019-04-04 23:36:16,940][INFO] any info message - [id:10][instance:2] - [COMP-1][file-5.c][function-12][ln:741]
[2019-04-04 23:36:18,441][INFO] any info message - [id:10][instance:5] - [COMP-12][file-10.c][function-13][ln:986]
[2019-04-04 23:36:19,942][INFO] any info message - [id:10][instance:7] - [COMP-9][file-7.c][function-3][ln:421]
[2019-04-04 23:36:21,442][INFO] any info message - [id:10][instance:1] - [COMP-9][file-3.c][function-6][ln:524]
[2019-04-04 23:36:22,942][INFO] any info message - [id:10][instance:3] - [COMP-3][file-6.c][function-8][ln:409]
[2019-04-04 23:36:23,815][DEBUG] any debug message - [id:10][instance:5] - [COMP-9][file-12.c][function-2][ln:141]
[2019-04-04 23:36:24,442][INFO] any info message - [id:10][instance:1] - [COMP-13][file-12.c][function-9][ln:112]
[2019-04-04 23:36:25,943][INFO] any info message - [id:10][instance:1] - [COMP-12][file-7.c][function-5][ln:317]
[2019-04-04 23:36:27,443][INFO] any info message - [id:10][instance:7] - [COMP-8][file-1.c][function-10][ln:192]
[2019-04-04 23:36:28,944][INFO] any info message - [id:10][instance:5] - [COMP-5][file-9.c][function-11][ln:482]
[2019-04-04 23:36:30,445][INFO] any info message - [id:10][instance:1] - [COMP-1][file-6.c][function-8][ln:719]
[2019-04-04 23:36:31,945][INFO] any info message - [id:10][instance:7] - [COMP-1][file-3.c][function-2][ln:920]
[2019-04-04 23:36:33,447][INFO] any info message - [id:10][instance:6] - [COMP-3][file-10.c][function-9][ln:165]
[2019-04-04 23:36:34,946][INFO] any info message - [id:10][instance:2] - [COMP-12][file-9.c][function-11][ln:203]
[2019-04-04 23:36:36,447][INFO] any info message - [id:10][instance:2] - [COMP-4][file-4.c][function-10][ln:483]
[2019-04-04 23:36:37,948][INFO] any info message - [id:10][instance:2] - [COMP-3][file-6.c][function-7][ln:533]
[2019-04-04 23:36:38,773][CRITICAL] ATTENTION: This is a critical issue! - [id:10][instance:7] - [COMP-3][file-7.c][function-12][ln:638]
[2019-04-04 23:36:38,779][ERROR] It is an error message - [id:10][instance:5] - [COMP-7][file-8.c][function-8][ln:531]
[2019-04-04 23:36:38,790][WARNING] Here is a warning message - [id:10][instance:2] - [COMP-6][file-11.c][function-6][ln:709]
[2019-04-04 23:36:38,816][DEBUG] any debug message - [id:10][instance:6] - [COMP-13][file-5.c][function-9][ln:435]
[2019-04-04 23:36:39,449][INFO] any info message - [id:10][instance:3] - [COMP-7][file-5.c][function-9][ln:24]
[2019-04-04 23:36:40,950][INFO] any info message - [id:10][instance:7] - [COMP-3][file-6.c][function-5][ln:402]
[2019-04-04 23:36:42,451][INFO] any info message - [id:10][instance:4] - [COMP-13][file-3.c][function-9][ln:64]
[2019-04-04 23:36:43,952][INFO] any info message - [id:10][instance:4] - [COMP-8][file-3.c][function-5][ln:241]
[2019-04-04 23:36:45,454][INFO] any info message - [id:10][instance:1] - [COMP-6][file-6.c][function-4][ln:295]
[2019-04-04 23:36:46,954][INFO] any info message - [id:10][instance:3] - [COMP-9][file-2.c][function-5][ln:980]
[2019-04-04 23:36:48,456][INFO] any info message - [id:10][instance:6] - [COMP-3][file-6.c][function-1][ln:863]
[2019-04-04 23:36:49,959][INFO] any info message - [id:10][instance:1] - [COMP-2][file-8.c][function-12][ln:839]
[2019-04-04 23:36:51,461][INFO] any info message - [id:10][instance:6] - [COMP-1][file-10.c][function-2][ln:829]
[2019-04-04 23:36:52,961][INFO] any info message - [id:10][instance:7] - [COMP-1][file-1.c][function-3][ln:449]
[2019-04-04 23:36:53,816][DEBUG] any debug message - [id:10][instance:1] - [COMP-6][file-10.c][function-4][ln:960]
[2019-04-04 23:36:54,462][INFO] any info message - [id:10][instance:4] - [COMP-3][file-10.c][function-4][ln:783]
[2019-04-04 23:36:55,964][INFO] any info message - [id:10][instance:5] - [COMP-4][file-13.c][function-2][ln:267]
[2019-04-04 23:36:57,464][INFO] any info message - [id:10][instance:4] - [COMP-3][file-3.c][function-8][ln:952]
[2019-04-04 23:36:58,966][INFO] any info message - [id:10][instance:5] - [COMP-12][file-4.c][function-10][ln:377]
[2019-04-04 23:37:00,467][INFO] any info message - [id:10][instance:4] - [COMP-8][file-2.c][function-13][ln:666]
[2019-04-04 23:37:01,967][INFO] any info message - [id:10][instance:4] - [COMP-6][file-8.c][function-12][ln:725]
[2019-04-04 23:37:03,468][INFO] any info message - [id:10][instance:1] - [COMP-5][file-1.c][function-2][ln:188]
[2019-04-04 23:37:04,969][INFO] any info message - [id:10][instance:6] - [COMP-9][file-4.c][function-11][ln:910]
[2019-04-04 23:37:06,469][INFO] any info message - [id:10][instance:1] - [COMP-1][file-11.c][function-11][ln:203]
[2019-04-04 23:37:07,972][INFO] any info message - [id:10][instance:1] - [COMP-3][file-9.c][function-3][ln:945]
[2019-04-04 23:37:08,790][WARNING] Here is a warning message - [id:10][instance:4] - [COMP-12][file-11.c][function-1][ln:338]
[2019-04-04 23:37:08,817][DEBUG] any debug message - [id:10][instance:5] - [COMP-1][file-4.c][function-3][ln:617]
[2019-04-04 23:37:09,472][INFO] any info message - [id:10][instance:1] - [COMP-13][file-10.c][function-9][ln:987]
[2019-04-04 23:37:10,973][INFO] any info message - [id:10][instance:3] - [COMP-5][file-7.c][function-7][ln:218]
[2019-04-04 23:37:12,474][INFO] any info message - [id:10][instance:1] - [COMP-4][file-9.c][function-3][ln:309]
[2019-04-04 23:37:13,976][INFO] any info message - [id:10][instance:4] - [COMP-2][file-13.c][function-1][ln:532]
[2019-04-04 23:37:15,476][INFO] any info message - [id:10][instance:4] - [COMP-9][file-5.c][function-1][ln:87]
[2019-04-04 23:37:16,978][INFO] any info message - [id:10][instance:2] - [COMP-3][file-12.c][function-7][ln:639]
[2019-04-04 23:37:18,479][INFO] any info message - [id:10][instance:3] - [COMP-4][file-5.c][function-11][ln:796]
[2019-04-04 23:37:19,979][INFO] any info message - [id:10][instance:7] - [COMP-9][file-12.c][function-1][ln:384]
[2019-04-04 23:37:21,480][INFO] any info message - [id:10][instance:7] - [COMP-3][file-6.c][function-7][ln:243]
[2019-04-04 23:37:22,981][INFO] any info message - [id:10][instance:7] - [COMP-7][file-6.c][function-9][ln:540]
[2019-04-04 23:37:23,818][DEBUG] any debug message - [id:10][instance:2] - [COMP-13][file-7.c][function-7][ln:230]
[2019-04-04 23:37:24,482][INFO] any info message - [id:10][instance:3] - [COMP-3][file-1.c][function-8][ln:308]
[2019-04-04 23:37:25,983][INFO] any info message - [id:10][instance:3] - [COMP-7][file-5.c][function-8][ln:407]
[2019-04-04 23:37:27,483][INFO] any info message - [id:10][instance:5] - [COMP-2][file-4.c][function-7][ln:209]
[2019-04-04 23:37:28,984][INFO] any info message - [id:10][instance:3] - [COMP-12][file-5.c][function-2][ln:492]
[2019-04-04 23:37:30,485][INFO] any info message - [id:10][instance:3] - [COMP-4][file-2.c][function-10][ln:263]
[2019-04-04 23:37:31,986][INFO] any info message - [id:10][instance:5] - [COMP-8][file-2.c][function-5][ln:532]
[2019-04-04 23:37:33,487][INFO] any info message - [id:10][instance:6] - [COMP-3][file-1.c][function-12][ln:129]
[2019-04-04 23:37:34,988][INFO] any info message - [id:10][instance:5] - [COMP-7][file-11.c][function-8][ln:917]
[2019-04-04 23:37:36,488][INFO] any info message - [id:10][instance:3] - [COMP-10][file-13.c][function-12][ln:23]
[2019-04-04 23:37:37,988][INFO] any info message - [id:10][instance:6] - [COMP-10][file-13.c][function-2][ln:345]
[2019-04-04 23:37:38,780][ERROR] It is an error message - [id:10][instance:5] - [COMP-2][file-9.c][function-7][ln:697]
[2019-04-04 23:37:38,791][WARNING] Here is a warning message - [id:10][instance:2] - [COMP-10][file-12.c][function-10][ln:939]
[2019-04-04 23:37:38,819][DEBUG] any debug message - [id:10][instance:1] - [COMP-10][file-3.c][function-7][ln:664]
[2019-04-04 23:37:39,488][INFO] any info message - [id:10][instance:6] - [COMP-11][file-8.c][function-1][ln:246]
[2019-04-04 23:37:40,988][INFO] any info message - [id:10][instance:6] - [COMP-2][file-3.c][function-6][ln:64]
[2019-04-04 23:37:42,488][INFO] any info message - [id:10][instance:1] - [COMP-5][file-2.c][function-10][ln:452]
[2019-04-04 23:37:43,989][INFO] any info message - [id:10][instance:4] - [COMP-10][file-8.c][function-8][ln:158]
[2019-04-04 23:37:45,489][INFO] any info message - [id:10][instance:6] - [COMP-4][file-9.c][function-5][ln:599]
[2019-04-04 23:37:46,989][INFO] any info message - [id:10][instance:6] - [COMP-13][file-5.c][function-2][ln:794]
[2019-04-04 23:37:48,490][INFO] any info message - [id:10][instance:1] - [COMP-4][file-4.c][function-1][ln:272]
[2019-04-04 23:37:49,991][INFO] any info message - [id:10][instance:2] - [COMP-10][file-12.c][function-11][ln:470]
[2019-04-04 23:37:51,491][INFO] any info message - [id:10][instance:1] - [COMP-4][file-12.c][function-8][ln:358]
[2019-04-04 23:37:52,992][INFO] any info message - [id:10][instance:6] - [COMP-9][file-8.c][function-3][ln:347]
[2019-04-04 23:37:53,819][DEBUG] any debug message - [id:10][instance:5] - [COMP-5][file-8.c][function-6][ln:406]
[2019-04-04 23:37:54,494][INFO] any info message - [id:10][instance:4] - [COMP-3][file-9.c][function-7][ln:114]
[2019-04-04 23:37:55,995][INFO] any info message - [id:10][instance:4] - [COMP-10][file-12.c][function-13][ln:67]
[2019-04-04 23:37:57,496][INFO] any info message - [id:10][instance:4] - [COMP-1][file-6.c][function-5][ln:502]
[2019-04-04 23:37:58,997][INFO] any info message - [id:10][instance:5] - [COMP-13][file-13.c][function-1][ln:815]
[2019-04-04 23:38:00,498][INFO] any info message - [id:10][instance:1] - [COMP-6][file-8.c][function-8][ln:630]
[2019-04-04 23:38:01,998][INFO] any info message - [id:10][instance:1] - [COMP-2][file-8.c][function-1][ln:36]
[2019-04-04 23:38:03,499][INFO] any info message - [id:10][instance:4] - [COMP-7][file-6.c][function-5][ln:218]
[2019-04-04 23:38:04,999][INFO] any info message - [id:10][instance:7] - [COMP-7][file-11.c][function-6][ln:76]
[2019-04-04 23:38:06,500][INFO] any info message - [id:10][instance:3] - [COMP-10][file-6.c][function-5][ln:679]
[2019-04-04 23:38:08,000][INFO] any info message - [id:10][instance:1] - [COMP-5][file-5.c][function-8][ln:487]
[2019-04-04 23:38:08,791][WARNING] Here is a warning message - [id:10][instance:3] - [COMP-13][file-2.c][function-7][ln:681]
[2019-04-04 23:38:08,820][DEBUG] any debug message - [id:10][instance:2] - [COMP-9][file-4.c][function-1][ln:607]
[2019-04-04 23:38:09,501][INFO] any info message - [id:10][instance:2] - [COMP-10][file-2.c][function-9][ln:673]
[2019-04-04 23:38:11,001][INFO] any info message - [id:10][instance:7] - [COMP-3][file-10.c][function-8][ln:957]
[2019-04-04 23:38:12,501][INFO] any info message - [id:10][instance:4] - [COMP-4][file-13.c][function-9][ln:208]
[2019-04-04 23:38:14,001][INFO] any info message - [id:10][instance:1] - [COMP-7][file-6.c][function-11][ln:261]
[2019-04-04 23:38:15,501][INFO] any info message - [id:10][instance:2] - [COMP-13][file-13.c][function-3][ln:67]
[2019-04-04 23:38:17,002][INFO] any info message - [id:10][instance:4] - [COMP-8][file-5.c][function-9][ln:444]
[2019-04-04 23:38:18,502][INFO] any info message - [id:10][instance:7] - [COMP-11][file-5.c][function-8][ln:162]
[2019-04-04 23:38:20,003][INFO] any info message - [id:10][instance:4] - [COMP-13][file-2.c][function-8][ln:809]
[2019-04-04 23:38:21,503][INFO] any info message - [id:10][instance:7] - [COMP-6][file-1.c][function-7][ln:624]
[2019-04-04 23:38:23,004][INFO] any info message - [id:10][instance:7] - [COMP-6][file-12.c][function-3][ln:179]
[2019-04-04 23:38:23,820][DEBUG] any debug message - [id:10][instance:4] - [COMP-4][file-12.c][function-2][ln:912]
[2019-04-04 23:38:24,504][INFO] any info message - [id:10][instance:3] - [COMP-4][file-6.c][function-3][ln:274]
[2019-04-04 23:38:26,006][INFO] any info message - [id:10][instance:3] - [COMP-4][file-4.c][function-7][ln:465]
[2019-04-04 23:38:27,506][INFO] any info message - [id:10][instance:4] - [COMP-10][file-10.c][function-4][ln:171]
[2019-04-04 23:38:29,006][INFO] any info message - [id:10][instance:7] - [COMP-3][file-4.c][function-9][ln:955]
[2019-04-04 23:38:30,507][INFO] any info message - [id:10][instance:2] - [COMP-13][file-13.c][function-2][ln:547]
[2019-04-04 23:38:32,008][INFO] any info message - [id:10][instance:1] - [COMP-4][file-8.c][function-13][ln:633]
[2019-04-04 23:38:33,508][INFO] any info message - [id:10][instance:1] - [COMP-12][file-7.c][function-10][ln:813]
[2019-04-04 23:38:35,008][INFO] any info message - [id:10][instance:7] - [COMP-7][file-9.c][function-11][ln:505]
[2019-04-04 23:38:36,509][INFO] any info message - [id:10][instance:2] - [COMP-7][file-13.c][function-7][ln:560]
[2019-04-04 23:38:38,009][INFO] any info message - [id:10][instance:7] - [COMP-9][file-2.c][function-13][ln:631]
[2019-04-04 23:38:38,774][CRITICAL] ATTENTION: This is a critical issue! - [id:10][instance:6] - [COMP-12][file-6.c][function-10][ln:317]
[2019-04-04 23:38:38,781][ERROR] It is an error message - [id:10][instance:6] - [COMP-7][file-12.c][function-4][ln:3]
[2019-04-04 23:38:38,791][WARNING] Here is a warning message - [id:10][instance:1] - [COMP-5][file-9.c][function-12][ln:997]
[2019-04-04 23:38:38,821][DEBUG] any debug message - [id:10][instance:3] - [COMP-1][file-10.c][function-11][ln:933]
[2019-04-04 23:38:39,509][INFO] any info message - [id:10][instance:5] - [COMP-1][file-13.c][function-5][ln:15]
[2019-04-04 23:38:41,010][INFO] any info message - [id:10][instance:4] - [COMP-3][file-3.c][function-4][ln:373]
[2019-04-04 23:38:42,510][INFO] any info message - [id:10][instance:4] - [COMP-3][file-2.c][function-4][ln:135]
[2019-04-04 23:38:44,010][INFO] any info message - [id:10][instance:3] - [COMP-4][file-6.c][function-11][ln:66]
[2019-04-04 23:38:45,510][INFO] any info message - [id:10][instance:4] - [COMP-5][file-4.c][function-8][ln:694]
[2019-04-04 23:38:47,011][INFO] any info message - [id:10][instance:6] - [COMP-2][file-13.c][function-9][ln:783]
[2019-04-04 23:38:48,512][INFO] any info message - [id:10][instance:2] - [COMP-1][file-3.c][function-12][ln:752]
[2019-04-04 23:38:50,012][INFO] any info message - [id:10][instance:3] - [COMP-10][file-9.c][function-13][ln:347]
[2019-04-04 23:38:51,512][INFO] any info message - [id:10][instance:5] - [COMP-11][file-12.c][function-3][ln:956]
[2019-04-04 23:38:53,013][INFO] any info message - [id:10][instance:5] - [COMP-7][file-13.c][function-10][ln:199]
[2019-04-04 23:38:53,821][DEBUG] any debug message - [id:10][instance:3] - [COMP-4][file-6.c][function-7][ln:114]
[2019-04-04 23:38:54,513][INFO] any info message - [id:10][instance:3] - [COMP-2][file-10.c][function-1][ln:482]
[2019-04-04 23:38:56,013][INFO] any info message - [id:10][instance:4] - [COMP-3][file-10.c][function-5][ln:309]
[2019-04-04 23:38:57,514][INFO] any info message - [id:10][instance:4] - [COMP-6][file-13.c][function-6][ln:198]
[2019-04-04 23:38:59,014][INFO] any info message - [id:10][instance:4] - [COMP-8][file-8.c][function-10][ln:14]
[2019-04-04 23:39:00,514][INFO] any info message - [id:10][instance:1] - [COMP-11][file-11.c][function-11][ln:618]
[2019-04-04 23:39:02,015][INFO] any info message - [id:10][instance:2] - [COMP-6][file-8.c][function-10][ln:649]
[2019-04-04 23:39:03,515][INFO] any info message - [id:10][instance:4] - [COMP-12][file-5.c][function-2][ln:26]
[2019-04-04 23:39:05,015][INFO] any info message - [id:10][instance:4] - [COMP-6][file-5.c][function-13][ln:299]
[2019-04-04 23:39:06,515][INFO] any info message - [id:10][instance:3] - [COMP-12][file-12.c][function-7][ln:139]
[2019-04-04 23:39:08,015][INFO] any info message - [id:10][instance:4] - [COMP-4][file-3.c][function-5][ln:301]
[2019-04-04 23:39:08,792][WARNING] Here is a warning message - [id:10][instance:4] - [COMP-12][file-6.c][function-4][ln:173]
[2019-04-04 23:39:08,821][DEBUG] any debug message - [id:10][instance:5] - [COMP-3][file-11.c][function-2][ln:581]
[2019-04-04 23:39:09,516][INFO] any info message - [id:10][instance:2] - [COMP-9][file-8.c][function-3][ln:998]
[2019-04-04 23:39:11,016][INFO] any info message - [id:10][instance:2] - [COMP-7][file-13.c][function-8][ln:385]
[2019-04-04 23:39:12,517][INFO] any info message - [id:10][instance:4] - [COMP-10][file-6.c][function-11][ln:608]
[2019-04-04 23:39:14,017][INFO] any info message - [id:10][instance:2] - [COMP-8][file-3.c][function-12][ln:218]
[2019-04-04 23:39:15,517][INFO] any info message - [id:10][instance:7] - [COMP-13][file-6.c][function-4][ln:390]
[2019-04-04 23:39:17,019][INFO] any info message - [id:10][instance:7] - [COMP-7][file-7.c][function-2][ln:745]
[2019-04-04 23:39:18,521][INFO] any info message - [id:10][instance:1] - [COMP-13][file-8.c][function-6][ln:747]
[2019-04-04 23:39:20,022][INFO] any info message - [id:10][instance:2] - [COMP-4][file-1.c][function-6][ln:224]
[2019-04-04 23:39:21,522][INFO] any info message - [id:10][instance:7] - [COMP-1][file-8.c][function-9][ln:239]
[2019-04-04 23:39:23,023][INFO] any info message - [id:10][instance:7] - [COMP-9][file-2.c][function-1][ln:415]
[2019-04-04 23:39:23,823][DEBUG] any debug message - [id:10][instance:5] - [COMP-1][file-5.c][function-12][ln:828]
[2019-04-04 23:39:24,523][INFO] any info message - [id:10][instance:6] - [COMP-11][file-8.c][function-7][ln:810]
[2019-04-04 23:39:26,024][INFO] any info message - [id:10][instance:5] - [COMP-7][file-13.c][function-10][ln:391]
[2019-04-04 23:39:27,525][INFO] any info message - [id:10][instance:3] - [COMP-8][file-11.c][function-12][ln:410]
[2019-04-04 23:39:29,025][INFO] any info message - [id:10][instance:7] - [COMP-6][file-7.c][function-6][ln:938]
[2019-04-04 23:39:30,525][INFO] any info message - [id:10][instance:5] - [COMP-13][file-13.c][function-11][ln:198]
[2019-04-04 23:39:32,025][INFO] any info message - [id:10][instance:3] - [COMP-8][file-2.c][function-3][ln:751]
[2019-04-04 23:39:33,526][INFO] any info message - [id:10][instance:5] - [COMP-9][file-1.c][function-3][ln:352]
[2019-04-04 23:39:35,026][INFO] any info message - [id:10][instance:1] - [COMP-6][file-13.c][function-4][ln:59]
[2019-04-04 23:39:36,528][INFO] any info message - [id:10][instance:2] - [COMP-1][file-5.c][function-8][ln:575]
[2019-04-04 23:39:38,028][INFO] any info message - [id:10][instance:1] - [COMP-7][file-1.c][function-4][ln:651]
[2019-04-04 23:39:38,781][ERROR] It is an error message - [id:10][instance:6] - [COMP-4][file-12.c][function-1][ln:401]
[2019-04-04 23:39:38,794][WARNING] Here is a warning message - [id:10][instance:3] - [COMP-13][file-10.c][function-8][ln:816]
[2019-04-04 23:39:38,824][DEBUG] any debug message - [id:10][instance:2] - [COMP-8][file-13.c][function-8][ln:354]
[2019-04-04 23:39:39,529][INFO] any info message - [id:10][instance:7] - [COMP-5][file-10.c][function-2][ln:677]
[2019-04-04 23:39:41,030][INFO] any info message - [id:10][instance:7] - [COMP-8][file-8.c][function-8][ln:535]
[2019-04-04 23:39:42,530][INFO] any info message - [id:10][instance:5] - [COMP-1][file-4.c][function-5][ln:370]
[2019-04-04 23:39:44,030][INFO] any info message - [id:10][instance:7] - [COMP-2][file-12.c][function-13][ln:341]
[2019-04-04 23:39:45,530][INFO] any info message - [id:10][instance:7] - [COMP-9][file-5.c][function-7][ln:248]
[2019-04-04 23:39:47,030][INFO] any info message - [id:10][instance:1] - [COMP-3][file-4.c][function-10][ln:382]
[2019-04-04 23:39:48,531][INFO] any info message - [id:10][instance:6] - [COMP-4][file-9.c][function-1][ln:611]
[2019-04-04 23:39:50,032][INFO] any info message - [id:10][instance:6] - [COMP-5][file-10.c][function-10][ln:593]
[2019-04-04 23:39:51,533][INFO] any info message - [id:10][instance:4] - [COMP-8][file-10.c][function-8][ln:277]
[2019-04-04 23:39:53,035][INFO] any info message - [id:10][instance:7] - [COMP-13][file-9.c][function-10][ln:524]
[2019-04-04 23:39:53,826][DEBUG] any debug message - [id:10][instance:2] - [COMP-4][file-13.c][function-1][ln:913]
[2019-04-04 23:39:54,535][INFO] any info message - [id:10][instance:5] - [COMP-6][file-9.c][function-4][ln:37]
[2019-04-04 23:39:56,035][INFO] any info message - [id:10][instance:7] - [COMP-13][file-10.c][function-6][ln:414]
[2019-04-04 23:39:57,535][INFO] any info message - [id:10][instance:1] - [COMP-13][file-10.c][function-11][ln:319]
[2019-04-04 23:39:59,041][INFO] any info message - [id:10][instance:4] - [COMP-2][file-9.c][function-9][ln:307]
[2019-04-04 23:40:00,541][INFO] any info message - [id:10][instance:3] - [COMP-2][file-9.c][function-6][ln:268]
[2019-04-04 23:40:02,041][INFO] any info message - [id:10][instance:3] - [COMP-2][file-8.c][function-9][ln:136]
[2019-04-04 23:40:03,542][INFO] any info message - [id:10][instance:1] - [COMP-7][file-12.c][function-10][ln:619]
[2019-04-04 23:40:05,042][INFO] any info message - [id:10][instance:7] - [COMP-7][file-9.c][function-13][ln:206]
[2019-04-04 23:40:06,542][INFO] any info message - [id:10][instance:6] - [COMP-3][file-9.c][function-2][ln:521]
[2019-04-04 23:40:08,043][INFO] any info message - [id:10][instance:3] - [COMP-9][file-11.c][function-7][ln:142]
[2019-04-04 23:40:08,793][WARNING] Here is a warning message - [id:10][instance:1] - [COMP-1][file-12.c][function-8][ln:196]
[2019-04-04 23:40:08,827][DEBUG] any debug message - [id:10][instance:4] - [COMP-2][file-3.c][function-9][ln:675]
[2019-04-04 23:40:09,545][INFO] any info message - [id:10][instance:1] - [COMP-10][file-6.c][function-4][ln:536]
[2019-04-04 23:40:11,044][INFO] any info message - [id:10][instance:4] - [COMP-3][file-2.c][function-6][ln:629]
[2019-04-04 23:40:12,544][INFO] any info message - [id:10][instance:4] - [COMP-11][file-3.c][function-9][ln:440]
